[gd_scene load_steps=3 format=2]

[ext_resource path="res://blokoj/kosmo/resursoj/blue_frame.png" type="Texture2D" id=1]
[ext_resource path="res://blokoj/kosmo/skriptoj/tactical_label.gd" type="Script" id=2]

[node name="tactical_label" type="Node3D"]
script = ExtResource( 2 )

[node name="VisibleOnScreenNotifier3D" type="VisibleOnScreenNotifier3D" parent="."]

[node name="TextureRect" type="TextureRect" parent="."]
visible = false
offset_left = -0.451784
offset_top = 0.146971
offset_right = 49.5482
offset_bottom = 50.147
texture = ExtResource( 1 )
expand = true
__meta__ = {
"_edit_use_anchors_": false
}

[node name="Label" type="Label" parent="TextureRect"]
offset_left = 4.42731
offset_top = 47.6786
offset_right = 44.4273
offset_bottom = 61.6786
text = "Space Station"
__meta__ = {
"_edit_use_anchors_": false
}
[connection signal="camera_entered" from="VisibleOnScreenNotifier3D" to="." method="_on_VisibilityNotifier_camera_entered"]
[connection signal="camera_exited" from="VisibleOnScreenNotifier3D" to="." method="_on_VisibilityNotifier_camera_exited"]
[connection signal="gui_input" from="TextureRect" to="." method="_on_TextureRect_gui_input"]
