[gd_scene load_steps=4 format=2]

[ext_resource path="res://blokoj/asteroidoj/resursoj/ast_ice_shards_0.glb" type="PackedScene" id=1]
[ext_resource path="res://blokoj/asteroidoj/skriptoj/ast_.gd" type="Script" id=2]

[sub_resource type="ConcavePolygonShape3D" id=1]
data = PackedVector3Array( -3.4058, 1.3906, -0.5409, -0.1875, 1.8404, -3.3571, -3.4808, 1.8269, -0.6622, 2.7392, -0.0053, 0.2565, 0.3729, -2.2883, 3.154, 2.8845, 1.8404, 0.0814, 0.3729, -2.2883, 3.154, -0.3916, -3.3691, 2.3957, 0.375, 1.8404, 3.1484, -0.3916, -3.3691, 2.3957, 0.3729, -2.2883, 3.154, 1.7189, -1.5681, -1.356, -0.3916, -3.3691, 2.3957, -0.064, -3.1866, 1.5582, -3.4058, 1.3906, -0.5409, -3.4808, 1.8269, -0.6622, -0.3916, -3.3691, 2.3957, -3.4058, 1.3906, -0.5409, 1.7189, -1.5681, -1.356, 0.3729, -2.2883, 3.154, 2.7392, -0.0053, 0.2565, 1.7189, -1.5681, -1.356, -0.064, -3.1866, 1.5582, -0.3916, -3.3691, 2.3957, 1.7189, -1.5681, -1.356, 1.0213, 0.9525, -3.3571, -0.1875, 1.8404, -3.3571, 2.8845, 1.8404, 0.0814, 0.3729, -2.2883, 3.154, 0.375, 1.8404, 3.1484, -0.1875, 1.8404, -3.3571, 1.0213, 0.9525, -3.3571, 1.1337, 1.8404, -3.3571, 0.375, 1.8404, 3.1484, -0.3916, -3.3691, 2.3957, -3.4808, 1.8269, -0.6622, -0.1875, 1.8404, -3.3571, 0.375, 1.8404, 3.1484, -3.4808, 1.8269, -0.6622, -0.1875, 1.8404, -3.3571, 2.8845, 1.8404, 0.0814, 0.375, 1.8404, 3.1484, 1.1337, 1.8404, -3.3571, 2.8845, 1.8404, 0.0814, -0.1875, 1.8404, -3.3571, 1.7189, -1.5681, -1.356, -3.4058, 1.3906, -0.5409, -0.064, -3.1866, 1.5582, -0.1875, 1.8404, -3.3571, -3.4058, 1.3906, -0.5409, 1.7189, -1.5681, -1.356, 2.7392, -0.0053, 0.2565, 1.0213, 0.9525, -3.3571, 1.7189, -1.5681, -1.356, 2.8845, 1.8404, 0.0814, 1.0213, 0.9525, -3.3571, 2.7392, -0.0053, 0.2565, 2.8845, 1.8404, 0.0814, 1.1337, 1.8404, -3.3571, 1.0213, 0.9525, -3.3571, 4.8132, 11.9186, 2.5808, 3.251, 11.5654, 9.2291, 5.2415, 9.5252, 9.5812, 9.1151, 9.475, 1.7278, 7.4187, 10.2366, 0.2528, 5.2415, 9.5252, 9.5812, 6.1218, 14.1898, 5.9549, 7.6018, 13.7222, 7.0085, 5.3312, 14.0384, 9.8549, 5.4149, 13.643, 4.162, 4.8132, 11.9186, 2.5808, 7.4187, 10.2366, 0.2528, 8.8971, 9.9202, 1.4543, 7.4187, 10.2366, 0.2528, 9.1151, 9.475, 1.7278, 9.9977, 11.9313, 10.8143, 7.6018, 13.7222, 7.0085, 8.8971, 9.9202, 1.4543, 7.6018, 13.7222, 7.0085, 5.4149, 13.643, 4.162, 7.4187, 10.2366, 0.2528, 7.6018, 13.7222, 7.0085, 7.4187, 10.2366, 0.2528, 8.8971, 9.9202, 1.4543, 8.8971, 9.9202, 1.4543, 9.1151, 9.475, 1.7278, 9.9977, 11.9313, 10.8143, 5.3312, 14.0384, 9.8549, 7.6018, 13.7222, 7.0085, 9.9977, 11.9313, 10.8143, 3.659, 12.9101, 9.4, 5.4149, 13.643, 4.162, 5.3312, 14.0384, 9.8549, 9.9977, 11.9313, 10.8143, 9.1151, 9.475, 1.7278, 10.3282, 10.3092, 10.7776, 9.1151, 9.475, 1.7278, 5.2415, 9.5252, 9.5812, 7.3227, 9.0045, 10.0395, 9.1151, 9.475, 1.7278, 7.3227, 9.0045, 10.0395, 10.3282, 10.3092, 10.7776, 4.8132, 11.9186, 2.5808, 5.2415, 9.5252, 9.5812, 7.4187, 10.2366, 0.2528, 6.1218, 14.1898, 5.9549, 5.3312, 14.0384, 9.8549, 5.4149, 13.643, 4.162, 4.8132, 11.9186, 2.5808, 3.659, 12.9101, 9.4, 3.251, 11.5654, 9.2291, 5.4149, 13.643, 4.162, 3.659, 12.9101, 9.4, 4.8132, 11.9186, 2.5808, 7.6018, 13.7222, 7.0085, 6.1218, 14.1898, 5.9549, 5.4149, 13.643, 4.162, 5.2415, 9.5252, 9.5812, 10.3282, 10.3092, 10.7776, 7.3227, 9.0045, 10.0395, 3.251, 11.5654, 9.2291, 10.3282, 10.3092, 10.7776, 5.2415, 9.5252, 9.5812, 3.251, 11.5654, 9.2291, 9.9977, 11.9313, 10.8143, 10.3282, 10.3092, 10.7776, 3.659, 12.9101, 9.4, 9.9977, 11.9313, 10.8143, 3.251, 11.5654, 9.2291, 3.659, 12.9101, 9.4, 5.3312, 14.0384, 9.8549, 9.9977, 11.9313, 10.8143, 8.7431, 5.893, -2.2128, 11.5825, 2.145, 1.4439, 11.1221, 6.3363, -3.4105, 13.8202, 7.8856, -1.3996, 11.5825, 2.145, 1.4439, 15.5749, 6.834, 2.5244, 9.2964, 10.6766, -3.8535, 11.1221, 6.3363, -3.4105, 13.8202, 7.8856, -1.3996, 9.2964, 10.6766, -3.8535, 13.8202, 7.8856, -1.3996, 15.2855, 7.9196, 3.0843, 11.1221, 6.3363, -3.4105, 11.5825, 2.145, 1.4439, 13.8202, 7.8856, -1.3996, 8.7431, 5.893, -2.2128, 11.1221, 6.3363, -3.4105, 9.2964, 10.6766, -3.8535, 11.5825, 2.145, 1.4439, 8.7431, 5.893, -2.2128, 10.2035, 3.2778, 2.5549, 15.2855, 7.9196, 3.0843, 13.8202, 7.8856, -1.3996, 15.5749, 6.834, 2.5244, 10.2035, 3.2778, 2.5549, 8.7431, 5.893, -2.2128, 12.0951, 7.3934, 3.8927, 10.2035, 3.2778, 2.5549, 15.5749, 6.834, 2.5244, 11.5825, 2.145, 1.4439, 12.0951, 7.3934, 3.8927, 15.5749, 6.834, 2.5244, 10.2035, 3.2778, 2.5549, 12.0951, 7.3934, 3.8927, 15.2855, 7.9196, 3.0843, 15.5749, 6.834, 2.5244, 9.2964, 10.6766, -3.8535, 12.0951, 7.3934, 3.8927, 8.7431, 5.893, -2.2128, 15.2855, 7.9196, 3.0843, 12.0951, 7.3934, 3.8927, 9.2964, 10.6766, -3.8535, 1.075, 10.0679, 2.7789, 3.4724, 12.684, 0.5601, 0.7404, 10.3466, 2.59, 5.8554, 13.0611, 4.895, 5.308, 9.653, 7.5872, 4.6603, 14.5276, 4.5152, 5.308, 9.653, 7.5872, 5.7682, 8.3919, 6.8364, 2.3378, 12.6983, 7.0562, 5.7682, 8.3919, 6.8364, 5.308, 9.653, 7.5872, 6.6943, 11.3225, 3.3184, 5.7682, 8.3919, 6.8364, 6.0405, 8.7894, 6.0521, 1.075, 10.0679, 2.7789, 0.7404, 10.3466, 2.59, 5.7682, 8.3919, 6.8364, 1.075, 10.0679, 2.7789, 6.6943, 11.3225, 3.3184, 5.308, 9.653, 7.5872, 5.8554, 13.0611, 4.895, 6.6943, 11.3225, 3.3184, 6.0405, 8.7894, 6.0521, 5.7682, 8.3919, 6.8364, 6.6943, 11.3225, 3.3184, 4.8905, 12.8293, 0.9004, 3.4724, 12.684, 0.5601, 4.6603, 14.5276, 4.5152, 5.308, 9.653, 7.5872, 2.3378, 12.6983, 7.0562, 3.4724, 12.684, 0.5601, 4.8905, 12.8293, 0.9004, 4.3236, 13.5582, 0.8084, 2.3378, 12.6983, 7.0562, 5.7682, 8.3919, 6.8364, 0.7404, 10.3466, 2.59, 3.4724, 12.684, 0.5601, 2.3378, 12.6983, 7.0562, 0.7404, 10.3466, 2.59, 4.3236, 13.5582, 0.8084, 2.3378, 12.6983, 7.0562, 3.4724, 12.684, 0.5601, 4.3236, 13.5582, 0.8084, 4.6603, 14.5276, 4.5152, 2.3378, 12.6983, 7.0562, 6.6943, 11.3225, 3.3184, 1.075, 10.0679, 2.7789, 6.0405, 8.7894, 6.0521, 6.6943, 11.3225, 3.3184, 3.4724, 12.684, 0.5601, 1.075, 10.0679, 2.7789, 5.8554, 13.0611, 4.895, 4.8905, 12.8293, 0.9004, 6.6943, 11.3225, 3.3184, 5.8554, 13.0611, 4.895, 4.3236, 13.5582, 0.8084, 4.8905, 12.8293, 0.9004, 4.6603, 14.5276, 4.5152, 4.3236, 13.5582, 0.8084, 5.8554, 13.0611, 4.895, 4.3088, 7.9194, 8.2676, 3.1525, 6.9192, 9.9572, 3.4586, 6.5818, 3.3443, 3.1525, 6.9192, 9.9572, 4.3088, 7.9194, 8.2676, 4.125, 7.8153, 9.2215, 3.1525, 6.9192, 9.9572, 6.9212, 4.4688, 8.5659, 5.344, 2.9692, 9.6674, 3.1525, 6.9192, 9.9572, 4.125, 7.8153, 9.2215, 6.9212, 4.4688, 8.5659, 2.2459, 5.9803, 9.6855, 3.1525, 6.9192, 9.9572, 2.8881, 5.1208, 10.5101, 2.8881, 5.1208, 10.5101, 3.1525, 6.9192, 9.9572, 5.344, 2.9692, 9.6674, 4.0362, 6.0225, 3.4012, 6.2214, 6.3841, 5.896, 4.2733, 6.2827, 3.4714, 3.4586, 6.5818, 3.3443, 3.1525, 6.9192, 9.9572, 2.2459, 5.9803, 9.6855, 4.125, 7.8153, 9.2215, 6.2214, 6.3841, 5.896, 6.9212, 4.4688, 8.5659, 4.125, 7.8153, 9.2215, 4.3088, 7.9194, 8.2676, 6.2214, 6.3841, 5.896, 3.4586, 6.5818, 3.3443, 4.0362, 6.0225, 3.4012, 4.2733, 6.2827, 3.4714, 5.6394, 3.0398, 8.4063, 5.344, 2.9692, 9.6674, 6.9212, 4.4688, 8.5659, 6.2214, 6.3841, 5.896, 3.4586, 6.5818, 3.3443, 4.2733, 6.2827, 3.4714, 4.3088, 7.9194, 8.2676, 3.4586, 6.5818, 3.3443, 6.2214, 6.3841, 5.896, 6.2214, 6.3841, 5.896, 4.0362, 6.0225, 3.4012, 6.9212, 4.4688, 8.5659, 6.9212, 4.4688, 8.5659, 4.0362, 6.0225, 3.4012, 5.6394, 3.0398, 8.4063, 5.6394, 3.0398, 8.4063, 2.8881, 5.1208, 10.5101, 5.344, 2.9692, 9.6674, 4.0362, 6.0225, 3.4012, 2.8881, 5.1208, 10.5101, 5.6394, 3.0398, 8.4063, 4.0362, 6.0225, 3.4012, 2.2459, 5.9803, 9.6855, 2.8881, 5.1208, 10.5101, 4.0362, 6.0225, 3.4012, 3.4586, 6.5818, 3.3443, 2.2459, 5.9803, 9.6855, 7.8233, 15.7685, -0.135, 5.2237, 13.5247, 1.5732, 5.0775, 12.9482, -0.9362, 5.0775, 12.9482, -0.9362, 5.4522, 13.1505, 2.0974, 6.2185, 10.1974, -0.8229, 10.4764, 11.9182, 5.3102, 11.834, 12.336, 2.7634, 9.4612, 11.5477, 5.3983, 11.0579, 14.4314, 2.5956, 11.834, 12.336, 2.7634, 10.4764, 11.9182, 5.3102, 9.4612, 11.5477, 5.3983, 12.3083, 12.4516, 0.7299, 6.2185, 10.1974, -0.8229, 11.834, 12.336, 2.7634, 12.3083, 12.4516, 0.7299, 9.4612, 11.5477, 5.3983, 5.4522, 13.1505, 2.0974, 9.4612, 11.5477, 5.3983, 6.7615, 10.5231, 3.6453, 6.7615, 10.5231, 3.6453, 9.4612, 11.5477, 5.3983, 6.2185, 10.1974, -0.8229, 12.2456, 14.0831, 0.8065, 11.0579, 14.4314, 2.5956, 9.2742, 15.9142, 0.213, 7.8233, 15.7685, -0.135, 11.0579, 14.4314, 2.5956, 5.4522, 13.1505, 2.0974, 7.8233, 15.7685, -0.135, 9.2742, 15.9142, 0.213, 11.0579, 14.4314, 2.5956, 5.2237, 13.5247, 1.5732, 5.4522, 13.1505, 2.0974, 5.0775, 12.9482, -0.9362, 12.3083, 12.4516, 0.7299, 11.834, 12.336, 2.7634, 12.366, 13.7809, 0.8178, 7.8233, 15.7685, -0.135, 5.4522, 13.1505, 2.0974, 5.2237, 13.5247, 1.5732, 5.4522, 13.1505, 2.0974, 10.4764, 11.9182, 5.3102, 9.4612, 11.5477, 5.3983, 5.4522, 13.1505, 2.0974, 11.0579, 14.4314, 2.5956, 10.4764, 11.9182, 5.3102, 6.7615, 10.5231, 3.6453, 6.2185, 10.1974, -0.8229, 5.4522, 13.1505, 2.0974, 12.3083, 12.4516, 0.7299, 5.0775, 12.9482, -0.9362, 6.2185, 10.1974, -0.8229, 12.366, 13.7809, 0.8178, 5.0775, 12.9482, -0.9362, 12.3083, 12.4516, 0.7299, 12.366, 13.7809, 0.8178, 7.8233, 15.7685, -0.135, 5.0775, 12.9482, -0.9362, 12.2456, 14.0831, 0.8065, 7.8233, 15.7685, -0.135, 12.366, 13.7809, 0.8178, 9.2742, 15.9142, 0.213, 7.8233, 15.7685, -0.135, 12.2456, 14.0831, 0.8065, 11.0579, 14.4314, 2.5956, 12.366, 13.7809, 0.8178, 11.834, 12.336, 2.7634, 11.0579, 14.4314, 2.5956, 12.2456, 14.0831, 0.8065, 12.366, 13.7809, 0.8178, 6.1553, 20.6527, 7.8319, 9.8053, 19.5228, 9.3651, 8.6637, 18.3863, 11.1441, 8.6637, 18.3863, 11.1441, 10.1492, 19.2209, 8.9013, 9.2925, 15.4033, 10.5273, 9.538, 17.4797, 2.7688, 6.9915, 16.9263, 3.1176, 10.3857, 17.398, 3.6475, 6.4067, 19.1547, 3.558, 6.9915, 16.9263, 3.1176, 9.538, 17.4797, 2.7688, 10.3857, 17.398, 3.6475, 5.4337, 16.427, 3.956, 9.2925, 15.4033, 10.5273, 10.3857, 17.398, 3.6475, 6.9915, 16.9263, 3.1176, 5.4337, 16.427, 3.956, 10.1492, 19.2209, 8.9013, 10.3857, 17.398, 3.6475, 11.4731, 16.6624, 7.2271, 11.4731, 16.6624, 7.2271, 10.3857, 17.398, 3.6475, 9.2925, 15.4033, 10.5273, 4.7685, 18.0719, 3.7033, 6.4067, 19.1547, 3.558, 5.4027, 20.5049, 6.3421, 10.1492, 19.2209, 8.9013, 5.4027, 20.5049, 6.3421, 6.4067, 19.1547, 3.558, 6.1553, 20.6527, 7.8319, 5.4027, 20.5049, 6.3421, 10.1492, 19.2209, 8.9013, 9.8053, 19.5228, 9.3651, 10.1492, 19.2209, 8.9013, 8.6637, 18.3863, 11.1441, 5.4337, 16.427, 3.956, 6.9915, 16.9263, 3.1176, 4.8399, 17.7453, 3.6406, 6.1553, 20.6527, 7.8319, 10.1492, 19.2209, 8.9013, 9.8053, 19.5228, 9.3651, 10.1492, 19.2209, 8.9013, 9.538, 17.4797, 2.7688, 10.3857, 17.398, 3.6475, 10.1492, 19.2209, 8.9013, 6.4067, 19.1547, 3.558, 9.538, 17.4797, 2.7688, 11.4731, 16.6624, 7.2271, 9.2925, 15.4033, 10.5273, 10.1492, 19.2209, 8.9013, 5.4337, 16.427, 3.956, 8.6637, 18.3863, 11.1441, 9.2925, 15.4033, 10.5273, 4.8399, 17.7453, 3.6406, 8.6637, 18.3863, 11.1441, 5.4337, 16.427, 3.956, 4.7685, 18.0719, 3.7033, 8.6637, 18.3863, 11.1441, 4.8399, 17.7453, 3.6406, 5.4027, 20.5049, 6.3421, 8.6637, 18.3863, 11.1441, 4.7685, 18.0719, 3.7033, 5.4027, 20.5049, 6.3421, 6.1553, 20.6527, 7.8319, 8.6637, 18.3863, 11.1441, 6.4067, 19.1547, 3.558, 4.8399, 17.7453, 3.6406, 6.9915, 16.9263, 3.1176, 6.4067, 19.1547, 3.558, 4.7685, 18.0719, 3.7033, 4.8399, 17.7453, 3.6406, -5.2542, 10.2698, 3.8543, -4.306, 6.6063, 5.2586, -3.0053, 6.5663, 3.0462, -3.0053, 6.5663, 3.0462, -4.0821, 6.6046, 5.8779, -0.2766, 6.5338, 4.0336, -2.9019, 10.5374, 10.3486, -2.1761, 12.365, 8.2617, -2.8094, 9.3909, 10.2561, -4.2085, 12.4909, 7.4581, -2.1761, 12.365, 8.2617, -2.9019, 10.5374, 10.3486, -2.8094, 9.3909, 10.2561, -1.5282, 13.1448, 6.4904, -0.2766, 6.5338, 4.0336, -2.1761, 12.365, 8.2617, -1.5282, 13.1448, 6.4904, -2.8094, 9.3909, 10.2561, -4.0821, 6.6046, 5.8779, -2.8094, 9.3909, 10.2561, -1.8901, 6.5928, 8.1961, -1.8901, 6.5928, 8.1961, -2.8094, 9.3909, 10.2561, -0.2766, 6.5338, 4.0336, -3.0605, 13.7396, 6.1902, -4.2085, 12.4909, 7.4581, -5.1869, 11.6881, 4.5046, -5.2542, 10.2698, 3.8543, -4.2085, 12.4909, 7.4581, -4.0821, 6.6046, 5.8779, -5.1869, 11.6881, 4.5046, -4.2085, 12.4909, 7.4581, -5.2542, 10.2698, 3.8543, -4.306, 6.6063, 5.2586, -4.0821, 6.6046, 5.8779, -3.0053, 6.5663, 3.0462, -1.5282, 13.1448, 6.4904, -2.1761, 12.365, 8.2617, -2.7615, 13.7314, 6.2964, -5.2542, 10.2698, 3.8543, -4.0821, 6.6046, 5.8779, -4.306, 6.6063, 5.2586, -4.2085, 12.4909, 7.4581, -2.8094, 9.3909, 10.2561, -4.0821, 6.6046, 5.8779, -4.2085, 12.4909, 7.4581, -2.9019, 10.5374, 10.3486, -2.8094, 9.3909, 10.2561, -1.8901, 6.5928, 8.1961, -0.2766, 6.5338, 4.0336, -4.0821, 6.6046, 5.8779, -1.5282, 13.1448, 6.4904, -3.0053, 6.5663, 3.0462, -0.2766, 6.5338, 4.0336, -1.5282, 13.1448, 6.4904, -5.2542, 10.2698, 3.8543, -3.0053, 6.5663, 3.0462, -1.5282, 13.1448, 6.4904, -5.1869, 11.6881, 4.5046, -5.2542, 10.2698, 3.8543, -1.5282, 13.1448, 6.4904, -3.0605, 13.7396, 6.1902, -5.1869, 11.6881, 4.5046, -2.7615, 13.7314, 6.2964, -3.0605, 13.7396, 6.1902, -1.5282, 13.1448, 6.4904, -4.2085, 12.4909, 7.4581, -2.7615, 13.7314, 6.2964, -2.1761, 12.365, 8.2617, -3.0605, 13.7396, 6.1902, -2.7615, 13.7314, 6.2964, -4.2085, 12.4909, 7.4581, -8.5001, 3.5018, 6.4663, -8.6195, 1.7423, 7.9403, -6.2966, 2.4337, 1.8738, -8.6195, 1.7423, 7.9403, -8.5001, 3.5018, 6.4663, -8.7637, 3.1904, 7.3335, -8.6195, 1.7423, 7.9403, -4.6427, 3.9054, 7.9502, -4.3435, 1.5393, 8.8562, -8.7637, 3.1904, 7.3335, -4.6427, 3.9054, 7.9502, -8.6195, 1.7423, 7.9403, -8.1209, 0.4218, 7.6261, -8.6195, 1.7423, 7.9403, -7.381, 0.4462, 8.6967, -7.381, 0.4462, 8.6967, -8.6195, 1.7423, 7.9403, -4.3435, 1.5393, 8.8562, -5.6115, 2.6376, 2.1592, -5.7549, 4.5883, 4.9596, -5.7539, 2.9913, 2.2382, -6.2966, 2.4337, 1.8738, -8.6195, 1.7423, 7.9403, -8.1209, 0.4218, 7.6261, -8.5001, 3.5018, 6.4663, -4.6427, 3.9054, 7.9502, -8.7637, 3.1904, 7.3335, -5.7549, 4.5883, 4.9596, -4.6427, 3.9054, 7.9502, -8.5001, 3.5018, 6.4663, -6.2966, 2.4337, 1.8738, -5.6115, 2.6376, 2.1592, -5.7539, 2.9913, 2.2382, -3.9177, 1.961, 7.7334, -4.3435, 1.5393, 8.8562, -4.6427, 3.9054, 7.9502, -5.7539, 2.9913, 2.2382, -8.5001, 3.5018, 6.4663, -6.2966, 2.4337, 1.8738, -5.7549, 4.5883, 4.9596, -8.5001, 3.5018, 6.4663, -5.7539, 2.9913, 2.2382, -5.7549, 4.5883, 4.9596, -5.6115, 2.6376, 2.1592, -4.6427, 3.9054, 7.9502, -4.6427, 3.9054, 7.9502, -5.6115, 2.6376, 2.1592, -3.9177, 1.961, 7.7334, -7.381, 0.4462, 8.6967, -6.2966, 2.4337, 1.8738, -8.1209, 0.4218, 7.6261, -4.3435, 1.5393, 8.8562, -6.2966, 2.4337, 1.8738, -7.381, 0.4462, 8.6967, -3.9177, 1.961, 7.7334, -6.2966, 2.4337, 1.8738, -4.3435, 1.5393, 8.8562, -5.6115, 2.6376, 2.1592, -6.2966, 2.4337, 1.8738, -3.9177, 1.961, 7.7334, 2.4009, 7.6032, -1.3647, 1.6595, 9.3738, -5.4926, 2.2492, 8.0033, -1.1833, 5.7834, 8.5164, -8.1448, 7.0742, 5.286, -5.4792, 5.5995, 10.3663, -7.7734, 7.0742, 5.286, -5.4792, 6.2349, 3.9877, -5.2217, 6.8125, 9.2853, -4.1895, 6.2349, 3.9877, -5.2217, 7.0742, 5.286, -5.4792, 4.2178, 6.6949, -8.0146, 6.2349, 3.9877, -5.2217, 5.7354, 4.3258, -5.7603, 2.4009, 7.6032, -1.3647, 2.2492, 8.0033, -1.1833, 6.2349, 3.9877, -5.2217, 2.4009, 7.6032, -1.3647, 4.2178, 6.6949, -8.0146, 7.0742, 5.286, -5.4792, 5.7834, 8.5164, -8.1448, 4.2178, 6.6949, -8.0146, 5.7354, 4.3258, -5.7603, 6.2349, 3.9877, -5.2217, 4.2178, 6.6949, -8.0146, 2.245, 8.9667, -7.0644, 1.6595, 9.3738, -5.4926, 5.5995, 10.3663, -7.7734, 7.0742, 5.286, -5.4792, 6.8125, 9.2853, -4.1895, 1.6595, 9.3738, -5.4926, 2.245, 8.9667, -7.0644, 2.2387, 9.8686, -6.9065, 6.8125, 9.2853, -4.1895, 6.2349, 3.9877, -5.2217, 2.2492, 8.0033, -1.1833, 1.6595, 9.3738, -5.4926, 6.8125, 9.2853, -4.1895, 2.2492, 8.0033, -1.1833, 1.6595, 9.3738, -5.4926, 5.5995, 10.3663, -7.7734, 6.8125, 9.2853, -4.1895, 2.2387, 9.8686, -6.9065, 5.5995, 10.3663, -7.7734, 1.6595, 9.3738, -5.4926, 4.2178, 6.6949, -8.0146, 2.4009, 7.6032, -1.3647, 5.7354, 4.3258, -5.7603, 1.6595, 9.3738, -5.4926, 2.4009, 7.6032, -1.3647, 4.2178, 6.6949, -8.0146, 5.7834, 8.5164, -8.1448, 2.245, 8.9667, -7.0644, 4.2178, 6.6949, -8.0146, 5.5995, 10.3663, -7.7734, 2.245, 8.9667, -7.0644, 5.7834, 8.5164, -8.1448, 5.5995, 10.3663, -7.7734, 2.2387, 9.8686, -6.9065, 2.245, 8.9667, -7.0644, 4.9736, 4.4948, 17.336, 5.5017, 3.3871, 19.1196, 1.5421, 2.2041, 14.7057, 5.5017, 3.3871, 19.1196, 4.9736, 4.4948, 17.336, 5.4858, 4.4705, 18.0564, 5.5017, 3.3871, 19.1196, 8.165, 1.6843, 15.2982, 8.1453, -0.133, 16.96, 5.5017, 3.3871, 19.1196, 5.4858, 4.4705, 18.0564, 8.165, 1.6843, 15.2982, 4.9263, 2.1378, 19.4975, 5.5017, 3.3871, 19.1196, 6.2018, 1.5396, 19.468, 6.2018, 1.5396, 19.468, 5.5017, 3.3871, 19.1196, 8.1453, -0.133, 16.96, 2.1807, 1.7911, 14.2707, 5.3321, 3.0988, 14.3184, 2.3263, 2.1329, 14.1728, 1.5421, 2.2041, 14.7057, 5.5017, 3.3871, 19.1196, 4.9263, 2.1378, 19.4975, 5.4858, 4.4705, 18.0564, 5.3321, 3.0988, 14.3184, 8.165, 1.6843, 15.2982, 5.4858, 4.4705, 18.0564, 4.9736, 4.4948, 17.336, 5.3321, 3.0988, 14.3184, 1.5421, 2.2041, 14.7057, 2.1807, 1.7911, 14.2707, 2.3263, 2.1329, 14.1728, 7.5277, -0.1558, 15.9632, 8.1453, -0.133, 16.96, 8.165, 1.6843, 15.2982, 5.3321, 3.0988, 14.3184, 1.5421, 2.2041, 14.7057, 2.3263, 2.1329, 14.1728, 5.3321, 3.0988, 14.3184, 4.9736, 4.4948, 17.336, 1.5421, 2.2041, 14.7057, 5.3321, 3.0988, 14.3184, 2.1807, 1.7911, 14.2707, 8.165, 1.6843, 15.2982, 8.165, 1.6843, 15.2982, 2.1807, 1.7911, 14.2707, 7.5277, -0.1558, 15.9632, 2.1807, 1.7911, 14.2707, 8.1453, -0.133, 16.96, 7.5277, -0.1558, 15.9632, 2.1807, 1.7911, 14.2707, 6.2018, 1.5396, 19.468, 8.1453, -0.133, 16.96, 2.1807, 1.7911, 14.2707, 4.9263, 2.1378, 19.4975, 6.2018, 1.5396, 19.468, 1.5421, 2.2041, 14.7057, 4.9263, 2.1378, 19.4975, 2.1807, 1.7911, 14.2707, 5.6496, 3.8981, 16.6933, 6.4927, 8.9912, 18.3113, 9.1661, 8.3536, 18.8969, 10.098, 1.9782, 15.9511, 7.8787, 1.2843, 16.4199, 9.1661, 8.3536, 18.8969, 6.823, 7.1378, 13.4822, 8.6043, 7.6343, 12.871, 7.4009, 10.1329, 14.2817, 5.9082, 5.6484, 14.5312, 5.6496, 3.8981, 16.6933, 7.8787, 1.2843, 16.4199, 9.6391, 1.9466, 15.6597, 7.8787, 1.2843, 16.4199, 10.098, 1.9782, 15.9511, 12.5681, 9.6766, 12.9571, 8.6043, 7.6343, 12.871, 9.6391, 1.9466, 15.6597, 8.6043, 7.6343, 12.871, 5.9082, 5.6484, 14.5312, 7.8787, 1.2843, 16.4199, 8.6043, 7.6343, 12.871, 7.8787, 1.2843, 16.4199, 9.6391, 1.9466, 15.6597, 9.6391, 1.9466, 15.6597, 10.098, 1.9782, 15.9511, 12.5681, 9.6766, 12.9571, 7.4009, 10.1329, 14.2817, 8.6043, 7.6343, 12.871, 12.5681, 9.6766, 12.9571, 6.3188, 9.5527, 16.6545, 5.9082, 5.6484, 14.5312, 7.4009, 10.1329, 14.2817, 12.5681, 9.6766, 12.9571, 10.098, 1.9782, 15.9511, 13.5304, 9.0491, 14.3475, 10.098, 1.9782, 15.9511, 9.1661, 8.3536, 18.8969, 11.3012, 8.32, 17.8839, 10.098, 1.9782, 15.9511, 11.3012, 8.32, 17.8839, 13.5304, 9.0491, 14.3475, 5.6496, 3.8981, 16.6933, 9.1661, 8.3536, 18.8969, 7.8787, 1.2843, 16.4199, 6.823, 7.1378, 13.4822, 7.4009, 10.1329, 14.2817, 5.9082, 5.6484, 14.5312, 5.9082, 5.6484, 14.5312, 6.4927, 8.9912, 18.3113, 5.6496, 3.8981, 16.6933, 6.3188, 9.5527, 16.6545, 6.4927, 8.9912, 18.3113, 5.9082, 5.6484, 14.5312, 8.6043, 7.6343, 12.871, 6.823, 7.1378, 13.4822, 5.9082, 5.6484, 14.5312, 9.1661, 8.3536, 18.8969, 13.5304, 9.0491, 14.3475, 11.3012, 8.32, 17.8839, 6.4927, 8.9912, 18.3113, 13.5304, 9.0491, 14.3475, 9.1661, 8.3536, 18.8969, 6.3188, 9.5527, 16.6545, 13.5304, 9.0491, 14.3475, 6.4927, 8.9912, 18.3113, 6.3188, 9.5527, 16.6545, 12.5681, 9.6766, 12.9571, 13.5304, 9.0491, 14.3475, 7.4009, 10.1329, 14.2817, 12.5681, 9.6766, 12.9571, 6.3188, 9.5527, 16.6545, -0.393, 2.3341, 12.4014, -2.3191, 3.1187, 12.5616, -0.272, -1.3263, 9.4357, -2.3191, 3.1187, 12.5616, -0.393, 2.3341, 12.4014, -0.8797, 2.9217, 12.7733, -4.3243, -0.5296, 15.586, -0.8797, 2.9217, 12.7733, -1.9827, -0.7608, 15.9636, -2.3191, 3.1187, 12.5616, -0.8797, 2.9217, 12.7733, -4.3243, -0.5296, 15.586, -3.4301, 2.6376, 11.8885, -2.3191, 3.1187, 12.5616, -4.0763, 2.3356, 13.1658, -4.0763, 2.3356, 13.1658, -2.3191, 3.1187, 12.5616, -4.3243, -0.5296, 15.586, -0.4569, -1.8779, 10.1563, 0.0891, -0.8669, 13.3343, -0.1542, -1.7427, 10.3275, -0.272, -1.3263, 9.4357, -2.3191, 3.1187, 12.5616, -3.4301, 2.6376, 11.8885, -1.9827, -0.7608, 15.9636, -0.393, 2.3341, 12.4014, 0.0891, -0.8669, 13.3343, -0.8797, 2.9217, 12.7733, -0.393, 2.3341, 12.4014, -1.9827, -0.7608, 15.9636, -0.272, -1.3263, 9.4357, -0.4569, -1.8779, 10.1563, -0.1542, -1.7427, 10.3275, -3.709, -1.3707, 15.1619, -4.3243, -0.5296, 15.586, -1.9827, -0.7608, 15.9636, 0.0891, -0.8669, 13.3343, -0.272, -1.3263, 9.4357, -0.1542, -1.7427, 10.3275, 0.0891, -0.8669, 13.3343, -0.393, 2.3341, 12.4014, -0.272, -1.3263, 9.4357, 0.0891, -0.8669, 13.3343, -0.4569, -1.8779, 10.1563, -1.9827, -0.7608, 15.9636, -1.9827, -0.7608, 15.9636, -0.4569, -1.8779, 10.1563, -3.709, -1.3707, 15.1619, -0.272, -1.3263, 9.4357, -3.709, -1.3707, 15.1619, -0.4569, -1.8779, 10.1563, -0.272, -1.3263, 9.4357, -4.3243, -0.5296, 15.586, -3.709, -1.3707, 15.1619, -3.4301, 2.6376, 11.8885, -4.3243, -0.5296, 15.586, -0.272, -1.3263, 9.4357, -3.4301, 2.6376, 11.8885, -4.0763, 2.3356, 13.1658, -4.3243, -0.5296, 15.586, 9.232, -0.2955, 10.0604, 11.0806, 0.5056, 10.3171, 6.8709, 2.8207, 7.6856, 11.0806, 0.5056, 10.3171, 9.232, -0.2955, 10.0604, 9.9407, -0.4371, 10.3922, 8.2178, 2.3362, 14.2612, 11.0806, 0.5056, 10.3171, 9.9407, -0.4371, 10.3922, 8.2178, 2.3362, 14.2612, 10.0154, 3.94, 14.1201, 11.0806, 0.5056, 10.3171, 11.5666, 1.7867, 9.8539, 11.0806, 0.5056, 10.3171, 11.78, 2.2106, 11.2415, 11.78, 2.2106, 11.2415, 11.0806, 0.5056, 10.3171, 10.0154, 3.94, 14.1201, 6.6185, 3.2014, 8.5079, 6.7885, 1.4456, 11.4343, 6.4892, 2.8518, 8.6214, 6.8709, 2.8207, 7.6856, 11.0806, 0.5056, 10.3171, 11.5666, 1.7867, 9.8539, 9.232, -0.2955, 10.0604, 8.2178, 2.3362, 14.2612, 9.9407, -0.4371, 10.3922, 6.7885, 1.4456, 11.4343, 8.2178, 2.3362, 14.2612, 9.232, -0.2955, 10.0604, 6.8709, 2.8207, 7.6856, 6.6185, 3.2014, 8.5079, 6.4892, 2.8518, 8.6214, 9.0541, 4.1795, 13.7618, 10.0154, 3.94, 14.1201, 8.2178, 2.3362, 14.2612, 6.8709, 2.8207, 7.6856, 6.7885, 1.4456, 11.4343, 9.232, -0.2955, 10.0604, 6.8709, 2.8207, 7.6856, 6.4892, 2.8518, 8.6214, 6.7885, 1.4456, 11.4343, 6.7885, 1.4456, 11.4343, 6.6185, 3.2014, 8.5079, 8.2178, 2.3362, 14.2612, 8.2178, 2.3362, 14.2612, 6.6185, 3.2014, 8.5079, 9.0541, 4.1795, 13.7618, 11.78, 2.2106, 11.2415, 6.8709, 2.8207, 7.6856, 11.5666, 1.7867, 9.8539, 10.0154, 3.94, 14.1201, 6.8709, 2.8207, 7.6856, 11.78, 2.2106, 11.2415, 10.0154, 3.94, 14.1201, 6.6185, 3.2014, 8.5079, 6.8709, 2.8207, 7.6856, 10.0154, 3.94, 14.1201, 9.0541, 4.1795, 13.7618, 6.6185, 3.2014, 8.5079, -0.88, 16.4458, 12.4433, -0.3548, 17.7752, 8.0357, -0.7514, 16.8497, 12.5645, 2.3839, 14.0944, 5.9258, 1.3882, 11.2119, 9.09, 3.3895, 15.5621, 6.0745, 1.3882, 11.2119, 9.09, -0.0857, 10.8936, 9.3985, 3.6687, 14.3424, 9.9135, -0.0857, 10.8936, 9.3985, 1.3882, 11.2119, 9.09, 0.0091, 13.8879, 6.0848, -0.0857, 10.8936, 9.3985, -0.2695, 11.4164, 8.7675, -0.88, 16.4458, 12.4433, -0.7514, 16.8497, 12.5645, -0.0857, 10.8936, 9.3985, -0.88, 16.4458, 12.4433, 0.0091, 13.8879, 6.0848, 1.3882, 11.2119, 9.09, 2.3839, 14.0944, 5.9258, 0.0091, 13.8879, 6.0848, -0.2695, 11.4164, 8.7675, -0.0857, 10.8936, 9.3985, 0.0091, 13.8879, 6.0848, -0.1409, 16.9289, 6.5708, -0.3548, 17.7752, 8.0357, 3.3895, 15.5621, 6.0745, 1.3882, 11.2119, 9.09, 3.6687, 14.3424, 9.9135, -0.3548, 17.7752, 8.0357, -0.1409, 16.9289, 6.5708, 0.4154, 17.5854, 6.6293, 3.6687, 14.3424, 9.9135, -0.0857, 10.8936, 9.3985, -0.7514, 16.8497, 12.5645, -0.7514, 16.8497, 12.5645, 3.3895, 15.5621, 6.0745, 3.6687, 14.3424, 9.9135, -0.7514, 16.8497, 12.5645, 0.4154, 17.5854, 6.6293, 3.3895, 15.5621, 6.0745, -0.3548, 17.7752, 8.0357, 0.4154, 17.5854, 6.6293, -0.7514, 16.8497, 12.5645, 0.0091, 13.8879, 6.0848, -0.88, 16.4458, 12.4433, -0.2695, 11.4164, 8.7675, -0.3548, 17.7752, 8.0357, -0.88, 16.4458, 12.4433, 0.0091, 13.8879, 6.0848, 2.3839, 14.0944, 5.9258, -0.1409, 16.9289, 6.5708, 0.0091, 13.8879, 6.0848, 3.3895, 15.5621, 6.0745, -0.1409, 16.9289, 6.5708, 2.3839, 14.0944, 5.9258, 0.4154, 17.5854, 6.6293, -0.1409, 16.9289, 6.5708, 3.3895, 15.5621, 6.0745, -0.2665, 10.6463, 3.2842, 0.4532, 14.3707, 1.047, -0.1558, 10.9017, 3.6804, 3.3965, 12.7927, -2.5739, 2.316, 8.5532, -2.4318, 4.3509, 13.9156, -1.249, 2.316, 8.5532, -2.4318, 0.8388, 8.0584, -2.7028, 4.4602, 10.65, 0.7948, 0.8388, 8.0584, -2.7028, 2.316, 8.5532, -2.4318, 1.026, 12.4431, -3.0468, 0.8388, 8.0584, -2.7028, 0.6745, 8.8478, -2.8393, -0.2665, 10.6463, 3.2842, -0.1558, 10.9017, 3.6804, 0.8388, 8.0584, -2.7028, -0.2665, 10.6463, 3.2842, 1.026, 12.4431, -3.0468, 2.316, 8.5532, -2.4318, 3.3965, 12.7927, -2.5739, 1.026, 12.4431, -3.0468, 0.6745, 8.8478, -2.8393, 0.8388, 8.0584, -2.7028, 1.026, 12.4431, -3.0468, 0.7671, 14.5792, -0.5894, 0.4532, 14.3707, 1.047, 4.3509, 13.9156, -1.249, 2.316, 8.5532, -2.4318, 4.4602, 10.65, 0.7948, 0.4532, 14.3707, 1.047, 0.7671, 14.5792, -0.5894, 1.3007, 15.0904, 0.0173, 4.4602, 10.65, 0.7948, 0.8388, 8.0584, -2.7028, -0.1558, 10.9017, 3.6804, -0.1558, 10.9017, 3.6804, 4.3509, 13.9156, -1.249, 4.4602, 10.65, 0.7948, 0.4532, 14.3707, 1.047, 4.3509, 13.9156, -1.249, -0.1558, 10.9017, 3.6804, 0.4532, 14.3707, 1.047, 1.3007, 15.0904, 0.0173, 4.3509, 13.9156, -1.249, 1.026, 12.4431, -3.0468, -0.2665, 10.6463, 3.2842, 0.6745, 8.8478, -2.8393, 1.026, 12.4431, -3.0468, 0.4532, 14.3707, 1.047, -0.2665, 10.6463, 3.2842, 3.3965, 12.7927, -2.5739, 0.7671, 14.5792, -0.5894, 1.026, 12.4431, -3.0468, 4.3509, 13.9156, -1.249, 0.7671, 14.5792, -0.5894, 3.3965, 12.7927, -2.5739, 1.3007, 15.0904, 0.0173, 0.7671, 14.5792, -0.5894, 4.3509, 13.9156, -1.249, -2.2055, 10.7466, 16.8663, 3.0911, 10.1506, 18.1249, 3.6273, 8.74, 15.1485, -2.413, 9.6841, 11.323, -3.8108, 9.7981, 13.4892, 3.6273, 8.74, 15.1485, 0.6408, 13.7807, 16.3225, 1.6648, 13.8764, 14.5243, 3.7594, 13.535, 16.9517, -0.8876, 12.8588, 16.9026, -2.2055, 10.7466, 16.8663, -3.8108, 9.7981, 13.4892, -2.6692, 10.0599, 11.7513, -3.8108, 9.7981, 13.4892, -2.413, 9.6841, 11.323, 5.0663, 13.0506, 11.1001, 1.6648, 13.8764, 14.5243, -2.6692, 10.0599, 11.7513, 1.6648, 13.8764, 14.5243, -0.8876, 12.8588, 16.9026, -3.8108, 9.7981, 13.4892, 1.6648, 13.8764, 14.5243, -3.8108, 9.7981, 13.4892, -2.6692, 10.0599, 11.7513, -2.6692, 10.0599, 11.7513, -2.413, 9.6841, 11.323, 5.0663, 13.0506, 11.1001, 3.7594, 13.535, 16.9517, 1.6648, 13.8764, 14.5243, 5.0663, 13.0506, 11.1001, 3.2423, 11.7215, 18.2565, -0.8876, 12.8588, 16.9026, 3.7594, 13.535, 16.9517, 5.0663, 13.0506, 11.1001, -2.413, 9.6841, 11.323, 5.1062, 11.4612, 10.0668, -2.413, 9.6841, 11.323, 3.6273, 8.74, 15.1485, 4.2258, 8.9664, 12.7147, -2.413, 9.6841, 11.323, 4.2258, 8.9664, 12.7147, 5.1062, 11.4612, 10.0668, -2.2055, 10.7466, 16.8663, 3.6273, 8.74, 15.1485, -3.8108, 9.7981, 13.4892, 0.6408, 13.7807, 16.3225, 3.7594, 13.535, 16.9517, -0.8876, 12.8588, 16.9026, -2.2055, 10.7466, 16.8663, 3.2423, 11.7215, 18.2565, 3.0911, 10.1506, 18.1249, -0.8876, 12.8588, 16.9026, 3.2423, 11.7215, 18.2565, -2.2055, 10.7466, 16.8663, 1.6648, 13.8764, 14.5243, 0.6408, 13.7807, 16.3225, -0.8876, 12.8588, 16.9026, 3.0911, 10.1506, 18.1249, 4.2258, 8.9664, 12.7147, 3.6273, 8.74, 15.1485, 3.0911, 10.1506, 18.1249, 5.1062, 11.4612, 10.0668, 4.2258, 8.9664, 12.7147, 3.2423, 11.7215, 18.2565, 5.1062, 11.4612, 10.0668, 3.0911, 10.1506, 18.1249, 3.2423, 11.7215, 18.2565, 5.0663, 13.0506, 11.1001, 5.1062, 11.4612, 10.0668, 3.7594, 13.535, 16.9517, 5.0663, 13.0506, 11.1001, 3.2423, 11.7215, 18.2565, 10.876, 10.5966, 8.4333, 11.6072, 9.2953, 10.1515, 10.548, 8.3014, 3.8289, 11.6072, 9.2953, 10.1515, 10.876, 10.5966, 8.4333, 11.0988, 10.5321, 9.357, 11.6072, 9.2953, 10.1515, 15.0503, 11.1066, 7.6373, 15.8942, 9.0606, 8.8336, 11.0988, 10.5321, 9.357, 15.0503, 11.1066, 7.6373, 11.6072, 9.2953, 10.1515, 11.9553, 7.9291, 9.9796, 11.6072, 9.2953, 10.1515, 13.1597, 8.1716, 10.4874, 13.1597, 8.1716, 10.4874, 11.6072, 9.2953, 10.1515, 15.8942, 9.0606, 8.8336, 11.2941, 8.5233, 3.6721, 12.5003, 11.0841, 5.5547, 11.1903, 8.8884, 3.7182, 10.548, 8.3014, 3.8289, 11.6072, 9.2953, 10.1515, 11.9553, 7.9291, 9.9796, 10.876, 10.5966, 8.4333, 15.0503, 11.1066, 7.6373, 11.0988, 10.5321, 9.357, 12.5003, 11.0841, 5.5547, 15.0503, 11.1066, 7.6373, 10.876, 10.5966, 8.4333, 10.548, 8.3014, 3.8289, 11.2941, 8.5233, 3.6721, 11.1903, 8.8884, 3.7182, 15.6801, 9.1565, 7.5911, 15.8942, 9.0606, 8.8336, 15.0503, 11.1066, 7.6373, 11.1903, 8.8884, 3.7182, 10.876, 10.5966, 8.4333, 10.548, 8.3014, 3.8289, 12.5003, 11.0841, 5.5547, 10.876, 10.5966, 8.4333, 11.1903, 8.8884, 3.7182, 12.5003, 11.0841, 5.5547, 11.2941, 8.5233, 3.6721, 15.0503, 11.1066, 7.6373, 15.0503, 11.1066, 7.6373, 11.2941, 8.5233, 3.6721, 15.6801, 9.1565, 7.5911, 13.1597, 8.1716, 10.4874, 10.548, 8.3014, 3.8289, 11.9553, 7.9291, 9.9796, 15.8942, 9.0606, 8.8336, 10.548, 8.3014, 3.8289, 13.1597, 8.1716, 10.4874, 15.8942, 9.0606, 8.8336, 11.2941, 8.5233, 3.6721, 10.548, 8.3014, 3.8289, 15.8942, 9.0606, 8.8336, 15.6801, 9.1565, 7.5911, 11.2941, 8.5233, 3.6721, 5.7916, 0.7469, 5.2422, 4.2819, -0.045, 6.7107, 3.9217, 4.2666, 2.0759, 4.2819, -0.045, 6.7107, 5.7916, 0.7469, 5.2422, 5.625, 0.161, 5.9433, 4.2819, -0.045, 6.7107, 4.0588, -2.2438, 2.5844, 1.8347, -2.5296, 3.7525, 4.2819, -0.045, 6.7107, 5.625, 0.161, 5.9433, 4.0588, -2.2438, 2.5844, 2.9026, 0.3966, 6.7631, 4.2819, -0.045, 6.7107, 2.491, -0.8667, 6.597, 2.491, -0.8667, 6.597, 4.2819, -0.045, 6.7107, 1.8347, -2.5296, 3.7525, 3.7265, 3.6797, 1.5547, 5.3538, 0.696, 1.9553, 4.1007, 3.5696, 1.5457, 3.9217, 4.2666, 2.0759, 4.2819, -0.045, 6.7107, 2.9026, 0.3966, 6.7631, 5.625, 0.161, 5.9433, 5.3538, 0.696, 1.9553, 4.0588, -2.2438, 2.5844, 5.7916, 0.7469, 5.2422, 5.3538, 0.696, 1.9553, 5.625, 0.161, 5.9433, 3.9217, 4.2666, 2.0759, 3.7265, 3.6797, 1.5547, 4.1007, 3.5696, 1.5457, 2.0221, -1.8101, 2.7691, 1.8347, -2.5296, 3.7525, 4.0588, -2.2438, 2.5844, 5.7916, 0.7469, 5.2422, 4.1007, 3.5696, 1.5457, 5.3538, 0.696, 1.9553, 3.9217, 4.2666, 2.0759, 4.1007, 3.5696, 1.5457, 5.7916, 0.7469, 5.2422, 5.3538, 0.696, 1.9553, 3.7265, 3.6797, 1.5547, 4.0588, -2.2438, 2.5844, 4.0588, -2.2438, 2.5844, 3.7265, 3.6797, 1.5547, 2.0221, -1.8101, 2.7691, 2.0221, -1.8101, 2.7691, 2.491, -0.8667, 6.597, 1.8347, -2.5296, 3.7525, 3.7265, 3.6797, 1.5547, 2.491, -0.8667, 6.597, 2.0221, -1.8101, 2.7691, 3.7265, 3.6797, 1.5547, 2.9026, 0.3966, 6.7631, 2.491, -0.8667, 6.597, 3.7265, 3.6797, 1.5547, 3.9217, 4.2666, 2.0759, 2.9026, 0.3966, 6.7631, -2.714, 2.4738, 14.4385, 1.1334, 1.9639, 14.6659, -2.6135, 2.3479, 13.9, 1.5579, 5.9624, 17.1012, -2.1058, 6.946, 19.2623, 2.2191, 5.8922, 14.8702, -2.1058, 6.946, 19.2623, -2.6926, 6.0461, 20.5324, -1.0432, 6.9145, 14.1844, -2.6926, 6.0461, 20.5324, -2.1058, 6.946, 19.2623, 0.9867, 4.3297, 18.9973, -2.6926, 6.0461, 20.5324, -2.0432, 5.5966, 20.436, -2.714, 2.4738, 14.4385, -2.6135, 2.3479, 13.9, -2.6926, 6.0461, 20.5324, -2.714, 2.4738, 14.4385, 0.9867, 4.3297, 18.9973, -2.1058, 6.946, 19.2623, 1.5579, 5.9624, 17.1012, 0.9867, 4.3297, 18.9973, -2.0432, 5.5966, 20.436, -2.6926, 6.0461, 20.5324, 0.9867, 4.3297, 18.9973, 1.8799, 2.5415, 15.958, 1.1334, 1.9639, 14.6659, 2.2191, 5.8922, 14.8702, -2.1058, 6.946, 19.2623, -1.0432, 6.9145, 14.1844, 1.1334, 1.9639, 14.6659, 1.8799, 2.5415, 15.958, 2.1982, 2.5884, 14.8844, -1.0432, 6.9145, 14.1844, -2.6926, 6.0461, 20.5324, -2.6135, 2.3479, 13.9, 2.1982, 2.5884, 14.8844, -2.6135, 2.3479, 13.9, 1.1334, 1.9639, 14.6659, 2.1982, 2.5884, 14.8844, -1.0432, 6.9145, 14.1844, -2.6135, 2.3479, 13.9, 2.2191, 5.8922, 14.8702, -1.0432, 6.9145, 14.1844, 2.1982, 2.5884, 14.8844, -2.714, 2.4738, 14.4385, 0.9867, 4.3297, 18.9973, 1.1334, 1.9639, 14.6659, -2.0432, 5.5966, 20.436, 0.9867, 4.3297, 18.9973, -2.714, 2.4738, 14.4385, 0.9867, 4.3297, 18.9973, 2.1982, 2.5884, 14.8844, 1.8799, 2.5415, 15.958, 0.9867, 4.3297, 18.9973, 2.2191, 5.8922, 14.8702, 2.1982, 2.5884, 14.8844, 1.5579, 5.9624, 17.1012, 2.2191, 5.8922, 14.8702, 0.9867, 4.3297, 18.9973, 15.7236, 1.0821, 7.1372, 15.4403, 2.5732, 10.9271, 14.1745, 4.8402, 9.9287, 12.9629, 3.9529, 4.7065, 14.5378, 2.5636, 4.6765, 14.1745, 4.8402, 9.9287, 13.3515, 0.2832, 9.1198, 11.9925, 1.2752, 9.0818, 13.0714, 1.141, 11.3209, 14.4804, 0.1514, 8.2568, 15.7236, 1.0821, 7.1372, 14.5378, 2.5636, 4.6765, 13.1117, 3.4633, 4.7579, 14.5378, 2.5636, 4.6765, 12.9629, 3.9529, 4.7065, 9.4997, 4.2431, 9.807, 11.9925, 1.2752, 9.0818, 13.1117, 3.4633, 4.7579, 11.9925, 1.2752, 9.0818, 14.4804, 0.1514, 8.2568, 14.5378, 2.5636, 4.6765, 11.9925, 1.2752, 9.0818, 14.5378, 2.5636, 4.6765, 13.1117, 3.4633, 4.7579, 13.1117, 3.4633, 4.7579, 12.9629, 3.9529, 4.7065, 9.4997, 4.2431, 9.807, 13.0714, 1.141, 11.3209, 11.9925, 1.2752, 9.0818, 9.4997, 4.2431, 9.807, 14.7805, 1.5826, 11.2727, 14.4804, 0.1514, 8.2568, 13.0714, 1.141, 11.3209, 9.4997, 4.2431, 9.807, 12.9629, 3.9529, 4.7065, 9.5867, 5.6734, 9.2288, 12.9629, 3.9529, 4.7065, 14.1745, 4.8402, 9.9287, 12.4846, 5.8795, 9.3879, 12.9629, 3.9529, 4.7065, 12.4846, 5.8795, 9.3879, 9.5867, 5.6734, 9.2288, 15.7236, 1.0821, 7.1372, 14.1745, 4.8402, 9.9287, 14.5378, 2.5636, 4.6765, 13.3515, 0.2832, 9.1198, 13.0714, 1.141, 11.3209, 14.4804, 0.1514, 8.2568, 14.7805, 1.5826, 11.2727, 15.7236, 1.0821, 7.1372, 14.4804, 0.1514, 8.2568, 14.7805, 1.5826, 11.2727, 15.4403, 2.5732, 10.9271, 15.7236, 1.0821, 7.1372, 11.9925, 1.2752, 9.0818, 13.3515, 0.2832, 9.1198, 14.4804, 0.1514, 8.2568, 9.4997, 4.2431, 9.807, 14.7805, 1.5826, 11.2727, 13.0714, 1.141, 11.3209, 9.4997, 4.2431, 9.807, 15.4403, 2.5732, 10.9271, 14.7805, 1.5826, 11.2727, 9.4997, 4.2431, 9.807, 14.1745, 4.8402, 9.9287, 15.4403, 2.5732, 10.9271, 9.5867, 5.6734, 9.2288, 14.1745, 4.8402, 9.9287, 9.4997, 4.2431, 9.807, 9.5867, 5.6734, 9.2288, 12.4846, 5.8795, 9.3879, 14.1745, 4.8402, 9.9287, 5.6867, -4.2337, 5.0319, 9.3153, -2.7684, 4.7516, 7.9685, -1.6645, 2.7735, 7.9685, -1.6645, 2.7735, 9.5786, -2.4989, 5.3206, 7.9111, 1.0961, 3.7521, 8.2038, -1.4364, 11.123, 5.447, -1.102, 10.0478, 9.1168, -1.2208, 10.5453, 5.3689, -3.1753, 9.3011, 5.447, -1.102, 10.0478, 8.2038, -1.4364, 11.123, 5.447, -1.102, 10.0478, 7.9111, 1.0961, 3.7521, 9.1168, -1.2208, 10.5453, 3.7591, -0.6978, 8.8019, 7.9111, 1.0961, 3.7521, 5.447, -1.102, 10.0478, 9.5786, -2.4989, 5.3206, 9.1168, -1.2208, 10.5453, 10.282, -0.1609, 7.4965, 10.282, -0.1609, 7.4965, 9.1168, -1.2208, 10.5453, 7.9111, 1.0961, 3.7521, 3.4261, -2.2941, 8.733, 5.3689, -3.1753, 9.3011, 4.7864, -4.2792, 6.2391, 5.3689, -3.1753, 9.3011, 5.6867, -4.2337, 5.0319, 4.7864, -4.2792, 6.2391, 5.3689, -3.1753, 9.3011, 9.5786, -2.4989, 5.3206, 5.6867, -4.2337, 5.0319, 9.3153, -2.7684, 4.7516, 9.5786, -2.4989, 5.3206, 7.9685, -1.6645, 2.7735, 3.7591, -0.6978, 8.8019, 5.447, -1.102, 10.0478, 3.4228, -1.9913, 8.8364, 5.6867, -4.2337, 5.0319, 9.5786, -2.4989, 5.3206, 9.3153, -2.7684, 4.7516, 8.2038, -1.4364, 11.123, 9.5786, -2.4989, 5.3206, 5.3689, -3.1753, 9.3011, 8.2038, -1.4364, 11.123, 9.1168, -1.2208, 10.5453, 9.5786, -2.4989, 5.3206, 10.282, -0.1609, 7.4965, 7.9111, 1.0961, 3.7521, 9.5786, -2.4989, 5.3206, 5.6867, -4.2337, 5.0319, 3.4261, -2.2941, 8.733, 4.7864, -4.2792, 6.2391, 7.9685, -1.6645, 2.7735, 3.4261, -2.2941, 8.733, 5.6867, -4.2337, 5.0319, 7.9685, -1.6645, 2.7735, 3.4228, -1.9913, 8.8364, 3.4261, -2.2941, 8.733, 7.9685, -1.6645, 2.7735, 3.7591, -0.6978, 8.8019, 3.4228, -1.9913, 8.8364, 7.9111, 1.0961, 3.7521, 3.7591, -0.6978, 8.8019, 7.9685, -1.6645, 2.7735, 3.4261, -2.2941, 8.733, 5.447, -1.102, 10.0478, 5.3689, -3.1753, 9.3011, 3.4228, -1.9913, 8.8364, 5.447, -1.102, 10.0478, 3.4261, -2.2941, 8.733 )

[node name="ast_ice_shards_0" instance=ExtResource( 1 )]
script = ExtResource( 2 )

[node name="StaticBody3D" type="StaticBody3D" parent="ast_ice_shards_0" index="0"]

[node name="CollisionShape3D" type="CollisionShape3D" parent="ast_ice_shards_0/StaticBody3D" index="0"]
shape = SubResource( 1 )

[connection signal="input_event" from="ast_ice_shards_0/StaticBody3D" to="." method="_on_StaticBody_input_event"]
