[gd_scene load_steps=4 format=2]

[ext_resource path="res://blokoj/asteroidoj/resursoj/ast_shards_2.glb" type="PackedScene" id=1]
[ext_resource path="res://blokoj/asteroidoj/skriptoj/ast_.gd" type="Script" id=2]

[sub_resource type="ConcavePolygonShape3D" id=1]
data = PackedVector3Array( 0.1391, -0.0008, -0.0594, -0.0322, 0.0055, -0.2062, 0.0521, -0.0129, -0.1909, 0.1305, 0.0102, -0.0268, -0.0322, 0.0055, -0.2062, 0.1391, -0.0008, -0.0594, 0.1421, -0.0645, -0.1372, 0.1228, -0.0847, -0.1512, 0.1351, -0.0848, -0.1432, 0.1421, -0.0645, -0.1372, 0.0586, -0.0841, -0.1923, 0.1228, -0.0847, -0.1512, 0.1421, -0.0645, -0.1372, 0.0334, -0.0618, -0.2067, 0.0586, -0.0841, -0.1923, 0.0521, -0.0129, -0.1909, 0.0334, -0.0618, -0.2067, 0.1421, -0.0645, -0.1372, -0.0322, 0.0055, -0.2062, -0.041, -0.0114, -0.2047, -0.0327, -0.0148, -0.2111, 0.0521, -0.0129, -0.1909, -0.0327, -0.0148, -0.2111, 0.0334, -0.0618, -0.2067, 0.0521, -0.0129, -0.1909, -0.0322, 0.0055, -0.2062, -0.0327, -0.0148, -0.2111, -0.0201, 0.1151, 0.4436, 0.0477, -0.142, -0.0006, -0.0114, -0.1468, 0.1331, -0.0201, 0.1151, 0.4436, 0.1351, -0.0848, -0.1432, 0.0477, -0.142, -0.0006, -0.0201, 0.1151, 0.4436, 0.1421, -0.0645, -0.1372, 0.1351, -0.0848, -0.1432, -0.0201, 0.1151, 0.4436, 0.1391, -0.0008, -0.0594, 0.1421, -0.0645, -0.1372, -0.0201, 0.1151, 0.4436, 0.1305, 0.0102, -0.0268, 0.1391, -0.0008, -0.0594, -0.0201, 0.1151, 0.4436, 0.0942, 0.0546, 0.1079, 0.1305, 0.0102, -0.0268, 0.0942, 0.0546, 0.1079, 0.1015, 0.0513, 0.0868, 0.1305, 0.0102, -0.0268, -0.0201, 0.1151, 0.4436, 0.0035, 0.121, 0.3946, 0.0942, 0.0546, 0.1079, -0.0171, 0.1176, 0.4393, 0.0035, 0.121, 0.3946, -0.0201, 0.1151, 0.4436, -0.184, 0.0057, 0.0341, -0.0201, 0.1151, 0.4436, -0.0114, -0.1468, 0.1331, -0.1678, 0.033, 0.0951, -0.0201, 0.1151, 0.4436, -0.184, 0.0057, 0.0341, -0.0232, 0.1154, 0.4389, -0.0201, 0.1151, 0.4436, -0.1678, 0.033, 0.0951, -0.0232, 0.1154, 0.4389, -0.0171, 0.1176, 0.4393, -0.0201, 0.1151, 0.4436, 0.0942, 0.0546, 0.1079, -0.1446, 0.0239, -0.0989, -0.135, 0.021, -0.1098, 0.0942, 0.0546, 0.1079, 0.0035, 0.121, 0.3946, -0.1446, 0.0239, -0.0989, 0.0586, -0.0841, -0.1923, 0.0477, -0.142, -0.0006, 0.1228, -0.0847, -0.1512, -0.1446, 0.0239, -0.0989, -0.1678, 0.033, 0.0951, -0.1569, 0.0222, -0.069, 0.0035, 0.121, 0.3946, -0.1678, 0.033, 0.0951, -0.1446, 0.0239, -0.0989, 0.0035, 0.121, 0.3946, -0.0232, 0.1154, 0.4389, -0.1678, 0.033, 0.0951, 0.0035, 0.121, 0.3946, -0.0171, 0.1176, 0.4393, -0.0232, 0.1154, 0.4389, -0.041, -0.0114, -0.2047, -0.0322, 0.0055, -0.2062, -0.0946, 0.0121, -0.1653, 0.0477, -0.142, -0.0006, -0.184, 0.0057, 0.0341, -0.0114, -0.1468, 0.1331, 0.0586, -0.0841, -0.1923, -0.184, 0.0057, 0.0341, 0.0477, -0.142, -0.0006, 0.0334, -0.0618, -0.2067, -0.184, 0.0057, 0.0341, 0.0586, -0.0841, -0.1923, -0.0327, -0.0148, -0.2111, -0.184, 0.0057, 0.0341, 0.0334, -0.0618, -0.2067, -0.041, -0.0114, -0.2047, -0.184, 0.0057, 0.0341, -0.0327, -0.0148, -0.2111, -0.0946, 0.0121, -0.1653, -0.184, 0.0057, 0.0341, -0.041, -0.0114, -0.2047, -0.0946, 0.0121, -0.1653, -0.1569, 0.0222, -0.069, -0.184, 0.0057, 0.0341, -0.135, 0.021, -0.1098, -0.1569, 0.0222, -0.069, -0.0946, 0.0121, -0.1653, -0.1446, 0.0239, -0.0989, -0.1569, 0.0222, -0.069, -0.135, 0.021, -0.1098, -0.1569, 0.0222, -0.069, -0.1678, 0.033, 0.0951, -0.184, 0.0057, 0.0341, 0.1228, -0.0847, -0.1512, 0.0477, -0.142, -0.0006, 0.1351, -0.0848, -0.1432, 0.1391, -0.0008, -0.0594, 0.0521, -0.0129, -0.1909, 0.1421, -0.0645, -0.1372, 0.1015, 0.0513, 0.0868, -0.0946, 0.0121, -0.1653, -0.0322, 0.0055, -0.2062, 0.1015, 0.0513, 0.0868, -0.135, 0.021, -0.1098, -0.0946, 0.0121, -0.1653, 0.1015, 0.0513, 0.0868, 0.0942, 0.0546, 0.1079, -0.135, 0.021, -0.1098, 0.1015, 0.0513, 0.0868, -0.0322, 0.0055, -0.2062, 0.1305, 0.0102, -0.0268, 6.5873, -9.5782, -1.64, 6.5001, -9.5659, -1.3991, 6.5944, -9.6141, -1.45, 6.5873, -9.5782, -1.64, 6.7623, -9.5928, -1.6368, 6.7146, -9.5189, -1.7881, 6.7685, -9.5974, -1.6147, 6.5873, -9.5782, -1.64, 6.5944, -9.6141, -1.45, 6.7623, -9.5928, -1.6368, 6.5873, -9.5782, -1.64, 6.7685, -9.5974, -1.6147, 6.5001, -9.5659, -1.3991, 6.4996, -9.5653, -1.3984, 6.4971, -9.5663, -1.3933, 6.7563, -9.6058, -1.2197, 6.7877, -9.6097, -1.5451, 6.5944, -9.6141, -1.45, 6.7563, -9.6058, -1.2197, 6.8624, -9.603, -1.2478, 6.7877, -9.6097, -1.5451, 6.8637, -9.6019, -1.1733, 6.8624, -9.603, -1.2478, 6.7563, -9.6058, -1.2197, 6.8637, -9.6019, -1.1733, 6.8674, -9.6026, -1.2277, 6.8624, -9.603, -1.2478, 6.5001, -9.5659, -1.3991, 6.5008, -9.5968, -1.3349, 6.5944, -9.6141, -1.45, 6.5001, -9.5659, -1.3991, 6.4794, -9.573, -1.3506, 6.5008, -9.5968, -1.3349, 6.5001, -9.5659, -1.3991, 6.4971, -9.5663, -1.3933, 6.4794, -9.573, -1.3506, 6.5773, -9.5436, -1.6403, 6.5001, -9.5659, -1.3991, 6.5873, -9.5782, -1.64, 6.5773, -9.5436, -1.6403, 6.5003, -9.5651, -1.4002, 6.5001, -9.5659, -1.3991, 6.6869, -9.4183, -1.2993, 6.8823, -9.5971, -1.1664, 6.8671, -9.601, -1.1721, 6.6869, -9.4183, -1.2993, 6.8434, -9.418, -1.2304, 6.8823, -9.5971, -1.1664, 6.8434, -9.418, -1.2304, 6.6869, -9.4183, -1.2993, 6.8002, -9.3479, -1.3655, 6.4971, -9.5663, -1.3933, 6.6869, -9.4183, -1.2993, 6.4794, -9.573, -1.3506, 6.4996, -9.5653, -1.3984, 6.6869, -9.4183, -1.2993, 6.4971, -9.5663, -1.3933, 6.5, -9.5651, -1.3991, 6.6869, -9.4183, -1.2993, 6.4996, -9.5653, -1.3984, 6.5003, -9.5651, -1.4002, 6.6869, -9.4183, -1.2993, 6.5, -9.5651, -1.3991, 6.5773, -9.5436, -1.6403, 6.6869, -9.4183, -1.2993, 6.5003, -9.5651, -1.4002, 6.5896, -9.5377, -1.6609, 6.6869, -9.4183, -1.2993, 6.5773, -9.5436, -1.6403, 6.6889, -9.4837, -1.7799, 6.6869, -9.4183, -1.2993, 6.5896, -9.5377, -1.6609, 6.7076, -9.4722, -1.7927, 6.6869, -9.4183, -1.2993, 6.6889, -9.4837, -1.7799, 6.7997, -9.3474, -1.3667, 6.6869, -9.4183, -1.2993, 6.7076, -9.4722, -1.7927, 6.6869, -9.4183, -1.2993, 6.7997, -9.3474, -1.3667, 6.8002, -9.3479, -1.3655, 6.8002, -9.3479, -1.3655, 6.7997, -9.3474, -1.3667, 6.7076, -9.4722, -1.7927, 6.5, -9.5651, -1.3991, 6.5001, -9.5659, -1.3991, 6.5003, -9.5651, -1.4002, 6.5703, -9.6079, -1.3013, 6.5944, -9.6141, -1.45, 6.5008, -9.5968, -1.3349, 6.7146, -9.5189, -1.7881, 6.5896, -9.5377, -1.6609, 6.5873, -9.5782, -1.64, 6.7146, -9.5189, -1.7881, 6.6889, -9.4837, -1.7799, 6.5896, -9.5377, -1.6609, 6.712, -9.5056, -1.7918, 6.6889, -9.4837, -1.7799, 6.7146, -9.5189, -1.7881, 6.8637, -9.6019, -1.1733, 6.8823, -9.5971, -1.1664, 6.8674, -9.6026, -1.2277, 6.8671, -9.601, -1.1721, 6.8823, -9.5971, -1.1664, 6.8637, -9.6019, -1.1733, 6.7685, -9.5974, -1.6147, 6.5944, -9.6141, -1.45, 6.7877, -9.6097, -1.5451, 6.5773, -9.5436, -1.6403, 6.5873, -9.5782, -1.64, 6.5896, -9.5377, -1.6609, 6.5008, -9.5968, -1.3349, 6.7563, -9.6058, -1.2197, 6.5703, -9.6079, -1.3013, 6.5008, -9.5968, -1.3349, 6.8637, -9.6019, -1.1733, 6.7563, -9.6058, -1.2197, 6.5008, -9.5968, -1.3349, 6.8671, -9.601, -1.1721, 6.8637, -9.6019, -1.1733, 6.5008, -9.5968, -1.3349, 6.6869, -9.4183, -1.2993, 6.8671, -9.601, -1.1721, 6.4794, -9.573, -1.3506, 6.6869, -9.4183, -1.2993, 6.5008, -9.5968, -1.3349, 6.8674, -9.6026, -1.2277, 6.7099, -9.4897, -1.7922, 6.8624, -9.603, -1.2478, 6.8823, -9.5971, -1.1664, 6.7099, -9.4897, -1.7922, 6.8674, -9.6026, -1.2277, 6.8434, -9.418, -1.2304, 6.7099, -9.4897, -1.7922, 6.8823, -9.5971, -1.1664, 6.8434, -9.418, -1.2304, 6.7084, -9.4786, -1.7925, 6.7099, -9.4897, -1.7922, 6.8434, -9.418, -1.2304, 6.7076, -9.4722, -1.7927, 6.7084, -9.4786, -1.7925, 6.8434, -9.418, -1.2304, 6.8002, -9.3479, -1.3655, 6.7076, -9.4722, -1.7927, 6.7563, -9.6058, -1.2197, 6.5944, -9.6141, -1.45, 6.5703, -9.6079, -1.3013, 6.7099, -9.4897, -1.7922, 6.6889, -9.4837, -1.7799, 6.712, -9.5056, -1.7918, 6.7084, -9.4786, -1.7925, 6.6889, -9.4837, -1.7799, 6.7099, -9.4897, -1.7922, 6.7084, -9.4786, -1.7925, 6.7076, -9.4722, -1.7927, 6.6889, -9.4837, -1.7799, 6.8624, -9.603, -1.2478, 6.7685, -9.5974, -1.6147, 6.7877, -9.6097, -1.5451, 6.7099, -9.4897, -1.7922, 6.7685, -9.5974, -1.6147, 6.8624, -9.603, -1.2478, 6.7099, -9.4897, -1.7922, 6.7623, -9.5928, -1.6368, 6.7685, -9.5974, -1.6147, 6.7099, -9.4897, -1.7922, 6.7146, -9.5189, -1.7881, 6.7623, -9.5928, -1.6368, 6.7099, -9.4897, -1.7922, 6.712, -9.5056, -1.7918, 6.7146, -9.5189, -1.7881, 6.4996, -9.5653, -1.3984, 6.5001, -9.5659, -1.3991, 6.5, -9.5651, -1.3991, -2.2035, -3.4768, -3.8367, -2.1459, -3.483, -3.8745, -2.1857, -3.4742, -3.8198, -2.2035, -3.4768, -3.8367, -2.1857, -3.4742, -3.8198, -2.1952, -3.4714, -3.809, -2.3232, -3.9324, -3.5569, -2.3726, -3.8839, -3.492, -2.3239, -3.9328, -3.5559, -2.3553, -3.6633, -3.545, -2.3726, -3.8839, -3.492, -2.3232, -3.9324, -3.5569, -2.3553, -3.6633, -3.545, -2.4091, -3.759, -3.4554, -2.3726, -3.8839, -3.492, -2.2696, -3.5452, -3.7822, -2.353, -3.6548, -3.5349, -2.3553, -3.6633, -3.545, -2.2696, -3.5452, -3.7822, -2.2854, -3.5342, -3.6357, -2.353, -3.6548, -3.5349, -2.2035, -3.4768, -3.8367, -2.2696, -3.5452, -3.7822, -2.2257, -3.7653, -3.891, -2.2696, -3.5452, -3.7822, -2.2935, -3.7479, -3.7994, -2.2257, -3.7653, -3.891, -2.1157, -3.8395, -3.9506, -2.2257, -3.7653, -3.891, -2.1346, -3.8512, -3.9376, -2.0925, -3.7856, -3.9708, -2.2257, -3.7653, -3.891, -2.1157, -3.8395, -3.9506, -2.089, -3.7455, -3.9774, -2.2257, -3.7653, -3.891, -2.0925, -3.7856, -3.9708, -2.3229, -3.9324, -3.5585, -2.3553, -3.6633, -3.545, -2.3232, -3.9324, -3.5569, -2.2935, -3.7479, -3.7994, -2.3553, -3.6633, -3.545, -2.3229, -3.9324, -3.5585, -2.0915, -3.5068, -3.9144, -2.2035, -3.4768, -3.8367, -2.2257, -3.7653, -3.891, -2.1459, -3.483, -3.8745, -2.2035, -3.4768, -3.8367, -2.0915, -3.5068, -3.9144, -2.2035, -3.4768, -3.8367, -2.2619, -3.5177, -3.6511, -2.2696, -3.5452, -3.7822, -2.2035, -3.4768, -3.8367, -2.2346, -3.4897, -3.6757, -2.2619, -3.5177, -3.6511, -2.2035, -3.4768, -3.8367, -2.2073, -3.4731, -3.7796, -2.2346, -3.4897, -3.6757, -2.2696, -3.5452, -3.7822, -2.2619, -3.5177, -3.6511, -2.2854, -3.5342, -3.6357, -2.089, -3.7455, -3.9774, -2.0795, -3.7574, -3.9702, -2.0665, -3.7307, -3.9618, -2.3553, -3.6633, -3.545, -2.2935, -3.7479, -3.7994, -2.2696, -3.5452, -3.7822, -2.2336, -3.9052, -3.8189, -2.2935, -3.7479, -3.7994, -2.246, -3.9111, -3.7981, -2.2257, -3.7653, -3.891, -2.2935, -3.7479, -3.7994, -2.2336, -3.9052, -3.8189, -2.2257, -3.7653, -3.891, -2.2336, -3.9052, -3.8189, -2.1346, -3.8512, -3.9376, -2.003, -3.6375, -3.7099, -2.0236, -3.7149, -3.5247, -2.0619, -3.6424, -3.5766, -2.1367, -3.786, -3.4572, -2.3275, -3.9343, -3.5484, -2.3441, -3.9405, -3.5083, -2.1367, -3.786, -3.4572, -2.3239, -3.9328, -3.5559, -2.3275, -3.9343, -3.5484, -2.1367, -3.786, -3.4572, -2.3232, -3.9324, -3.5569, -2.3239, -3.9328, -3.5559, -2.1367, -3.786, -3.4572, -2.3229, -3.9324, -3.5585, -2.3232, -3.9324, -3.5569, -2.1367, -3.786, -3.4572, -2.246, -3.9111, -3.7981, -2.3229, -3.9324, -3.5585, -2.1367, -3.786, -3.4572, -2.2336, -3.9052, -3.8189, -2.246, -3.9111, -3.7981, -2.1367, -3.786, -3.4572, -2.1346, -3.8512, -3.9376, -2.2336, -3.9052, -3.8189, -2.1367, -3.786, -3.4572, -2.1157, -3.8395, -3.9506, -2.1346, -3.8512, -3.9376, -2.1367, -3.786, -3.4572, -2.0236, -3.7149, -3.5247, -2.1157, -3.8395, -3.9506, -2.4066, -3.7526, -3.4534, -2.0236, -3.7149, -3.5247, -2.1367, -3.786, -3.4572, -2.353, -3.6548, -3.5349, -2.0236, -3.7149, -3.5247, -2.4066, -3.7526, -3.4534, -2.353, -3.6548, -3.5349, -2.0619, -3.6424, -3.5766, -2.0236, -3.7149, -3.5247, -2.2854, -3.5342, -3.6357, -2.0619, -3.6424, -3.5766, -2.353, -3.6548, -3.5349, -2.2854, -3.5342, -3.6357, -2.2619, -3.5177, -3.6511, -2.0619, -3.6424, -3.5766, -2.2619, -3.5177, -3.6511, -2.2346, -3.4897, -3.6757, -2.0619, -3.6424, -3.5766, -2.3485, -3.9375, -3.5075, -2.1367, -3.786, -3.4572, -2.3441, -3.9405, -3.5083, -2.3726, -3.8839, -3.492, -2.1367, -3.786, -3.4572, -2.3485, -3.9375, -3.5075, -2.4091, -3.759, -3.4554, -2.1367, -3.786, -3.4572, -2.3726, -3.8839, -3.492, -2.4091, -3.759, -3.4554, -2.4066, -3.7526, -3.4534, -2.1367, -3.786, -3.4572, -2.0665, -3.7307, -3.9618, -2.0171, -3.5573, -3.9166, -2.089, -3.7455, -3.9774, -1.992, -3.5795, -3.9022, -2.0171, -3.5573, -3.9166, -2.0665, -3.7307, -3.9618, -2.0014, -3.5712, -3.9076, -2.0171, -3.5573, -3.9166, -1.992, -3.5795, -3.9022, -2.246, -3.9111, -3.7981, -2.2935, -3.7479, -3.7994, -2.3229, -3.9324, -3.5585, -2.3275, -3.9343, -3.5484, -2.3485, -3.9375, -3.5075, -2.3441, -3.9405, -3.5083, -2.2073, -3.4731, -3.7796, -2.2035, -3.4768, -3.8367, -2.1952, -3.4714, -3.809, -2.0795, -3.7574, -3.9702, -2.089, -3.7455, -3.9774, -2.0925, -3.7856, -3.9708, -2.2346, -3.4897, -3.6757, -2.0014, -3.5712, -3.9076, -2.0619, -3.6424, -3.5766, -2.2346, -3.4897, -3.6757, -2.0171, -3.5573, -3.9166, -2.0014, -3.5712, -3.9076, -2.2346, -3.4897, -3.6757, -2.0832, -3.5103, -3.9209, -2.0171, -3.5573, -3.9166, -2.2346, -3.4897, -3.6757, -2.0915, -3.5068, -3.9144, -2.0832, -3.5103, -3.9209, -2.2346, -3.4897, -3.6757, -2.1459, -3.483, -3.8745, -2.0915, -3.5068, -3.9144, -2.2073, -3.4731, -3.7796, -2.1459, -3.483, -3.8745, -2.2346, -3.4897, -3.6757, -2.2073, -3.4731, -3.7796, -2.1857, -3.4742, -3.8198, -2.1459, -3.483, -3.8745, -2.2073, -3.4731, -3.7796, -2.1952, -3.4714, -3.809, -2.1857, -3.4742, -3.8198, -2.3275, -3.9343, -3.5484, -2.3726, -3.8839, -3.492, -2.3485, -3.9375, -3.5075, -2.3239, -3.9328, -3.5559, -2.3726, -3.8839, -3.492, -2.3275, -3.9343, -3.5484, -2.0832, -3.5103, -3.9209, -2.089, -3.7455, -3.9774, -2.0171, -3.5573, -3.9166, -2.089, -3.7455, -3.9774, -2.0915, -3.5068, -3.9144, -2.2257, -3.7653, -3.891, -2.0832, -3.5103, -3.9209, -2.0915, -3.5068, -3.9144, -2.089, -3.7455, -3.9774, -2.3553, -3.6633, -3.545, -2.4066, -3.7526, -3.4534, -2.4091, -3.759, -3.4554, -2.3553, -3.6633, -3.545, -2.353, -3.6548, -3.5349, -2.4066, -3.7526, -3.4534, -2.0014, -3.5712, -3.9076, -2.003, -3.6375, -3.7099, -2.0619, -3.6424, -3.5766, -2.0014, -3.5712, -3.9076, -1.992, -3.5795, -3.9022, -2.003, -3.6375, -3.7099, -2.0236, -3.7149, -3.5247, -2.0925, -3.7856, -3.9708, -2.1157, -3.8395, -3.9506, -2.0236, -3.7149, -3.5247, -2.0795, -3.7574, -3.9702, -2.0925, -3.7856, -3.9708, -2.0236, -3.7149, -3.5247, -2.0665, -3.7307, -3.9618, -2.0795, -3.7574, -3.9702, -2.0236, -3.7149, -3.5247, -1.992, -3.5795, -3.9022, -2.0665, -3.7307, -3.9618, -2.003, -3.6375, -3.7099, -1.992, -3.5795, -3.9022, -2.0236, -3.7149, -3.5247, 12.9525, -2.131, 6.2776, 13.0707, -2.1765, 6.2377, 13.049, -2.1342, 6.6413, 13.1488, -2.2298, 6.58, 13.1785, -2.2382, 6.4182, 13.1816, -2.2429, 6.4291, 13.1488, -2.2298, 6.58, 13.049, -2.1342, 6.6413, 13.1785, -2.2382, 6.4182, 13.049, -2.1342, 6.6413, 13.1629, -2.2308, 6.3685, 13.1785, -2.2382, 6.4182, 13.049, -2.1342, 6.6413, 13.0707, -2.1765, 6.2377, 13.1629, -2.2308, 6.3685, 13.049, -2.1342, 6.6413, 13.153, -2.3454, 6.7096, 12.9748, -2.1323, 6.6857, 12.9748, -2.1323, 6.6857, 12.9722, -2.2984, 6.8086, 12.9143, -2.2283, 6.7678, 13.1488, -2.2298, 6.58, 13.213, -2.3337, 6.5503, 13.153, -2.3454, 6.7096, 13.1488, -2.2298, 6.58, 13.2071, -2.299, 6.5227, 13.213, -2.3337, 6.5503, 13.1488, -2.2298, 6.58, 13.153, -2.3454, 6.7096, 13.049, -2.1342, 6.6413, 13.0808, -2.3259, 6.1443, 13.0263, -2.2947, 6.0394, 13.0773, -2.3379, 6.1371, 13.0245, -2.2856, 6.0363, 13.0263, -2.2947, 6.0394, 13.0808, -2.3259, 6.1443, 13.0245, -2.2856, 6.0363, 13.0808, -2.3259, 6.1443, 13.1272, -2.2601, 6.2678, 13.1272, -2.2601, 6.2678, 13.0707, -2.1765, 6.2377, 13.0245, -2.2856, 6.0363, 13.1629, -2.2308, 6.3685, 13.0707, -2.1765, 6.2377, 13.1272, -2.2601, 6.2678, 13.0707, -2.1765, 6.2377, 12.9299, -2.1387, 6.2283, 12.9589, -2.1798, 6.1145, 12.9525, -2.131, 6.2776, 12.9299, -2.1387, 6.2283, 13.0707, -2.1765, 6.2377, 12.9525, -2.131, 6.2776, 13.049, -2.1342, 6.6413, 12.846, -2.0597, 6.5829, 13.049, -2.1342, 6.6413, 12.9748, -2.1323, 6.6857, 12.846, -2.0597, 6.5829, 12.8492, -2.1208, 6.6822, 12.846, -2.0597, 6.5829, 12.9748, -2.1323, 6.6857, 12.8206, -2.0823, 6.6228, 12.846, -2.0597, 6.5829, 12.8492, -2.1208, 6.6822, 12.993, -2.3326, 6.8181, 12.9748, -2.1323, 6.6857, 13.153, -2.3454, 6.7096, 12.9722, -2.2984, 6.8086, 12.9748, -2.1323, 6.6857, 12.993, -2.3326, 6.8181, 12.9001, -2.2136, 6.7563, 12.9748, -2.1323, 6.6857, 12.9143, -2.2283, 6.7678, 12.8492, -2.1208, 6.6822, 12.9748, -2.1323, 6.6857, 12.9001, -2.2136, 6.7563, 13.0707, -2.1765, 6.2377, 12.9706, -2.2547, 6.0041, 13.0245, -2.2856, 6.0363, 13.0707, -2.1765, 6.2377, 12.9676, -2.1908, 6.0819, 12.9706, -2.2547, 6.0041, 12.9609, -2.4144, 6.7262, 12.993, -2.3326, 6.8181, 13.0061, -2.4328, 6.7789, 12.9001, -2.2136, 6.7563, 12.993, -2.3326, 6.8181, 12.9609, -2.4144, 6.7262, 12.9001, -2.2136, 6.7563, 12.9722, -2.2984, 6.8086, 12.993, -2.3326, 6.8181, 12.9001, -2.2136, 6.7563, 12.9143, -2.2283, 6.7678, 12.9722, -2.2984, 6.8086, 12.9188, -2.4775, 6.4812, 12.856, -2.4105, 6.3279, 12.8553, -2.4096, 6.3263, 12.9188, -2.4775, 6.4812, 12.8553, -2.4096, 6.3263, 12.9609, -2.4144, 6.7262, 12.9188, -2.4775, 6.4812, 13.0497, -2.5112, 6.6823, 13.065, -2.5461, 6.6306, 12.9188, -2.4775, 6.4812, 13.0148, -2.4443, 6.7697, 13.0497, -2.5112, 6.6823, 12.9609, -2.4144, 6.7262, 13.0148, -2.4443, 6.7697, 12.9188, -2.4775, 6.4812, 12.9609, -2.4144, 6.7262, 13.0061, -2.4328, 6.7789, 13.0148, -2.4443, 6.7697, 12.9789, -2.2794, 6.0075, 12.8759, -2.3322, 6.1413, 12.856, -2.4105, 6.3279, 12.9789, -2.2794, 6.0075, 12.9637, -2.2749, 5.9981, 12.8759, -2.3322, 6.1413, 12.856, -2.4105, 6.3279, 12.8759, -2.3322, 6.1413, 12.8553, -2.4096, 6.3263, 12.8553, -2.4096, 6.3263, 12.8759, -2.3322, 6.1413, 12.817, -2.3371, 6.2744, 12.8553, -2.4096, 6.3263, 12.9001, -2.2136, 6.7563, 12.9609, -2.4144, 6.7262, 12.817, -2.3371, 6.2744, 12.9001, -2.2136, 6.7563, 12.8553, -2.4096, 6.3263, 12.8084, -2.075, 6.5852, 12.9001, -2.2136, 6.7563, 12.817, -2.3371, 6.2744, 12.8084, -2.075, 6.5852, 12.8492, -2.1208, 6.6822, 12.9001, -2.2136, 6.7563, 12.8084, -2.075, 6.5852, 12.8206, -2.0823, 6.6228, 12.8492, -2.1208, 6.6822, 13.2033, -2.4016, 6.5396, 13.153, -2.3454, 6.7096, 13.213, -2.3337, 6.5503, 12.8084, -2.075, 6.5852, 12.846, -2.0597, 6.5829, 12.8206, -2.0823, 6.6228, 12.8117, -2.0722, 6.5805, 12.846, -2.0597, 6.5829, 12.8084, -2.075, 6.5852, 13.153, -2.3454, 6.7096, 13.1792, -2.4913, 6.4912, 13.1728, -2.4951, 6.5007, 13.153, -2.3454, 6.7096, 13.2033, -2.4016, 6.5396, 13.1792, -2.4913, 6.4912, 13.0245, -2.2856, 6.0363, 12.9789, -2.2794, 6.0075, 13.0167, -2.2907, 6.0309, 12.9706, -2.2547, 6.0041, 12.9789, -2.2794, 6.0075, 13.0245, -2.2856, 6.0363, 12.9706, -2.2547, 6.0041, 12.9637, -2.2749, 5.9981, 12.9789, -2.2794, 6.0075, 13.2071, -2.299, 6.5227, 13.1488, -2.2298, 6.58, 13.1816, -2.2429, 6.4291, 12.832, -2.0689, 6.5363, 12.846, -2.0597, 6.5829, 12.8117, -2.0722, 6.5805, 13.0839, -2.5395, 6.6134, 12.9188, -2.4775, 6.4812, 13.065, -2.5461, 6.6306, 12.856, -2.4105, 6.3279, 12.9188, -2.4775, 6.4812, 13.0839, -2.5395, 6.6134, 12.9525, -2.131, 6.2776, 12.832, -2.0689, 6.5363, 12.9226, -2.1354, 6.2492, 12.846, -2.0597, 6.5829, 12.832, -2.0689, 6.5363, 12.9525, -2.131, 6.2776, 13.0061, -2.4328, 6.7789, 13.153, -2.3454, 6.7096, 13.0148, -2.4443, 6.7697, 12.993, -2.3326, 6.8181, 13.153, -2.3454, 6.7096, 13.0061, -2.4328, 6.7789, 13.0211, -2.2922, 6.0341, 13.0245, -2.2856, 6.0363, 13.0167, -2.2907, 6.0309, 13.0148, -2.4443, 6.7697, 13.153, -2.3454, 6.7096, 13.0497, -2.5112, 6.6823, 13.2033, -2.4016, 6.5396, 13.0773, -2.3379, 6.1371, 13.1792, -2.4913, 6.4912, 13.213, -2.3337, 6.5503, 13.0773, -2.3379, 6.1371, 13.2033, -2.4016, 6.5396, 13.213, -2.3337, 6.5503, 13.0808, -2.3259, 6.1443, 13.0773, -2.3379, 6.1371, 13.2071, -2.299, 6.5227, 13.0808, -2.3259, 6.1443, 13.213, -2.3337, 6.5503, 13.2071, -2.299, 6.5227, 13.1272, -2.2601, 6.2678, 13.0808, -2.3259, 6.1443, 13.1816, -2.2429, 6.4291, 13.1272, -2.2601, 6.2678, 13.2071, -2.299, 6.5227, 13.1816, -2.2429, 6.4291, 13.1629, -2.2308, 6.3685, 13.1272, -2.2601, 6.2678, 13.1785, -2.2382, 6.4182, 13.1629, -2.2308, 6.3685, 13.1816, -2.2429, 6.4291, 12.8759, -2.3322, 6.1413, 12.8084, -2.075, 6.5852, 12.817, -2.3371, 6.2744, 12.9637, -2.2749, 5.9981, 12.8084, -2.075, 6.5852, 12.8759, -2.3322, 6.1413, 12.9706, -2.2547, 6.0041, 12.8084, -2.075, 6.5852, 12.9637, -2.2749, 5.9981, 12.9676, -2.1908, 6.0819, 12.8084, -2.075, 6.5852, 12.9706, -2.2547, 6.0041, 12.9589, -2.1798, 6.1145, 12.8084, -2.075, 6.5852, 12.9676, -2.1908, 6.0819, 12.9299, -2.1387, 6.2283, 12.9226, -2.1354, 6.2492, 12.9589, -2.1798, 6.1145, 12.9226, -2.1354, 6.2492, 12.8084, -2.075, 6.5852, 12.9589, -2.1798, 6.1145, 12.832, -2.0689, 6.5363, 12.8084, -2.075, 6.5852, 12.9226, -2.1354, 6.2492, 12.832, -2.0689, 6.5363, 12.8117, -2.0722, 6.5805, 12.8084, -2.075, 6.5852, 13.0497, -2.5112, 6.6823, 13.0839, -2.5395, 6.6134, 13.065, -2.5461, 6.6306, 13.0497, -2.5112, 6.6823, 13.0925, -2.5365, 6.6055, 13.0839, -2.5395, 6.6134, 13.0497, -2.5112, 6.6823, 13.153, -2.3454, 6.7096, 13.0925, -2.5365, 6.6055, 12.9676, -2.1908, 6.0819, 13.0707, -2.1765, 6.2377, 12.9589, -2.1798, 6.1145, 13.0263, -2.2947, 6.0394, 13.0245, -2.2856, 6.0363, 13.0211, -2.2922, 6.0341, 12.9299, -2.1387, 6.2283, 12.9525, -2.131, 6.2776, 12.9226, -2.1354, 6.2492, 13.0925, -2.5365, 6.6055, 13.153, -2.3454, 6.7096, 13.1728, -2.4951, 6.5007, 13.0925, -2.5365, 6.6055, 12.856, -2.4105, 6.3279, 13.0839, -2.5395, 6.6134, 13.1728, -2.4951, 6.5007, 12.856, -2.4105, 6.3279, 13.0925, -2.5365, 6.6055, 13.1792, -2.4913, 6.4912, 12.856, -2.4105, 6.3279, 13.1728, -2.4951, 6.5007, 13.0773, -2.3379, 6.1371, 12.856, -2.4105, 6.3279, 13.1792, -2.4913, 6.4912, 13.0773, -2.3379, 6.1371, 12.9789, -2.2794, 6.0075, 12.856, -2.4105, 6.3279, 13.0263, -2.2947, 6.0394, 12.9789, -2.2794, 6.0075, 13.0773, -2.3379, 6.1371, 13.0211, -2.2922, 6.0341, 12.9789, -2.2794, 6.0075, 13.0263, -2.2947, 6.0394, 13.0167, -2.2907, 6.0309, 12.9789, -2.2794, 6.0075, 13.0211, -2.2922, 6.0341, 5.4041, -5.0588, 3.3904, 5.2802, -5.0484, 3.4793, 5.4336, -4.8787, 3.5024, 5.001, -5.0135, 3.3945, 5.2423, -4.9143, 3.5746, 5.2802, -5.0484, 3.4793, 5.1833, -4.9117, 3.5528, 5.2423, -4.9143, 3.5746, 5.001, -5.0135, 3.3945, 4.927, -5.0706, 3.2895, 4.8676, -4.9368, 3.1763, 5.0014, -4.9019, 3.457, 4.9582, -4.8376, 3.329, 5.0014, -4.9019, 3.457, 4.8676, -4.9368, 3.1763, 4.9582, -4.8376, 3.329, 5.0031, -4.8891, 3.4542, 5.0014, -4.9019, 3.457, 4.927, -5.0706, 3.2895, 4.8947, -5.069, 3.1985, 4.8676, -4.9368, 3.1763, 5.001, -5.0135, 3.3945, 4.927, -5.0706, 3.2895, 5.0014, -4.9019, 3.457, 5.001, -5.0135, 3.3945, 5.0237, -5.0888, 3.3155, 4.927, -5.0706, 3.2895, 5.4041, -5.0588, 3.3904, 5.4283, -5.0694, 3.3101, 5.3423, -5.0897, 3.3446, 5.4041, -5.0588, 3.3904, 5.4532, -5.0562, 3.3318, 5.4283, -5.0694, 3.3101, 5.3423, -5.0897, 3.3446, 5.0237, -5.0888, 3.3155, 5.2802, -5.0484, 3.4793, 5.2802, -5.0484, 3.4793, 5.0237, -5.0888, 3.3155, 5.001, -5.0135, 3.3945, 5.4336, -4.8787, 3.5024, 5.4793, -4.938, 3.4102, 5.4041, -5.0588, 3.3904, 5.4336, -4.8787, 3.5024, 5.4444, -4.871, 3.4977, 5.4793, -4.938, 3.4102, 5.4292, -4.862, 3.5105, 5.4444, -4.871, 3.4977, 5.4336, -4.8787, 3.5024, 5.4292, -4.862, 3.5105, 5.4357, -4.8596, 3.5069, 5.4444, -4.871, 3.4977, 5.2423, -4.9143, 3.5746, 5.4336, -4.8787, 3.5024, 5.2802, -5.0484, 3.4793, 5.3668, -4.8804, 3.5338, 5.4336, -4.8787, 3.5024, 5.2423, -4.9143, 3.5746, 5.4336, -4.8787, 3.5024, 5.3668, -4.8804, 3.5338, 5.4292, -4.862, 3.5105, 5.0014, -4.9019, 3.457, 5.0031, -4.8891, 3.4542, 5.0066, -4.8898, 3.4568, 5.0237, -5.0888, 3.3155, 5.2419, -5.0949, 3.2018, 5.0555, -5.097, 3.12, 5.0237, -5.0888, 3.3155, 5.3423, -5.0897, 3.3446, 5.2419, -5.0949, 3.2018, 5.3423, -5.0897, 3.3446, 5.2802, -5.0484, 3.4793, 5.4041, -5.0588, 3.3904, 4.8947, -5.069, 3.1985, 4.927, -5.0706, 3.2895, 5.0237, -5.0888, 3.3155, 4.9859, -5.0859, 3.0864, 5.0237, -5.0888, 3.3155, 5.0555, -5.097, 3.12, 4.9859, -5.0859, 3.0864, 4.8947, -5.069, 3.1985, 5.0237, -5.0888, 3.3155, 5.4283, -5.0694, 3.3101, 5.3289, -4.907, 3.191, 5.3677, -5.0861, 3.2551, 5.4532, -5.0562, 3.3318, 5.3289, -4.907, 3.191, 5.4283, -5.0694, 3.3101, 5.4922, -4.9779, 3.3569, 5.3289, -4.907, 3.191, 5.4532, -5.0562, 3.3318, 5.3484, -4.9043, 3.2092, 5.3905, -4.8412, 3.4541, 5.3289, -4.907, 3.191, 5.4946, -4.9729, 3.3585, 5.3289, -4.907, 3.191, 5.4922, -4.9779, 3.3569, 5.3484, -4.9043, 3.2092, 5.3289, -4.907, 3.191, 5.4946, -4.9729, 3.3585, 5.4793, -4.938, 3.4102, 5.3484, -4.9043, 3.2092, 5.4946, -4.9729, 3.3585, 5.4444, -4.871, 3.4977, 5.3484, -4.9043, 3.2092, 5.4793, -4.938, 3.4102, 5.4444, -4.871, 3.4977, 5.3905, -4.8412, 3.4541, 5.3484, -4.9043, 3.2092, 5.4357, -4.8596, 3.5069, 5.3905, -4.8412, 3.4541, 5.4444, -4.871, 3.4977, 5.3289, -4.907, 3.191, 4.9018, -4.8739, 3.1257, 5.1718, -4.9074, 3.1219, 4.9018, -4.8722, 3.1321, 4.9018, -4.8739, 3.1257, 5.3289, -4.907, 3.191, 5.1718, -4.9074, 3.1219, 4.9599, -5.0589, 3.0716, 4.9645, -5.062, 3.0707, 5.1718, -4.9074, 3.1219, 4.9357, -5.005, 3.0872, 4.9599, -5.0589, 3.0716, 5.1718, -4.9074, 3.1219, 4.8993, -4.8805, 3.1237, 4.9357, -5.005, 3.0872, 4.9018, -4.8739, 3.1257, 4.8993, -4.8805, 3.1237, 5.1718, -4.9074, 3.1219, 5.3289, -4.907, 3.191, 4.9645, -5.062, 3.0707, 4.9757, -5.0745, 3.0789, 5.3289, -4.907, 3.191, 5.1718, -4.9074, 3.1219, 4.9645, -5.062, 3.0707, 5.2419, -5.0949, 3.2018, 4.9859, -5.0859, 3.0864, 5.0555, -5.097, 3.12, 5.349, -5.0909, 3.2481, 4.9859, -5.0859, 3.0864, 5.2419, -5.0949, 3.2018, 5.3677, -5.0861, 3.2551, 4.9859, -5.0859, 3.0864, 5.349, -5.0909, 3.2481, 5.3289, -4.907, 3.191, 4.9859, -5.0859, 3.0864, 5.3677, -5.0861, 3.2551, 5.3289, -4.907, 3.191, 4.9757, -5.0745, 3.0789, 4.9859, -5.0859, 3.0864, 5.3905, -4.8412, 3.4541, 4.9018, -4.8722, 3.1321, 5.3289, -4.907, 3.191, 5.3905, -4.8412, 3.4541, 4.9011, -4.8572, 3.1854, 4.9018, -4.8722, 3.1321, 5.3905, -4.8412, 3.4541, 4.9547, -4.8292, 3.3095, 4.9011, -4.8572, 3.1854, 4.9757, -5.0745, 3.0789, 4.8947, -5.069, 3.1985, 4.9859, -5.0859, 3.0864, 4.9645, -5.062, 3.0707, 4.8947, -5.069, 3.1985, 4.9757, -5.0745, 3.0789, 4.9645, -5.062, 3.0707, 4.9599, -5.0589, 3.0716, 4.8947, -5.069, 3.1985, 5.0014, -4.9019, 3.457, 5.1833, -4.9117, 3.5528, 5.001, -5.0135, 3.3945, 5.0014, -4.9019, 3.457, 5.0512, -4.898, 3.4869, 5.1833, -4.9117, 3.5528, 4.9599, -5.0589, 3.0716, 4.8676, -4.9368, 3.1763, 4.8947, -5.069, 3.1985, 4.9357, -5.005, 3.0872, 4.8676, -4.9368, 3.1763, 4.9599, -5.0589, 3.0716, 5.4793, -4.938, 3.4102, 5.4532, -5.0562, 3.3318, 5.4041, -5.0588, 3.3904, 5.4793, -4.938, 3.4102, 5.4922, -4.9779, 3.3569, 5.4532, -5.0562, 3.3318, 5.4793, -4.938, 3.4102, 5.4946, -4.9729, 3.3585, 5.4922, -4.9779, 3.3569, 4.9011, -4.8572, 3.1854, 4.9582, -4.8376, 3.329, 4.8676, -4.9368, 3.1763, 4.9547, -4.8292, 3.3095, 4.9582, -4.8376, 3.329, 4.9011, -4.8572, 3.1854, 4.8993, -4.8805, 3.1237, 4.8676, -4.9368, 3.1763, 4.9357, -5.005, 3.0872, 5.3423, -5.0897, 3.3446, 5.3677, -5.0861, 3.2551, 5.349, -5.0909, 3.2481, 5.4283, -5.0694, 3.3101, 5.3677, -5.0861, 3.2551, 5.3423, -5.0897, 3.3446, 4.8993, -4.8805, 3.1237, 4.9011, -4.8572, 3.1854, 4.8676, -4.9368, 3.1763, 4.9018, -4.8739, 3.1257, 4.9011, -4.8572, 3.1854, 4.8993, -4.8805, 3.1237, 4.9018, -4.8722, 3.1321, 4.9011, -4.8572, 3.1854, 4.9018, -4.8739, 3.1257, 5.0512, -4.898, 3.4869, 5.0014, -4.9019, 3.457, 5.0066, -4.8898, 3.4568, 5.2419, -5.0949, 3.2018, 5.3423, -5.0897, 3.3446, 5.349, -5.0909, 3.2481, 5.1833, -4.9117, 3.5528, 5.3668, -4.8804, 3.5338, 5.2423, -4.9143, 3.5746, 5.0512, -4.898, 3.4869, 5.3668, -4.8804, 3.5338, 5.1833, -4.9117, 3.5528, 5.0066, -4.8898, 3.4568, 5.3668, -4.8804, 3.5338, 5.0512, -4.898, 3.4869, 5.0031, -4.8891, 3.4542, 5.3668, -4.8804, 3.5338, 5.0066, -4.8898, 3.4568, 4.9582, -4.8376, 3.329, 5.3668, -4.8804, 3.5338, 5.0031, -4.8891, 3.4542, 4.9582, -4.8376, 3.329, 5.4292, -4.862, 3.5105, 5.3668, -4.8804, 3.5338, 4.9582, -4.8376, 3.329, 5.4357, -4.8596, 3.5069, 5.4292, -4.862, 3.5105, 4.9582, -4.8376, 3.329, 5.3905, -4.8412, 3.4541, 5.4357, -4.8596, 3.5069, 4.9582, -4.8376, 3.329, 4.9547, -4.8292, 3.3095, 5.3905, -4.8412, 3.4541, 1.0882, -0.7244, 5.5527, 1.1102, -0.7462, 5.2212, 1.2544, -0.664, 5.5643, 1.2544, -0.664, 5.5643, 1.2337, -0.7041, 5.6647, 1.0882, -0.7244, 5.5527, 1.2544, -0.664, 5.5643, 1.2702, -0.6717, 5.6074, 1.2337, -0.7041, 5.6647, 1.2544, -0.664, 5.5643, 1.2578, -0.6643, 5.5694, 1.2702, -0.6717, 5.6074, 1.0142, -0.7981, 5.467, 1.0587, -0.8476, 5.6304, 1.0296, -0.888, 5.6104, 1.0142, -0.7981, 5.467, 1.0882, -0.7244, 5.5527, 1.0587, -0.8476, 5.6304, 0.9755, -0.9386, 5.3005, 0.9211, -1.0196, 5.4418, 0.9219, -1.0363, 5.382, 0.9755, -0.9386, 5.3005, 1.0142, -0.7981, 5.467, 0.9211, -1.0196, 5.4418, 1.0882, -0.7244, 5.5527, 1.1737, -0.7634, 5.6907, 1.1213, -0.7832, 5.6679, 1.0882, -0.7244, 5.5527, 1.2337, -0.7041, 5.6647, 1.1737, -0.7634, 5.6907, 1.2337, -0.7041, 5.6647, 1.2578, -0.7695, 5.7176, 1.1737, -0.7634, 5.6907, 1.3047, -0.9989, 5.3108, 0.9219, -1.0363, 5.382, 1.1919, -1.0699, 5.3781, 1.3047, -0.9989, 5.3108, 0.9755, -0.9386, 5.3005, 0.9219, -1.0363, 5.382, 1.2664, -0.9262, 5.2588, 0.9755, -0.9386, 5.3005, 1.3047, -0.9989, 5.3108, 1.2664, -0.9262, 5.2588, 1.043, -0.8182, 5.1998, 0.9755, -0.9386, 5.3005, 1.0938, -0.7737, 5.1598, 1.0665, -0.8016, 5.1844, 1.2664, -0.9262, 5.2588, 1.0665, -0.8016, 5.1844, 1.043, -0.8182, 5.1998, 1.2664, -0.9262, 5.2588, 1.3047, -0.9989, 5.3108, 1.1919, -1.0699, 5.3781, 1.3488, -1.0695, 5.4472, 1.4103, -1.0035, 5.7102, 1.2664, -0.9262, 5.2588, 1.3682, -1.0667, 5.4652, 1.3494, -0.8025, 5.7403, 1.2664, -0.9262, 5.2588, 1.4103, -1.0035, 5.7102, 1.3494, -0.8025, 5.7403, 1.2578, -0.6643, 5.5694, 1.2664, -0.9262, 5.2588, 1.2986, -0.71, 5.6665, 1.2578, -0.6643, 5.5694, 1.3494, -0.8025, 5.7403, 1.2702, -0.6717, 5.6074, 1.2578, -0.6643, 5.5694, 1.2986, -0.71, 5.6665, 1.3682, -1.0667, 5.4652, 1.2664, -0.9262, 5.2588, 1.3062, -1.0006, 5.3144, 1.3062, -1.0006, 5.3144, 1.2664, -0.9262, 5.2588, 1.3047, -0.9989, 5.3108, 1.3062, -1.0006, 5.3144, 1.3047, -0.9989, 5.3108, 1.3488, -1.0695, 5.4472, 1.3682, -1.0667, 5.4652, 1.3488, -1.0695, 5.4472, 1.4103, -1.0035, 5.7102, 1.3062, -1.0006, 5.3144, 1.3488, -1.0695, 5.4472, 1.3682, -1.0667, 5.4652, 1.2578, -0.7695, 5.7176, 1.2986, -0.71, 5.6665, 1.3494, -0.8025, 5.7403, 1.2337, -0.7041, 5.6647, 1.2986, -0.71, 5.6665, 1.2578, -0.7695, 5.7176, 1.0665, -0.8016, 5.1844, 1.0142, -0.7981, 5.467, 1.043, -0.8182, 5.1998, 1.0882, -0.7244, 5.5527, 1.0142, -0.7981, 5.467, 1.0665, -0.8016, 5.1844, 0.9219, -1.0363, 5.382, 1.3488, -1.0695, 5.4472, 1.1919, -1.0699, 5.3781, 0.9219, -1.0363, 5.382, 1.4103, -1.0035, 5.7102, 1.3488, -1.0695, 5.4472, 0.9211, -1.0196, 5.4418, 1.4103, -1.0035, 5.7102, 0.9219, -1.0363, 5.382, 0.9747, -0.9915, 5.5657, 1.4103, -1.0035, 5.7102, 0.9211, -1.0196, 5.4418, 1.2578, -0.6643, 5.5694, 1.0938, -0.7737, 5.1598, 1.2664, -0.9262, 5.2588, 1.2578, -0.6643, 5.5694, 1.1102, -0.7462, 5.2212, 1.0938, -0.7737, 5.1598, 1.2578, -0.6643, 5.5694, 1.2544, -0.664, 5.5643, 1.1102, -0.7462, 5.2212, 1.043, -0.8182, 5.1998, 1.0142, -0.7981, 5.467, 0.9755, -0.9386, 5.3005, 1.0938, -0.7737, 5.1598, 1.0882, -0.7244, 5.5527, 1.0665, -0.8016, 5.1844, 1.1102, -0.7462, 5.2212, 1.0882, -0.7244, 5.5527, 1.0938, -0.7737, 5.1598, 0.9747, -0.9915, 5.5657, 1.3494, -0.8025, 5.7403, 1.4103, -1.0035, 5.7102, 1.0296, -0.888, 5.6104, 1.3494, -0.8025, 5.7403, 0.9747, -0.9915, 5.5657, 1.0587, -0.8476, 5.6304, 1.3494, -0.8025, 5.7403, 1.0296, -0.888, 5.6104, 1.1213, -0.7832, 5.6679, 1.3494, -0.8025, 5.7403, 1.0587, -0.8476, 5.6304, 1.1213, -0.7832, 5.6679, 1.2578, -0.7695, 5.7176, 1.3494, -0.8025, 5.7403, 1.1737, -0.7634, 5.6907, 1.2578, -0.7695, 5.7176, 1.1213, -0.7832, 5.6679, 1.2986, -0.71, 5.6665, 1.2337, -0.7041, 5.6647, 1.2702, -0.6717, 5.6074, 1.0142, -0.7981, 5.467, 0.9747, -0.9915, 5.5657, 0.9211, -1.0196, 5.4418, 1.0142, -0.7981, 5.467, 1.0296, -0.888, 5.6104, 0.9747, -0.9915, 5.5657, 1.0587, -0.8476, 5.6304, 1.0882, -0.7244, 5.5527, 1.1213, -0.7832, 5.6679, 4.2647, -2.5556, 12.3342, 4.0968, -2.6817, 12.37, 4.1514, -2.5418, 12.3454, 4.0968, -2.6817, 12.37, 4.0469, -2.7096, 12.3267, 3.9157, -2.696, 12.2612, 3.8181, -2.627, 12.0833, 3.881, -2.5706, 12.203, 3.8217, -2.6355, 12.103, 3.873, -2.5236, 12.128, 3.881, -2.5706, 12.203, 3.8181, -2.627, 12.0833, 4.1514, -2.5418, 12.3454, 4.0968, -2.6817, 12.37, 3.9763, -2.4392, 12.2256, 3.87, -2.6876, 12.2304, 4.0968, -2.6817, 12.37, 3.9157, -2.696, 12.2612, 3.9763, -2.4392, 12.2256, 4.0968, -2.6817, 12.37, 3.87, -2.6876, 12.2304, 3.9019, -2.4835, 12.148, 3.9763, -2.4392, 12.2256, 3.881, -2.5706, 12.203, 3.9648, -2.4188, 12.1856, 3.9763, -2.4392, 12.2256, 3.9019, -2.4835, 12.148, 4.229, -2.6785, 12.3079, 4.0469, -2.7096, 12.3267, 4.1055, -2.7122, 12.3483, 4.229, -2.6785, 12.3079, 3.9157, -2.696, 12.2612, 4.0469, -2.7096, 12.3267, 4.229, -2.6785, 12.3079, 3.87, -2.6876, 12.2304, 3.9157, -2.696, 12.2612, 4.229, -2.6785, 12.3079, 3.8664, -2.6869, 12.2278, 3.87, -2.6876, 12.2304, 4.229, -2.6785, 12.3079, 3.8217, -2.6355, 12.103, 3.8664, -2.6869, 12.2278, 4.2923, -2.6598, 12.2842, 3.8217, -2.6355, 12.103, 4.229, -2.6785, 12.3079, 4.2989, -2.6574, 12.2807, 3.8217, -2.6355, 12.103, 4.2923, -2.6598, 12.2842, 4.2538, -2.639, 12.228, 3.8217, -2.6355, 12.103, 4.2989, -2.6574, 12.2807, 3.8181, -2.627, 12.0833, 3.8217, -2.6355, 12.103, 4.2538, -2.639, 12.228, 4.193, -2.4384, 12.258, 3.8181, -2.627, 12.0833, 4.2538, -2.639, 12.228, 4.193, -2.4384, 12.258, 3.873, -2.5236, 12.128, 3.8181, -2.627, 12.0833, 4.193, -2.4384, 12.258, 3.9019, -2.4835, 12.148, 3.873, -2.5236, 12.128, 4.193, -2.4384, 12.258, 3.9648, -2.4188, 12.1856, 3.9019, -2.4835, 12.148, 4.1013, -2.4054, 12.2352, 3.9648, -2.4188, 12.1856, 4.193, -2.4384, 12.258, 4.1013, -2.4054, 12.2352, 4.0167, -2.3993, 12.2081, 3.9648, -2.4188, 12.1856, 4.1013, -2.4054, 12.2352, 4.2073, -2.4532, 12.2695, 4.1514, -2.5418, 12.3454, 4.1013, -2.4054, 12.2352, 4.193, -2.4384, 12.258, 4.2073, -2.4532, 12.2695, 3.9019, -2.4835, 12.148, 3.881, -2.5706, 12.203, 3.873, -2.5236, 12.128, 4.0167, -2.3993, 12.2081, 3.9763, -2.4392, 12.2256, 3.9648, -2.4188, 12.1856, 4.1514, -2.5418, 12.3454, 4.2652, -2.5234, 12.3104, 4.2647, -2.5556, 12.3342, 4.2073, -2.4532, 12.2695, 4.2652, -2.5234, 12.3104, 4.1514, -2.5418, 12.3454, 4.1055, -2.7122, 12.3483, 4.0968, -2.6817, 12.37, 4.229, -2.6785, 12.3079, 4.2647, -2.5556, 12.3342, 4.2989, -2.6574, 12.2807, 4.2923, -2.6598, 12.2842, 4.2647, -2.5556, 12.3342, 4.2859, -2.5573, 12.3199, 4.2989, -2.6574, 12.2807, 3.8217, -2.6355, 12.103, 3.881, -2.5706, 12.203, 3.8664, -2.6869, 12.2278, 4.0469, -2.7096, 12.3267, 4.0968, -2.6817, 12.37, 4.1055, -2.7122, 12.3483, 4.2859, -2.5573, 12.3199, 4.2647, -2.5556, 12.3342, 4.2652, -2.5234, 12.3104, 3.8664, -2.6869, 12.2278, 3.9763, -2.4392, 12.2256, 3.87, -2.6876, 12.2304, 3.881, -2.5706, 12.203, 3.9763, -2.4392, 12.2256, 3.8664, -2.6869, 12.2278, 4.2647, -2.5556, 12.3342, 4.229, -2.6785, 12.3079, 4.0968, -2.6817, 12.37, 4.2647, -2.5556, 12.3342, 4.2923, -2.6598, 12.2842, 4.229, -2.6785, 12.3079, 3.9763, -2.4392, 12.2256, 4.1013, -2.4054, 12.2352, 4.1514, -2.5418, 12.3454, 4.0167, -2.3993, 12.2081, 4.1013, -2.4054, 12.2352, 3.9763, -2.4392, 12.2256, 4.2859, -2.5573, 12.3199, 4.2538, -2.639, 12.228, 4.2989, -2.6574, 12.2807, 4.2859, -2.5573, 12.3199, 4.193, -2.4384, 12.258, 4.2538, -2.639, 12.228, 4.2652, -2.5234, 12.3104, 4.193, -2.4384, 12.258, 4.2859, -2.5573, 12.3199, 4.2073, -2.4532, 12.2695, 4.193, -2.4384, 12.258, 4.2652, -2.5234, 12.3104, 13.5578, -6.4783, -2.6458, 13.5589, -6.5544, -2.7186, 13.5189, -6.5566, -2.671, 13.5578, -6.4783, -2.6458, 13.5877, -6.4637, -2.6692, 13.5589, -6.5544, -2.7186, 13.5603, -6.4733, -2.6442, 13.5877, -6.4637, -2.6692, 13.5578, -6.4783, -2.6458, 13.5789, -6.4668, -2.6612, 13.5877, -6.4637, -2.6692, 13.5603, -6.4733, -2.6442, 13.4183, -6.5921, -2.8102, 13.5589, -6.5544, -2.7186, 13.4436, -6.5968, -3.1782, 13.4311, -6.5873, -2.7572, 13.5589, -6.5544, -2.7186, 13.4183, -6.5921, -2.8102, 13.4334, -6.5865, -2.7478, 13.5589, -6.5544, -2.7186, 13.4311, -6.5873, -2.7572, 13.4941, -6.5697, -2.6926, 13.5589, -6.5544, -2.7186, 13.4334, -6.5865, -2.7478, 13.5762, -6.5044, -3.1398, 13.4844, -6.5683, -3.2009, 13.6783, -6.4992, -2.8816, 13.2731, -6.5048, -3.3785, 13.4844, -6.5683, -3.2009, 13.3792, -6.4839, -3.3302, 13.5877, -6.4637, -2.6692, 13.6783, -6.4992, -2.8816, 13.5589, -6.5544, -2.7186, 13.5877, -6.4637, -2.6692, 13.6682, -6.4223, -2.7741, 13.6783, -6.4992, -2.8816, 13.4436, -6.5968, -3.1782, 13.5589, -6.5544, -2.7186, 13.6783, -6.4992, -2.8816, 13.342, -6.5847, -3.2177, 13.4436, -6.5968, -3.1782, 13.4844, -6.5683, -3.2009, 13.4844, -6.5683, -3.2009, 13.5762, -6.5044, -3.1398, 13.3792, -6.4839, -3.3302, 13.5216, -6.222, -3.235, 13.3792, -6.4839, -3.3302, 13.5762, -6.5044, -3.1398, 13.5216, -6.222, -3.235, 13.5163, -6.2194, -3.2406, 13.3792, -6.4839, -3.3302, 13.4844, -6.5683, -3.2009, 13.4436, -6.5968, -3.1782, 13.6783, -6.4992, -2.8816, 13.342, -6.5847, -3.2177, 13.4844, -6.5683, -3.2009, 13.2731, -6.5048, -3.3785, 13.3792, -6.4839, -3.3302, 13.2814, -6.4082, -3.3943, 13.2731, -6.5048, -3.3785, 13.2947, -6.3794, -3.3937, 13.2814, -6.4082, -3.3943, 13.3792, -6.4839, -3.3302, 13.6682, -6.4223, -2.7741, 13.7087, -6.4167, -2.8548, 13.6783, -6.4992, -2.8816, 13.6746, -6.4185, -2.7837, 13.7087, -6.4167, -2.8548, 13.6682, -6.4223, -2.7741, 13.4436, -6.5968, -3.1782, 13.3196, -6.5869, -3.1964, 13.3388, -6.5992, -3.1267, 13.342, -6.5847, -3.2177, 13.3196, -6.5869, -3.1964, 13.4436, -6.5968, -3.1782, 13.2814, -6.4082, -3.3943, 13.3508, -6.3368, -2.9488, 13.2586, -6.4615, -3.3743, 13.2947, -6.3794, -3.3937, 13.3508, -6.3368, -2.9488, 13.2814, -6.4082, -3.3943, 13.308, -6.3521, -3.3851, 13.3508, -6.3368, -2.9488, 13.2947, -6.3794, -3.3937, 13.3822, -6.2013, -3.3257, 13.3508, -6.3368, -2.9488, 13.308, -6.3521, -3.3851, 13.3822, -6.2013, -3.3257, 13.3712, -6.2592, -3.134, 13.3508, -6.3368, -2.9488, 13.414, -6.4047, -2.7936, 13.3946, -6.4073, -2.8116, 13.3521, -6.3385, -2.9447, 13.414, -6.4047, -2.7936, 13.5789, -6.4668, -2.6612, 13.5603, -6.4733, -2.6442, 13.414, -6.4047, -2.7936, 13.3521, -6.3385, -2.9447, 13.5789, -6.4668, -2.6612, 13.3196, -6.5869, -3.1964, 13.4183, -6.5921, -2.8102, 13.3388, -6.5992, -3.1267, 13.3196, -6.5869, -3.1964, 13.4311, -6.5873, -2.7572, 13.4183, -6.5921, -2.8102, 13.3196, -6.5869, -3.1964, 13.3508, -6.3368, -2.9488, 13.4311, -6.5873, -2.7572, 13.3134, -6.5823, -3.2183, 13.3508, -6.3368, -2.9488, 13.3196, -6.5869, -3.1964, 13.2656, -6.5083, -3.3698, 13.3508, -6.3368, -2.9488, 13.3134, -6.5823, -3.2183, 13.2631, -6.4953, -3.3734, 13.3508, -6.3368, -2.9488, 13.2656, -6.5083, -3.3698, 13.2586, -6.4615, -3.3743, 13.3508, -6.3368, -2.9488, 13.2631, -6.4953, -3.3734, 13.3946, -6.4073, -2.8116, 13.3508, -6.3368, -2.9488, 13.3521, -6.3385, -2.9447, 13.3521, -6.3385, -2.9447, 13.3508, -6.3368, -2.9488, 13.3712, -6.2592, -3.134, 13.6783, -6.4992, -2.8816, 13.6941, -6.3946, -2.9059, 13.5762, -6.5044, -3.1398, 13.7087, -6.4167, -2.8548, 13.6941, -6.3946, -2.9059, 13.6783, -6.4992, -2.8816, 13.3946, -6.4073, -2.8116, 13.5603, -6.4733, -2.6442, 13.5578, -6.4783, -2.6458, 13.3946, -6.4073, -2.8116, 13.414, -6.4047, -2.7936, 13.5603, -6.4733, -2.6442, 13.3521, -6.3385, -2.9447, 13.5877, -6.4637, -2.6692, 13.5789, -6.4668, -2.6612, 13.3521, -6.3385, -2.9447, 13.6682, -6.4223, -2.7741, 13.5877, -6.4637, -2.6692, 13.3521, -6.3385, -2.9447, 13.6746, -6.4185, -2.7837, 13.6682, -6.4223, -2.7741, 13.3521, -6.3385, -2.9447, 13.5731, -6.2655, -3.1365, 13.6746, -6.4185, -2.7837, 13.3712, -6.2592, -3.134, 13.5731, -6.2655, -3.1365, 13.3521, -6.3385, -2.9447, 13.3712, -6.2592, -3.134, 13.5216, -6.222, -3.235, 13.5731, -6.2655, -3.1365, 13.4588, -6.2021, -3.2766, 13.5216, -6.222, -3.235, 13.3712, -6.2592, -3.134, 13.4588, -6.2021, -3.2766, 13.5163, -6.2194, -3.2406, 13.5216, -6.222, -3.235, 13.4588, -6.2021, -3.2766, 13.5117, -6.2179, -3.2438, 13.5163, -6.2194, -3.2406, 13.5117, -6.2179, -3.2438, 13.3822, -6.2013, -3.3257, 13.308, -6.3521, -3.3851, 13.4588, -6.2021, -3.2766, 13.3822, -6.2013, -3.3257, 13.5117, -6.2179, -3.2438, 13.3946, -6.4073, -2.8116, 13.4941, -6.5697, -2.6926, 13.4334, -6.5865, -2.7478, 13.3946, -6.4073, -2.8116, 13.5189, -6.5566, -2.671, 13.4941, -6.5697, -2.6926, 13.3946, -6.4073, -2.8116, 13.5578, -6.4783, -2.6458, 13.5189, -6.5566, -2.671, 13.2731, -6.5048, -3.3785, 13.3134, -6.5823, -3.2183, 13.342, -6.5847, -3.2177, 13.2731, -6.5048, -3.3785, 13.2656, -6.5083, -3.3698, 13.3134, -6.5823, -3.2183, 13.4588, -6.2021, -3.2766, 13.3712, -6.2592, -3.134, 13.3822, -6.2013, -3.3257, 13.5163, -6.2194, -3.2406, 13.2947, -6.3794, -3.3937, 13.3792, -6.4839, -3.3302, 13.5163, -6.2194, -3.2406, 13.308, -6.3521, -3.3851, 13.2947, -6.3794, -3.3937, 13.5163, -6.2194, -3.2406, 13.5117, -6.2179, -3.2438, 13.308, -6.3521, -3.3851, 13.6941, -6.3946, -2.9059, 13.5216, -6.222, -3.235, 13.5762, -6.5044, -3.1398, 13.5731, -6.2655, -3.1365, 13.5216, -6.222, -3.235, 13.6941, -6.3946, -2.9059, 13.2656, -6.5083, -3.3698, 13.2731, -6.5048, -3.3785, 13.2631, -6.4953, -3.3734, 13.2814, -6.4082, -3.3943, 13.2631, -6.4953, -3.3734, 13.2731, -6.5048, -3.3785, 13.2814, -6.4082, -3.3943, 13.2586, -6.4615, -3.3743, 13.2631, -6.4953, -3.3734, 13.5189, -6.5566, -2.671, 13.5589, -6.5544, -2.7186, 13.4941, -6.5697, -2.6926, 13.3508, -6.3368, -2.9488, 13.4334, -6.5865, -2.7478, 13.4311, -6.5873, -2.7572, 13.3508, -6.3368, -2.9488, 13.3946, -6.4073, -2.8116, 13.4334, -6.5865, -2.7478, 13.4183, -6.5921, -2.8102, 13.4436, -6.5968, -3.1782, 13.3388, -6.5992, -3.1267, 13.3196, -6.5869, -3.1964, 13.342, -6.5847, -3.2177, 13.3134, -6.5823, -3.2183, 13.5731, -6.2655, -3.1365, 13.7087, -6.4167, -2.8548, 13.6746, -6.4185, -2.7837, 13.5731, -6.2655, -3.1365, 13.6941, -6.3946, -2.9059, 13.7087, -6.4167, -2.8548, 5.5257, 2.4218, 7.3915, 5.4593, 2.3633, 7.1507, 5.5521, 2.4161, 7.1998, 5.5257, 2.4218, 7.3915, 5.7008, 2.426, 7.4031, 5.6347, 2.3885, 7.5607, 5.7093, 2.4254, 7.3813, 5.5257, 2.4218, 7.3915, 5.5521, 2.4161, 7.1998, 5.7093, 2.4254, 7.3813, 5.7008, 2.426, 7.4031, 5.5257, 2.4218, 7.3915, 5.4593, 2.3633, 7.1507, 5.4588, 2.3626, 7.1501, 5.4569, 2.3626, 7.1447, 5.842, 2.3431, 7.0135, 5.7325, 2.3505, 6.9939, 5.843, 2.3311, 6.9604, 5.8352, 2.3481, 7.0325, 5.7325, 2.3505, 6.9939, 5.842, 2.3431, 7.0135, 5.7354, 2.4217, 7.3129, 5.7325, 2.3505, 6.9939, 5.8352, 2.3481, 7.0325, 5.7354, 2.4217, 7.3129, 5.5521, 2.4161, 7.1998, 5.7325, 2.3505, 6.9939, 5.4679, 2.3798, 7.0819, 5.4569, 2.3626, 7.1447, 5.4435, 2.361, 7.0999, 5.4679, 2.3798, 7.0819, 5.4593, 2.3633, 7.1507, 5.4569, 2.3626, 7.1447, 5.4679, 2.3798, 7.0819, 5.5521, 2.4161, 7.1998, 5.4593, 2.3633, 7.1507, 5.4593, 2.3633, 7.1507, 5.5131, 2.3886, 7.3979, 5.4593, 2.3627, 7.1519, 5.5257, 2.4218, 7.3915, 5.5131, 2.3886, 7.3979, 5.4593, 2.3633, 7.1507, 5.8617, 2.324, 6.9565, 5.6428, 2.1881, 7.1029, 5.8043, 2.1649, 7.0518, 5.8617, 2.324, 6.9565, 5.8465, 2.3298, 6.9597, 5.6428, 2.1881, 7.1029, 5.8043, 2.1649, 7.0518, 5.6428, 2.1881, 7.1029, 5.7443, 2.1274, 7.1933, 5.6428, 2.1881, 7.1029, 5.6239, 2.3443, 7.5741, 5.7437, 2.1272, 7.1946, 5.4435, 2.361, 7.0999, 5.6239, 2.3443, 7.5741, 5.6428, 2.1881, 7.1029, 5.4435, 2.361, 7.0999, 5.6073, 2.3538, 7.5574, 5.6239, 2.3443, 7.5741, 5.4435, 2.361, 7.0999, 5.4592, 2.3625, 7.1509, 5.6073, 2.3538, 7.5574, 5.4592, 2.3625, 7.1509, 5.5231, 2.3865, 7.4204, 5.6073, 2.3538, 7.5574, 5.4569, 2.3626, 7.1447, 5.4592, 2.3625, 7.1509, 5.4435, 2.361, 7.0999, 5.4569, 2.3626, 7.1447, 5.4588, 2.3626, 7.1501, 5.4592, 2.3625, 7.1509, 5.4593, 2.3627, 7.1519, 5.5231, 2.3865, 7.4204, 5.4592, 2.3625, 7.1509, 5.5131, 2.3886, 7.3979, 5.5231, 2.3865, 7.4204, 5.4593, 2.3627, 7.1519, 5.6428, 2.1881, 7.1029, 5.7437, 2.1272, 7.1946, 5.7443, 2.1274, 7.1933, 5.7443, 2.1274, 7.1933, 5.7437, 2.1272, 7.1946, 5.6239, 2.3443, 7.5741, 5.4592, 2.3625, 7.1509, 5.4593, 2.3633, 7.1507, 5.4593, 2.3627, 7.1519, 5.5407, 2.3798, 7.054, 5.5521, 2.4161, 7.1998, 5.4679, 2.3798, 7.0819, 5.5231, 2.3865, 7.4204, 5.6308, 2.3764, 7.5668, 5.6073, 2.3538, 7.5574, 5.5231, 2.3865, 7.4204, 5.6347, 2.3885, 7.5607, 5.6308, 2.3764, 7.5668, 5.5257, 2.4218, 7.3915, 5.6347, 2.3885, 7.5607, 5.5231, 2.3865, 7.4204, 5.842, 2.3431, 7.0135, 5.8465, 2.3298, 6.9597, 5.8617, 2.324, 6.9565, 5.842, 2.3431, 7.0135, 5.843, 2.3311, 6.9604, 5.8465, 2.3298, 6.9597, 5.7093, 2.4254, 7.3813, 5.5521, 2.4161, 7.1998, 5.7354, 2.4217, 7.3129, 5.5131, 2.3886, 7.3979, 5.5257, 2.4218, 7.3915, 5.5231, 2.3865, 7.4204, 5.8465, 2.3298, 6.9597, 5.4435, 2.361, 7.0999, 5.6428, 2.1881, 7.1029, 5.843, 2.3311, 6.9604, 5.4435, 2.361, 7.0999, 5.8465, 2.3298, 6.9597, 5.7325, 2.3505, 6.9939, 5.4435, 2.361, 7.0999, 5.843, 2.3311, 6.9604, 5.5407, 2.3798, 7.054, 5.4435, 2.361, 7.0999, 5.7325, 2.3505, 6.9939, 5.5407, 2.3798, 7.054, 5.4679, 2.3798, 7.0819, 5.4435, 2.361, 7.0999, 5.6239, 2.3443, 7.5741, 5.8043, 2.1649, 7.0518, 5.7443, 2.1274, 7.1933, 5.6239, 2.3443, 7.5741, 5.8617, 2.324, 6.9565, 5.8043, 2.1649, 7.0518, 5.6239, 2.3443, 7.5741, 5.842, 2.3431, 7.0135, 5.8617, 2.324, 6.9565, 5.6239, 2.3443, 7.5741, 5.8352, 2.3481, 7.0325, 5.842, 2.3431, 7.0135, 5.6252, 2.3505, 7.5727, 5.8352, 2.3481, 7.0325, 5.6239, 2.3443, 7.5741, 5.6252, 2.3505, 7.5727, 5.6275, 2.3611, 7.5703, 5.8352, 2.3481, 7.0325, 5.7325, 2.3505, 6.9939, 5.5521, 2.4161, 7.1998, 5.5407, 2.3798, 7.054, 5.6073, 2.3538, 7.5574, 5.6252, 2.3505, 7.5727, 5.6239, 2.3443, 7.5741, 5.6073, 2.3538, 7.5574, 5.6275, 2.3611, 7.5703, 5.6252, 2.3505, 7.5727, 5.6308, 2.3764, 7.5668, 5.6275, 2.3611, 7.5703, 5.6073, 2.3538, 7.5574, 5.6275, 2.3611, 7.5703, 5.7354, 2.4217, 7.3129, 5.8352, 2.3481, 7.0325, 5.6308, 2.3764, 7.5668, 5.7354, 2.4217, 7.3129, 5.6275, 2.3611, 7.5703, 5.6347, 2.3885, 7.5607, 5.7354, 2.4217, 7.3129, 5.6308, 2.3764, 7.5668, 5.7008, 2.426, 7.4031, 5.7354, 2.4217, 7.3129, 5.6347, 2.3885, 7.5607, 5.7008, 2.426, 7.4031, 5.7093, 2.4254, 7.3813, 5.7354, 2.4217, 7.3129, 5.4588, 2.3626, 7.1501, 5.4593, 2.3633, 7.1507, 5.4592, 2.3625, 7.1509, -2.3611, 1.5526, 8.3542, -2.3067, 1.5636, 8.3955, -2.3421, 1.5455, 8.3401, -2.3611, 1.5526, 8.3542, -2.3421, 1.5455, 8.3401, -2.3508, 1.541, 8.3292, -2.5111, 1.758, 7.904, -2.4219, 1.9442, 7.9758, -2.4725, 1.6807, 8.0164, -2.4688, 1.8857, 7.9177, -2.4219, 1.9442, 7.9758, -2.5111, 1.758, 7.904, -2.4225, 1.9443, 7.9747, -2.4219, 1.9442, 7.9758, -2.4688, 1.8857, 7.9177, -2.4699, 1.6702, 8.0086, -2.4169, 1.6112, 8.2803, -2.4205, 1.5703, 8.1384, -2.4699, 1.6702, 8.0086, -2.4725, 1.6807, 8.0164, -2.4169, 1.6112, 8.2803, -2.3611, 1.5526, 8.3542, -2.4169, 1.6112, 8.2803, -2.3667, 1.8468, 8.3454, -2.4169, 1.6112, 8.2803, -2.4272, 1.814, 8.2529, -2.3667, 1.8468, 8.3454, -2.3667, 1.8468, 8.3454, -2.2399, 1.8764, 8.4324, -2.24, 1.8385, 8.4474, -2.274, 1.9356, 8.3822, -2.2399, 1.8764, 8.4324, -2.3667, 1.8468, 8.3454, -2.274, 1.9356, 8.3822, -2.2572, 1.926, 8.3992, -2.2399, 1.8764, 8.4324, -2.4219, 1.9442, 7.9758, -2.4272, 1.814, 8.2529, -2.4725, 1.6807, 8.0164, -2.4219, 1.9442, 7.9758, -2.4217, 1.9445, 7.9774, -2.4272, 1.814, 8.2529, -2.3667, 1.8468, 8.3454, -2.3067, 1.5636, 8.3955, -2.3611, 1.5526, 8.3542, -2.3667, 1.8468, 8.3454, -2.2545, 1.5924, 8.4349, -2.3067, 1.5636, 8.3955, -2.3998, 1.5562, 8.1591, -2.3601, 1.537, 8.299, -2.3768, 1.5327, 8.1916, -2.3998, 1.5562, 8.1591, -2.3611, 1.5526, 8.3542, -2.3601, 1.537, 8.299, -2.3998, 1.5562, 8.1591, -2.4169, 1.6112, 8.2803, -2.3611, 1.5526, 8.3542, -2.4169, 1.6112, 8.2803, -2.3998, 1.5562, 8.1591, -2.4205, 1.5703, 8.1384, -2.24, 1.8385, 8.4474, -2.229, 1.8481, 8.4389, -2.2173, 1.8195, 8.4375, -2.4725, 1.6807, 8.0164, -2.4272, 1.814, 8.2529, -2.4169, 1.6112, 8.2803, -2.368, 1.9705, 8.2228, -2.3667, 1.8468, 8.3454, -2.4272, 1.814, 8.2529, -2.368, 1.9705, 8.2228, -2.3579, 1.9684, 8.2455, -2.3667, 1.8468, 8.3454, -2.3667, 1.8468, 8.3454, -2.3579, 1.9684, 8.2455, -2.274, 1.9356, 8.3822, -2.139, 1.6718, 8.218, -2.1374, 1.7092, 8.0197, -2.1853, 1.6514, 8.0812, -2.2572, 1.926, 8.3992, -2.2386, 1.7703, 7.9279, -2.1374, 1.7092, 8.0197, -2.2572, 1.926, 8.3992, -2.4378, 1.9429, 7.9248, -2.2386, 1.7703, 7.9279, -2.274, 1.9356, 8.3822, -2.4378, 1.9429, 7.9248, -2.2572, 1.926, 8.3992, -2.3579, 1.9684, 8.2455, -2.4219, 1.9442, 7.9758, -2.274, 1.9356, 8.3822, -2.4219, 1.9442, 7.9758, -2.4378, 1.9429, 7.9248, -2.274, 1.9356, 8.3822, -2.4219, 1.9442, 7.9758, -2.4253, 1.9444, 7.9667, -2.4378, 1.9429, 7.9248, -2.3579, 1.9684, 8.2455, -2.4217, 1.9445, 7.9774, -2.4219, 1.9442, 7.9758, -2.4225, 1.9443, 7.9747, -2.4253, 1.9444, 7.9667, -2.4219, 1.9442, 7.9758, -2.3579, 1.9684, 8.2455, -2.368, 1.9705, 8.2228, -2.4217, 1.9445, 7.9774, -2.1853, 1.6514, 8.0812, -2.3998, 1.5562, 8.1591, -2.3768, 1.5327, 8.1916, -2.1853, 1.6514, 8.0812, -2.4205, 1.5703, 8.1384, -2.3998, 1.5562, 8.1591, -2.1853, 1.6514, 8.0812, -2.4699, 1.6702, 8.0086, -2.4205, 1.5703, 8.1384, -2.1374, 1.7092, 8.0197, -2.4699, 1.6702, 8.0086, -2.1853, 1.6514, 8.0812, -2.1374, 1.7092, 8.0197, -2.5089, 1.7512, 7.9037, -2.4699, 1.6702, 8.0086, -2.2386, 1.7703, 7.9279, -2.5089, 1.7512, 7.9037, -2.1374, 1.7092, 8.0197, -2.2386, 1.7703, 7.9279, -2.5111, 1.758, 7.904, -2.5089, 1.7512, 7.9037, -2.2386, 1.7703, 7.9279, -2.4688, 1.8857, 7.9177, -2.5111, 1.758, 7.904, -2.4378, 1.9429, 7.9248, -2.4688, 1.8857, 7.9177, -2.2386, 1.7703, 7.9279, -2.4378, 1.9429, 7.9248, -2.4423, 1.9401, 7.9242, -2.4688, 1.8857, 7.9177, -2.24, 1.8385, 8.4474, -2.1596, 1.6489, 8.4242, -2.177, 1.6381, 8.4342, -2.24, 1.8385, 8.4474, -2.1492, 1.6554, 8.4182, -2.1596, 1.6489, 8.4242, -2.24, 1.8385, 8.4474, -2.2173, 1.8195, 8.4375, -2.1492, 1.6554, 8.4182, -2.368, 1.9705, 8.2228, -2.4272, 1.814, 8.2529, -2.4217, 1.9445, 7.9774, -2.4253, 1.9444, 7.9667, -2.4423, 1.9401, 7.9242, -2.4378, 1.9429, 7.9248, -2.3601, 1.537, 8.299, -2.3611, 1.5526, 8.3542, -2.3508, 1.541, 8.3292, -2.229, 1.8481, 8.4389, -2.24, 1.8385, 8.4474, -2.2399, 1.8764, 8.4324, -2.3601, 1.537, 8.299, -2.1853, 1.6514, 8.0812, -2.3768, 1.5327, 8.1916, -2.3508, 1.541, 8.3292, -2.1853, 1.6514, 8.0812, -2.3601, 1.537, 8.299, -2.3421, 1.5455, 8.3401, -2.1853, 1.6514, 8.0812, -2.3508, 1.541, 8.3292, -2.3067, 1.5636, 8.3955, -2.1853, 1.6514, 8.0812, -2.3421, 1.5455, 8.3401, -2.2545, 1.5924, 8.4349, -2.1853, 1.6514, 8.0812, -2.3067, 1.5636, 8.3955, -2.2465, 1.5967, 8.4414, -2.1853, 1.6514, 8.0812, -2.2545, 1.5924, 8.4349, -2.177, 1.6381, 8.4342, -2.1853, 1.6514, 8.0812, -2.2465, 1.5967, 8.4414, -2.1596, 1.6489, 8.4242, -2.1853, 1.6514, 8.0812, -2.177, 1.6381, 8.4342, -2.4423, 1.9401, 7.9242, -2.4225, 1.9443, 7.9747, -2.4688, 1.8857, 7.9177, -2.4253, 1.9444, 7.9667, -2.4225, 1.9443, 7.9747, -2.4423, 1.9401, 7.9242, -2.2465, 1.5967, 8.4414, -2.24, 1.8385, 8.4474, -2.177, 1.6381, 8.4342, -2.3667, 1.8468, 8.3454, -2.2465, 1.5967, 8.4414, -2.2545, 1.5924, 8.4349, -2.3667, 1.8468, 8.3454, -2.24, 1.8385, 8.4474, -2.2465, 1.5967, 8.4414, -2.5089, 1.7512, 7.9037, -2.4725, 1.6807, 8.0164, -2.4699, 1.6702, 8.0086, -2.5089, 1.7512, 7.9037, -2.5111, 1.758, 7.904, -2.4725, 1.6807, 8.0164, -2.1492, 1.6554, 8.4182, -2.1853, 1.6514, 8.0812, -2.1596, 1.6489, 8.4242, -2.1492, 1.6554, 8.4182, -2.139, 1.6718, 8.218, -2.1853, 1.6514, 8.0812, -2.2173, 1.8195, 8.4375, -2.139, 1.6718, 8.218, -2.1492, 1.6554, 8.4182, -2.2173, 1.8195, 8.4375, -2.1374, 1.7092, 8.0197, -2.139, 1.6718, 8.218, -2.2173, 1.8195, 8.4375, -2.2572, 1.926, 8.3992, -2.1374, 1.7092, 8.0197, -2.229, 1.8481, 8.4389, -2.2572, 1.926, 8.3992, -2.2173, 1.8195, 8.4375, -2.2399, 1.8764, 8.4324, -2.2572, 1.926, 8.3992, -2.229, 1.8481, 8.4389, 13.486, -2.7143, 0.3245, 13.6034, -2.6677, 0.3658, 13.6142, -2.7935, -0.0204, 13.7308, -2.6516, 0.1884, 13.715, -2.6925, 0.0296, 13.6142, -2.7935, -0.0204, 13.7308, -2.6516, 0.1884, 13.7352, -2.6494, 0.1771, 13.715, -2.6925, 0.0296, 13.6034, -2.6677, 0.3658, 13.7308, -2.6516, 0.1884, 13.6142, -2.7935, -0.0204, 13.7104, -2.6474, 0.2367, 13.7308, -2.6516, 0.1884, 13.6034, -2.6677, 0.3658, 13.6142, -2.7935, -0.0204, 13.7391, -2.6074, -0.1199, 13.5442, -2.8007, -0.0708, 13.5442, -2.8007, -0.0708, 13.5646, -2.6646, -0.2248, 13.4984, -2.7213, -0.1766, 13.7729, -2.6159, 0.0771, 13.7391, -2.6074, -0.1199, 13.715, -2.6925, 0.0296, 13.7838, -2.5883, 0.0437, 13.7391, -2.6074, -0.1199, 13.7729, -2.6159, 0.0771, 13.715, -2.6925, 0.0296, 13.7391, -2.6074, -0.1199, 13.6142, -2.7935, -0.0204, 13.5504, -2.508, 0.53, 13.6161, -2.5027, 0.427, 13.5478, -2.5161, 0.5347, 13.6129, -2.4893, 0.4312, 13.6161, -2.5027, 0.427, 13.5504, -2.508, 0.53, 13.5478, -2.5161, 0.5347, 13.6161, -2.5027, 0.427, 13.6683, -2.5955, 0.3251, 13.5478, -2.5161, 0.5347, 13.7104, -2.6474, 0.2367, 13.6034, -2.6677, 0.3658, 13.5478, -2.5161, 0.5347, 13.6683, -2.5955, 0.3251, 13.7104, -2.6474, 0.2367, 13.4599, -2.6951, 0.3686, 13.6034, -2.6677, 0.3658, 13.486, -2.7143, 0.3245, 13.4817, -2.6324, 0.4738, 13.6034, -2.6677, 0.3658, 13.4599, -2.6951, 0.3686, 13.486, -2.7143, 0.3245, 13.6142, -2.7935, -0.0204, 13.4019, -2.8429, 0.0311, 13.6142, -2.7935, -0.0204, 13.5442, -2.8007, -0.0708, 13.4019, -2.8429, 0.0311, 13.5442, -2.8007, -0.0708, 13.3819, -2.828, -0.0149, 13.4019, -2.8429, 0.0311, 13.5442, -2.8007, -0.0708, 13.4183, -2.8045, -0.0778, 13.3819, -2.828, -0.0149, 13.7391, -2.6074, -0.1199, 13.5646, -2.6646, -0.2248, 13.5442, -2.8007, -0.0708, 13.7391, -2.6074, -0.1199, 13.5887, -2.6343, -0.2391, 13.5646, -2.6646, -0.2248, 13.5442, -2.8007, -0.0708, 13.4822, -2.7325, -0.1638, 13.4183, -2.8045, -0.0778, 13.4984, -2.7213, -0.1766, 13.4822, -2.7325, -0.1638, 13.5442, -2.8007, -0.0708, 13.4882, -2.6152, 0.504, 13.5478, -2.5161, 0.5347, 13.6034, -2.6677, 0.3658, 13.4891, -2.5366, 0.5669, 13.5478, -2.5161, 0.5347, 13.4882, -2.6152, 0.504, 13.4984, -2.7213, -0.1766, 13.5547, -2.5333, -0.1698, 13.4822, -2.7325, -0.1638, 13.5646, -2.6646, -0.2248, 13.5547, -2.5333, -0.1698, 13.4984, -2.7213, -0.1766, 13.5887, -2.6343, -0.2391, 13.5547, -2.5333, -0.1698, 13.5646, -2.6646, -0.2248, 13.6056, -2.5289, -0.2203, 13.5547, -2.5333, -0.1698, 13.5887, -2.6343, -0.2391, 13.496, -2.4176, 0.0514, 13.4152, -2.4471, 0.2081, 13.4142, -2.4476, 0.2097, 13.496, -2.4176, 0.0514, 13.4142, -2.4476, 0.2097, 13.5547, -2.5333, -0.1698, 13.6056, -2.5289, -0.2203, 13.496, -2.4176, 0.0514, 13.5547, -2.5333, -0.1698, 13.6142, -2.5162, -0.2128, 13.496, -2.4176, 0.0514, 13.6056, -2.5289, -0.2203, 13.6462, -2.4343, -0.138, 13.496, -2.4176, 0.0514, 13.6142, -2.5162, -0.2128, 13.6594, -2.3901, -0.0932, 13.496, -2.4176, 0.0514, 13.6462, -2.4343, -0.138, 13.4127, -2.485, 0.4079, 13.4994, -2.5136, 0.5594, 13.4831, -2.5152, 0.5679, 13.4127, -2.485, 0.4079, 13.4152, -2.4471, 0.2081, 13.4994, -2.5136, 0.5594, 13.4152, -2.4471, 0.2081, 13.4127, -2.485, 0.4079, 13.4142, -2.4476, 0.2097, 13.4142, -2.4476, 0.2097, 13.4127, -2.485, 0.4079, 13.3663, -2.5053, 0.2713, 13.4183, -2.8045, -0.0778, 13.3658, -2.8265, 0.022, 13.3819, -2.828, -0.0149, 13.4183, -2.8045, -0.0778, 13.3663, -2.5053, 0.2713, 13.3658, -2.8265, 0.022, 13.4822, -2.7325, -0.1638, 13.3663, -2.5053, 0.2713, 13.4183, -2.8045, -0.0778, 13.5547, -2.5333, -0.1698, 13.3663, -2.5053, 0.2713, 13.4822, -2.7325, -0.1638, 13.4142, -2.4476, 0.2097, 13.3663, -2.5053, 0.2713, 13.5547, -2.5333, -0.1698, 13.7781, -2.5192, 0.0391, 13.7391, -2.6074, -0.1199, 13.7838, -2.5883, 0.0437, 13.3819, -2.828, -0.0149, 13.3685, -2.8284, 0.0274, 13.4019, -2.8429, 0.0311, 13.3819, -2.828, -0.0149, 13.3658, -2.8265, 0.022, 13.3685, -2.8284, 0.0274, 13.7781, -2.5192, 0.0391, 13.7513, -2.418, 0.0547, 13.7391, -2.6074, -0.1199, 13.7566, -2.4201, 0.0653, 13.7513, -2.418, 0.0547, 13.7781, -2.5192, 0.0391, 13.4831, -2.5152, 0.5679, 13.5478, -2.5161, 0.5347, 13.4891, -2.5366, 0.5669, 13.4831, -2.5152, 0.5679, 13.5399, -2.5095, 0.5381, 13.5478, -2.5161, 0.5347, 13.4994, -2.5136, 0.5594, 13.5399, -2.5095, 0.5381, 13.4831, -2.5152, 0.5679, 13.7729, -2.6159, 0.0771, 13.715, -2.6925, 0.0296, 13.7352, -2.6494, 0.1771, 13.3845, -2.8233, 0.0732, 13.4019, -2.8429, 0.0311, 13.3685, -2.8284, 0.0274, 13.496, -2.4176, 0.0514, 13.6761, -2.3939, -0.0732, 13.4152, -2.4471, 0.2081, 13.6594, -2.3901, -0.0932, 13.6761, -2.3939, -0.0732, 13.496, -2.4176, 0.0514, 13.3845, -2.8233, 0.0732, 13.486, -2.7143, 0.3245, 13.4019, -2.8429, 0.0311, 13.4542, -2.7024, 0.3481, 13.486, -2.7143, 0.3245, 13.3845, -2.8233, 0.0732, 13.7391, -2.6074, -0.1199, 13.6056, -2.5289, -0.2203, 13.5887, -2.6343, -0.2391, 13.6142, -2.5162, -0.2128, 13.6056, -2.5289, -0.2203, 13.7391, -2.6074, -0.1199, 13.5446, -2.509, 0.5352, 13.5478, -2.5161, 0.5347, 13.5399, -2.5095, 0.5381, 13.6142, -2.5162, -0.2128, 13.7391, -2.6074, -0.1199, 13.6462, -2.4343, -0.138, 13.7104, -2.6474, 0.2367, 13.7352, -2.6494, 0.1771, 13.7308, -2.6516, 0.1884, 13.7104, -2.6474, 0.2367, 13.7729, -2.6159, 0.0771, 13.7352, -2.6494, 0.1771, 13.6683, -2.5955, 0.3251, 13.7729, -2.6159, 0.0771, 13.7104, -2.6474, 0.2367, 13.6683, -2.5955, 0.3251, 13.7838, -2.5883, 0.0437, 13.7729, -2.6159, 0.0771, 13.6161, -2.5027, 0.427, 13.7838, -2.5883, 0.0437, 13.6683, -2.5955, 0.3251, 13.6161, -2.5027, 0.427, 13.7781, -2.5192, 0.0391, 13.7838, -2.5883, 0.0437, 13.6161, -2.5027, 0.427, 13.7566, -2.4201, 0.0653, 13.7781, -2.5192, 0.0391, 13.6129, -2.4893, 0.4312, 13.7566, -2.4201, 0.0653, 13.6161, -2.5027, 0.427, 13.3658, -2.8265, 0.022, 13.3845, -2.8233, 0.0732, 13.3685, -2.8284, 0.0274, 13.3663, -2.5053, 0.2713, 13.3845, -2.8233, 0.0732, 13.3658, -2.8265, 0.022, 13.3663, -2.5053, 0.2713, 13.4542, -2.7024, 0.3481, 13.3845, -2.8233, 0.0732, 13.3663, -2.5053, 0.2713, 13.4599, -2.6951, 0.3686, 13.4542, -2.7024, 0.3481, 13.3663, -2.5053, 0.2713, 13.4817, -2.6324, 0.4738, 13.4599, -2.6951, 0.3686, 13.3663, -2.5053, 0.2713, 13.4882, -2.6152, 0.504, 13.4817, -2.6324, 0.4738, 13.3663, -2.5053, 0.2713, 13.4891, -2.5366, 0.5669, 13.4882, -2.6152, 0.504, 13.3663, -2.5053, 0.2713, 13.4831, -2.5152, 0.5679, 13.4891, -2.5366, 0.5669, 13.3663, -2.5053, 0.2713, 13.4127, -2.485, 0.4079, 13.4831, -2.5152, 0.5679, 13.6837, -2.3956, -0.0641, 13.6462, -2.4343, -0.138, 13.7391, -2.6074, -0.1199, 13.6837, -2.3956, -0.0641, 13.6594, -2.3901, -0.0932, 13.6462, -2.4343, -0.138, 13.6761, -2.3939, -0.0732, 13.6594, -2.3901, -0.0932, 13.6837, -2.3956, -0.0641, 13.4882, -2.6152, 0.504, 13.6034, -2.6677, 0.3658, 13.4817, -2.6324, 0.4738, 13.5504, -2.508, 0.53, 13.5478, -2.5161, 0.5347, 13.5446, -2.509, 0.5352, 13.4599, -2.6951, 0.3686, 13.486, -2.7143, 0.3245, 13.4542, -2.7024, 0.3481, 13.6837, -2.3956, -0.0641, 13.7391, -2.6074, -0.1199, 13.7513, -2.418, 0.0547, 13.4152, -2.4471, 0.2081, 13.5399, -2.5095, 0.5381, 13.4994, -2.5136, 0.5594, 13.4152, -2.4471, 0.2081, 13.5446, -2.509, 0.5352, 13.5399, -2.5095, 0.5381, 13.4152, -2.4471, 0.2081, 13.5504, -2.508, 0.53, 13.5446, -2.509, 0.5352, 13.4152, -2.4471, 0.2081, 13.6129, -2.4893, 0.4312, 13.5504, -2.508, 0.53, 13.4152, -2.4471, 0.2081, 13.7566, -2.4201, 0.0653, 13.6129, -2.4893, 0.4312, 13.6761, -2.3939, -0.0732, 13.7566, -2.4201, 0.0653, 13.4152, -2.4471, 0.2081, 13.6761, -2.3939, -0.0732, 13.7513, -2.418, 0.0547, 13.7566, -2.4201, 0.0653, 13.6761, -2.3939, -0.0732, 13.6837, -2.3956, -0.0641, 13.7513, -2.418, 0.0547, 5.9484, 1.1577, 1.7658, 5.8324, 1.1353, 1.6689, 5.9743, 0.9566, 1.6969, 5.8324, 1.1353, 1.6689, 5.7325, 0.9914, 1.6157, 5.7932, 0.9862, 1.5999, 5.8324, 1.1353, 1.6689, 5.545, 1.1341, 1.7303, 5.7325, 0.9914, 1.6157, 5.4664, 1.216, 1.8132, 5.3877, 1.1126, 1.9449, 5.5427, 1.0119, 1.6925, 5.5432, 0.9999, 1.698, 5.3877, 1.1126, 1.9449, 5.4838, 0.9786, 1.8259, 5.5427, 1.0119, 1.6925, 5.3877, 1.1126, 1.9449, 5.5432, 0.9999, 1.698, 5.4664, 1.216, 1.8132, 5.4262, 1.2355, 1.8989, 5.3877, 1.1126, 1.9449, 5.545, 1.1341, 1.7303, 5.4664, 1.216, 1.8132, 5.5427, 1.0119, 1.6925, 5.545, 1.1341, 1.7303, 5.5661, 1.2231, 1.794, 5.4664, 1.216, 1.8132, 5.9919, 1.1649, 1.8284, 5.8853, 1.2008, 1.7977, 5.9484, 1.1577, 1.7658, 5.9661, 1.1838, 1.8443, 5.8853, 1.2008, 1.7977, 5.9919, 1.1649, 1.8284, 5.8853, 1.2008, 1.7977, 5.5661, 1.2231, 1.794, 5.8324, 1.1353, 1.6689, 5.8324, 1.1353, 1.6689, 5.5661, 1.2231, 1.794, 5.545, 1.1341, 1.7303, 6.016, 1.0316, 1.779, 5.9743, 0.9566, 1.6969, 5.9841, 0.9495, 1.7041, 6.016, 1.0316, 1.779, 5.9484, 1.1577, 1.7658, 5.9743, 0.9566, 1.6969, 5.9841, 0.9495, 1.7041, 5.9694, 0.9389, 1.692, 5.9755, 0.9369, 1.6967, 5.9841, 0.9495, 1.7041, 5.9743, 0.9566, 1.6969, 5.9694, 0.9389, 1.692, 5.9743, 0.9566, 1.6969, 5.7932, 0.9862, 1.5999, 5.9109, 0.9551, 1.6592, 5.8324, 1.1353, 1.6689, 5.7932, 0.9862, 1.5999, 5.9743, 0.9566, 1.6969, 5.9743, 0.9566, 1.6969, 5.9109, 0.9551, 1.6592, 5.9694, 0.9389, 1.692, 5.5427, 1.0119, 1.6925, 5.5432, 0.9999, 1.698, 5.547, 0.9999, 1.6957, 5.7734, 1.2415, 1.9255, 5.5661, 1.2231, 1.794, 5.8853, 1.2008, 1.7977, 5.7734, 1.2415, 1.9255, 5.5811, 1.2709, 1.9857, 5.5661, 1.2231, 1.794, 5.8853, 1.2008, 1.7977, 5.8324, 1.1353, 1.6689, 5.9484, 1.1577, 1.7658, 5.4262, 1.2355, 1.8989, 5.4664, 1.216, 1.8132, 5.5661, 1.2231, 1.794, 5.5811, 1.2709, 1.9857, 5.4262, 1.2355, 1.8989, 5.5661, 1.2231, 1.794, 5.5811, 1.2709, 1.9857, 5.5082, 1.2709, 2.0137, 5.4262, 1.2355, 1.8989, 5.9024, 1.2149, 1.8882, 6.027, 1.0811, 1.824, 5.845, 1.0558, 1.9835, 5.9024, 1.2149, 1.8882, 5.9919, 1.1649, 1.8284, 6.027, 1.0811, 1.824, 5.9024, 1.2149, 1.8882, 5.9661, 1.1838, 1.8443, 5.9919, 1.1649, 1.8284, 5.8657, 1.0483, 1.9683, 5.9246, 0.9325, 1.7473, 5.845, 1.0558, 1.9835, 5.845, 1.0558, 1.9835, 6.0292, 1.0757, 1.8237, 5.8657, 1.0483, 1.9683, 6.027, 1.0811, 1.824, 6.0292, 1.0757, 1.8237, 5.845, 1.0558, 1.9835, 5.8657, 1.0483, 1.9683, 5.9755, 0.9369, 1.6967, 5.9246, 0.9325, 1.7473, 5.8657, 1.0483, 1.9683, 5.9841, 0.9495, 1.7041, 5.9755, 0.9369, 1.6967, 5.8657, 1.0483, 1.9683, 6.016, 1.0316, 1.779, 5.9841, 0.9495, 1.7041, 5.8657, 1.0483, 1.9683, 6.0292, 1.0757, 1.8237, 6.016, 1.0316, 1.779, 5.4129, 1.0571, 2.0048, 5.6829, 1.0793, 2.0347, 5.845, 1.0558, 1.9835, 5.4126, 1.0602, 2.0106, 5.6829, 1.0793, 2.0347, 5.4129, 1.0571, 2.0048, 5.4103, 1.0672, 2.011, 5.6829, 1.0793, 2.0347, 5.4126, 1.0602, 2.0106, 5.4524, 1.1945, 2.0245, 5.6829, 1.0793, 2.0347, 5.4103, 1.0672, 2.011, 5.4524, 1.1945, 2.0245, 5.4838, 1.252, 2.0317, 5.6829, 1.0793, 2.0347, 5.4791, 1.2491, 2.0311, 5.4838, 1.252, 2.0317, 5.4524, 1.1945, 2.0245, 5.6829, 1.0793, 2.0347, 5.4966, 1.2619, 2.0223, 5.845, 1.0558, 1.9835, 5.4838, 1.252, 2.0317, 5.4966, 1.2619, 2.0223, 5.6829, 1.0793, 2.0347, 5.4966, 1.2619, 2.0223, 5.9024, 1.2149, 1.8882, 5.845, 1.0558, 1.9835, 5.4966, 1.2619, 2.0223, 5.8835, 1.2222, 1.8922, 5.9024, 1.2149, 1.8882, 5.4966, 1.2619, 2.0223, 5.7734, 1.2415, 1.9255, 5.8835, 1.2222, 1.8922, 5.4966, 1.2619, 2.0223, 5.5811, 1.2709, 1.9857, 5.7734, 1.2415, 1.9255, 5.5082, 1.2709, 2.0137, 5.5811, 1.2709, 1.9857, 5.4966, 1.2619, 2.0223, 5.478, 0.9747, 1.8462, 5.845, 1.0558, 1.9835, 5.9246, 0.9325, 1.7473, 5.4158, 1.0313, 1.9558, 5.845, 1.0558, 1.9835, 5.478, 0.9747, 1.8462, 5.4129, 1.0571, 2.0048, 5.845, 1.0558, 1.9835, 5.4158, 1.0313, 1.9558, 5.5082, 1.2709, 2.0137, 5.4791, 1.2491, 2.0311, 5.4262, 1.2355, 1.8989, 5.5082, 1.2709, 2.0137, 5.4838, 1.252, 2.0317, 5.4791, 1.2491, 2.0311, 5.5082, 1.2709, 2.0137, 5.4966, 1.2619, 2.0223, 5.4838, 1.252, 2.0317, 5.545, 1.1341, 1.7303, 5.5945, 0.9991, 1.6693, 5.7325, 0.9914, 1.6157, 5.545, 1.1341, 1.7303, 5.5427, 1.0119, 1.6925, 5.5945, 0.9991, 1.6693, 5.4262, 1.2355, 1.8989, 5.4524, 1.1945, 2.0245, 5.3877, 1.1126, 1.9449, 5.4262, 1.2355, 1.8989, 5.4791, 1.2491, 2.0311, 5.4524, 1.1945, 2.0245, 6.0292, 1.0757, 1.8237, 5.9484, 1.1577, 1.7658, 6.016, 1.0316, 1.779, 6.027, 1.0811, 1.824, 5.9484, 1.1577, 1.7658, 6.0292, 1.0757, 1.8237, 5.9919, 1.1649, 1.8284, 5.9484, 1.1577, 1.7658, 6.027, 1.0811, 1.824, 5.4838, 0.9786, 1.8259, 5.4158, 1.0313, 1.9558, 5.478, 0.9747, 1.8462, 5.3877, 1.1126, 1.9449, 5.4158, 1.0313, 1.9558, 5.4838, 0.9786, 1.8259, 5.4103, 1.0672, 2.011, 5.3877, 1.1126, 1.9449, 5.4524, 1.1945, 2.0245, 5.9024, 1.2149, 1.8882, 5.8853, 1.2008, 1.7977, 5.9661, 1.1838, 1.8443, 5.9024, 1.2149, 1.8882, 5.8835, 1.2222, 1.8922, 5.8853, 1.2008, 1.7977, 5.3877, 1.1126, 1.9449, 5.4129, 1.0571, 2.0048, 5.4158, 1.0313, 1.9558, 5.3877, 1.1126, 1.9449, 5.4126, 1.0602, 2.0106, 5.4129, 1.0571, 2.0048, 5.3877, 1.1126, 1.9449, 5.4103, 1.0672, 2.011, 5.4126, 1.0602, 2.0106, 5.5945, 0.9991, 1.6693, 5.5427, 1.0119, 1.6925, 5.547, 0.9999, 1.6957, 5.7734, 1.2415, 1.9255, 5.8853, 1.2008, 1.7977, 5.8835, 1.2222, 1.8922, 5.9755, 0.9369, 1.6967, 5.478, 0.9747, 1.8462, 5.9246, 0.9325, 1.7473, 5.9694, 0.9389, 1.692, 5.478, 0.9747, 1.8462, 5.9755, 0.9369, 1.6967, 5.9109, 0.9551, 1.6592, 5.478, 0.9747, 1.8462, 5.9694, 0.9389, 1.692, 5.7932, 0.9862, 1.5999, 5.478, 0.9747, 1.8462, 5.9109, 0.9551, 1.6592, 5.7932, 0.9862, 1.5999, 5.4838, 0.9786, 1.8259, 5.478, 0.9747, 1.8462, 5.7932, 0.9862, 1.5999, 5.5432, 0.9999, 1.698, 5.4838, 0.9786, 1.8259, 5.7325, 0.9914, 1.6157, 5.5432, 0.9999, 1.698, 5.7932, 0.9862, 1.5999, 5.5945, 0.9991, 1.6693, 5.5432, 0.9999, 1.698, 5.7325, 0.9914, 1.6157, 5.547, 0.9999, 1.6957, 5.5432, 0.9999, 1.698, 5.5945, 0.9991, 1.6693, 1.5329, -3.3002, 0.1165, 1.5271, -3.2097, 0.4368, 1.6946, -3.3704, 0.1345, 1.6858, -3.3515, 0.0263, 1.6984, -3.3714, 0.1297, 1.7146, -3.3729, 0.0925, 1.6858, -3.3515, 0.0263, 1.6946, -3.3704, 0.1345, 1.6984, -3.3714, 0.1297, 1.6858, -3.3515, 0.0263, 1.5329, -3.3002, 0.1165, 1.6946, -3.3704, 0.1345, 1.5194, -3.1948, 0.0124, 1.4573, -3.2061, 0.1771, 1.5329, -3.3002, 0.1165, 1.5194, -3.1948, 0.0124, 1.4917, -3.1496, 0.0206, 1.4573, -3.2061, 0.1771, 1.3788, -2.9796, 0.1466, 1.4145, -3.0316, 0.3064, 1.4573, -3.2061, 0.1771, 1.3788, -2.9796, 0.1466, 1.3755, -2.9507, 0.2014, 1.4145, -3.0316, 0.3064, 1.6328, -3.2959, -0.0172, 1.5329, -3.3002, 0.1165, 1.6858, -3.3515, 0.0263, 1.6328, -3.2959, -0.0172, 1.5802, -3.269, -0.0045, 1.5329, -3.3002, 0.1165, 1.6858, -3.3515, 0.0263, 1.7192, -3.3001, -0.0362, 1.6328, -3.2959, -0.0172, 1.4846, -3.1455, 0.4568, 1.6989, -3.0504, 0.379, 1.5075, -3.169, 0.4893, 1.4638, -3.1314, 0.436, 1.6989, -3.0504, 0.379, 1.4846, -3.1455, 0.4568, 1.4145, -3.0316, 0.3064, 1.6989, -3.0504, 0.379, 1.4638, -3.1314, 0.436, 1.4145, -3.0316, 0.3064, 1.7469, -2.9925, 0.3173, 1.6989, -3.0504, 0.379, 1.3755, -2.9507, 0.2014, 1.7469, -2.9925, 0.3173, 1.4145, -3.0316, 0.3064, 1.3755, -2.9507, 0.2014, 1.6459, -2.9315, 0.2257, 1.7469, -2.9925, 0.3173, 1.7469, -2.9925, 0.3173, 1.6459, -2.9315, 0.2257, 1.8078, -2.9549, 0.1745, 1.6984, -3.3714, 0.1297, 1.7509, -3.3496, 0.03, 1.7146, -3.3729, 0.0925, 1.6989, -3.0504, 0.379, 1.7509, -3.3496, 0.03, 1.6984, -3.3714, 0.1297, 1.6989, -3.0504, 0.379, 1.8146, -3.2777, -0.0558, 1.7509, -3.3496, 0.03, 1.6989, -3.0504, 0.379, 1.8872, -3.0784, -0.0617, 1.8146, -3.2777, -0.0558, 1.6989, -3.0504, 0.379, 1.8284, -2.9625, 0.1594, 1.8872, -3.0784, -0.0617, 1.8284, -2.9625, 0.1594, 1.6989, -3.0504, 0.379, 1.7488, -2.9917, 0.3136, 1.7488, -2.9917, 0.3136, 1.6989, -3.0504, 0.379, 1.7469, -2.9925, 0.3173, 1.7488, -2.9917, 0.3136, 1.7469, -2.9925, 0.3173, 1.8078, -2.9549, 0.1745, 1.8284, -2.9625, 0.1594, 1.8078, -2.9549, 0.1745, 1.8872, -3.0784, -0.0617, 1.7488, -2.9917, 0.3136, 1.8078, -2.9549, 0.1745, 1.8284, -2.9625, 0.1594, 1.7509, -3.3496, 0.03, 1.7192, -3.3001, -0.0362, 1.6858, -3.3515, 0.0263, 1.8146, -3.2777, -0.0558, 1.7192, -3.3001, -0.0362, 1.7509, -3.3496, 0.03, 1.4573, -3.2061, 0.1771, 1.4846, -3.1455, 0.4568, 1.5329, -3.3002, 0.1165, 1.4638, -3.1314, 0.436, 1.4846, -3.1455, 0.4568, 1.4573, -3.2061, 0.1771, 1.8078, -2.9549, 0.1745, 1.4408, -3.0362, 0.0372, 1.8872, -3.0784, -0.0617, 1.8078, -2.9549, 0.1745, 1.3788, -2.9796, 0.1466, 1.4408, -3.0362, 0.0372, 1.8078, -2.9549, 0.1745, 1.3755, -2.9507, 0.2014, 1.3788, -2.9796, 0.1466, 1.6459, -2.9315, 0.2257, 1.3755, -2.9507, 0.2014, 1.8078, -2.9549, 0.1745, 1.6946, -3.3704, 0.1345, 1.6989, -3.0504, 0.379, 1.6984, -3.3714, 0.1297, 1.5271, -3.2097, 0.4368, 1.6989, -3.0504, 0.379, 1.6946, -3.3704, 0.1345, 1.5075, -3.169, 0.4893, 1.6989, -3.0504, 0.379, 1.5271, -3.2097, 0.4368, 1.4638, -3.1314, 0.436, 1.4573, -3.2061, 0.1771, 1.4145, -3.0316, 0.3064, 1.4846, -3.1455, 0.4568, 1.5271, -3.2097, 0.4368, 1.5329, -3.3002, 0.1165, 1.4846, -3.1455, 0.4568, 1.5075, -3.169, 0.4893, 1.5271, -3.2097, 0.4368, 1.8146, -3.2777, -0.0558, 1.6328, -3.2959, -0.0172, 1.7192, -3.3001, -0.0362, 1.8146, -3.2777, -0.0558, 1.5802, -3.269, -0.0045, 1.6328, -3.2959, -0.0172, 1.8872, -3.0784, -0.0617, 1.5802, -3.269, -0.0045, 1.8146, -3.2777, -0.0558, 1.8872, -3.0784, -0.0617, 1.5194, -3.1948, 0.0124, 1.5802, -3.269, -0.0045, 1.8872, -3.0784, -0.0617, 1.4917, -3.1496, 0.0206, 1.5194, -3.1948, 0.0124, 1.8872, -3.0784, -0.0617, 1.4408, -3.0362, 0.0372, 1.4917, -3.1496, 0.0206, 1.7509, -3.3496, 0.03, 1.6858, -3.3515, 0.0263, 1.7146, -3.3729, 0.0925, 1.4917, -3.1496, 0.0206, 1.3788, -2.9796, 0.1466, 1.4573, -3.2061, 0.1771, 1.4408, -3.0362, 0.0372, 1.3788, -2.9796, 0.1466, 1.4917, -3.1496, 0.0206, 1.5194, -3.1948, 0.0124, 1.5329, -3.3002, 0.1165, 1.5802, -3.269, -0.0045, -0.003, -5.3642, 7.9871, 0.1806, -5.3983, 7.8603, 0.174, -5.4155, 7.83, -0.003, -5.3642, 7.9871, 0.0834, -5.354, 7.977, 0.1806, -5.3983, 7.8603, 0.067, -5.3019, 7.9804, 0.1813, -5.3198, 7.9232, 0.0834, -5.354, 7.977, 0.067, -5.3019, 7.9804, 0.1754, -5.2984, 7.9242, 0.1813, -5.3198, 7.9232, 0.095, -5.2846, 7.9643, 0.1754, -5.2984, 7.9242, 0.067, -5.3019, 7.9804, 0.095, -5.2846, 7.9643, 0.1624, -5.2961, 7.9306, 0.1754, -5.2984, 7.9242, -0.003, -5.3642, 7.9871, -0.0104, -5.3476, 7.9812, -0.0025, -5.3433, 7.9876, -0.0025, -5.3433, 7.9876, 0.0834, -5.354, 7.977, -0.003, -5.3642, 7.9871, -0.0025, -5.3433, 7.9876, 0.067, -5.3019, 7.9804, 0.0834, -5.354, 7.977, 0.0769, -5.6062, 7.4298, 0.0581, -5.6096, 7.3784, 0.0606, -5.6114, 7.3835, 0.0769, -5.6062, 7.4298, 0.0587, -5.2887, 7.6276, 0.0581, -5.6096, 7.3784, 0.1465, -5.4855, 7.7044, 0.0587, -5.2887, 7.6276, 0.0769, -5.6062, 7.4298, 0.1523, -5.4782, 7.7249, 0.0587, -5.2887, 7.6276, 0.1465, -5.4855, 7.7044, 0.174, -5.4155, 7.83, 0.0587, -5.2887, 7.6276, 0.1523, -5.4782, 7.7249, 0.1806, -5.3983, 7.8603, 0.0587, -5.2887, 7.6276, 0.174, -5.4155, 7.83, 0.1813, -5.3198, 7.9232, 0.0587, -5.2887, 7.6276, 0.1806, -5.3983, 7.8603, 0.1754, -5.2984, 7.9242, 0.0587, -5.2887, 7.6276, 0.1813, -5.3198, 7.9232, 0.1053, -5.2682, 7.7647, 0.0587, -5.2887, 7.6276, 0.1754, -5.2984, 7.9242, 0.0587, -5.2887, 7.6276, 0.0546, -5.6088, 7.3828, 0.0581, -5.6096, 7.3784, 0.0587, -5.2887, 7.6276, -0.1132, -5.4477, 7.6858, 0.0546, -5.6088, 7.3828, 0.0587, -5.2887, 7.6276, -0.1327, -5.4073, 7.7378, -0.1132, -5.4477, 7.6858, 0.0546, -5.6088, 7.3828, 0.0606, -5.6114, 7.3835, 0.0581, -5.6096, 7.3784, -0.1066, -5.399, 7.875, 0.1465, -5.4855, 7.7044, 0.0769, -5.6062, 7.4298, -0.1066, -5.399, 7.875, -0.0978, -5.3943, 7.8861, 0.1465, -5.4855, 7.7044, 0.095, -5.2846, 7.9643, 0.1053, -5.2682, 7.7647, 0.1624, -5.2961, 7.9306, 0.0546, -5.6088, 7.3828, 0.0769, -5.6062, 7.4298, 0.0606, -5.6114, 7.3835, -0.1132, -5.4477, 7.6858, 0.0769, -5.6062, 7.4298, 0.0546, -5.6088, 7.3828, -0.1132, -5.4477, 7.6858, -0.1066, -5.399, 7.875, 0.0769, -5.6062, 7.4298, -0.1161, -5.403, 7.8444, -0.1066, -5.399, 7.875, -0.1132, -5.4477, 7.6858, -0.0104, -5.3476, 7.9812, -0.003, -5.3642, 7.9871, -0.0619, -5.376, 7.9424, 0.0587, -5.2887, 7.6276, -0.1161, -5.403, 7.8444, -0.1327, -5.4073, 7.7378, 0.0587, -5.2887, 7.6276, -0.1066, -5.399, 7.875, -0.1161, -5.403, 7.8444, 0.0587, -5.2887, 7.6276, -0.0978, -5.3943, 7.8861, -0.1066, -5.399, 7.875, 0.0587, -5.2887, 7.6276, -0.0619, -5.376, 7.9424, -0.0978, -5.3943, 7.8861, 0.0587, -5.2887, 7.6276, -0.0104, -5.3476, 7.9812, -0.0619, -5.376, 7.9424, 0.0587, -5.2887, 7.6276, -0.0025, -5.3433, 7.9876, -0.0104, -5.3476, 7.9812, 0.0587, -5.2887, 7.6276, 0.067, -5.3019, 7.9804, -0.0025, -5.3433, 7.9876, 0.0587, -5.2887, 7.6276, 0.095, -5.2846, 7.9643, 0.067, -5.3019, 7.9804, 0.1053, -5.2682, 7.7647, 0.095, -5.2846, 7.9643, 0.0587, -5.2887, 7.6276, -0.1161, -5.403, 7.8444, -0.1132, -5.4477, 7.6858, -0.1327, -5.4073, 7.7378, 0.1624, -5.2961, 7.9306, 0.1053, -5.2682, 7.7647, 0.1754, -5.2984, 7.9242, 0.1806, -5.3983, 7.8603, 0.0834, -5.354, 7.977, 0.1813, -5.3198, 7.9232, -0.0978, -5.3943, 7.8861, 0.1523, -5.4782, 7.7249, 0.1465, -5.4855, 7.7044, -0.0978, -5.3943, 7.8861, -0.003, -5.3642, 7.9871, 0.1523, -5.4782, 7.7249, -0.0619, -5.376, 7.9424, -0.003, -5.3642, 7.9871, -0.0978, -5.3943, 7.8861, 0.1523, -5.4782, 7.7249, -0.003, -5.3642, 7.9871, 0.174, -5.4155, 7.83, 5.4196, -3.121, -6.5389, 5.2652, -2.9966, -6.6168, 5.3069, -3.1307, -6.5585, 5.2652, -2.9966, -6.6168, 5.2138, -2.9575, -6.5854, 5.0767, -2.9499, -6.5323, 5.0279, -3.058, -6.4532, 4.9591, -2.9742, -6.3548, 5.0099, -3.0875, -6.3714, 4.9649, -2.9703, -6.3753, 4.9591, -2.9742, -6.3548, 5.0279, -3.058, -6.4532, 5.3069, -3.1307, -6.5585, 5.2652, -2.9966, -6.6168, 5.1149, -3.1961, -6.4385, 5.2652, -2.9966, -6.6168, 5.028, -2.9491, -6.5051, 5.1149, -3.1961, -6.4385, 5.0767, -2.9499, -6.5323, 5.028, -2.9491, -6.5051, 5.2652, -2.9966, -6.6168, 5.1149, -3.1961, -6.4385, 5.0374, -3.1325, -6.3796, 5.0985, -3.2069, -6.3965, 5.0279, -3.058, -6.4532, 5.0374, -3.1325, -6.3796, 5.1149, -3.1961, -6.4385, 4.9591, -2.9742, -6.3548, 5.4563, -3.0121, -6.5043, 5.4055, -3.0165, -6.4538, 4.9591, -2.9742, -6.3548, 5.4502, -3.0101, -6.509, 5.4563, -3.0121, -6.5043, 4.9591, -2.9742, -6.3548, 5.3908, -2.9936, -6.5423, 5.4502, -3.0101, -6.509, 4.9591, -2.9742, -6.3548, 5.2741, -2.9627, -6.6011, 5.3908, -2.9936, -6.5423, 4.9649, -2.9703, -6.3753, 5.2741, -2.9627, -6.6011, 4.9591, -2.9742, -6.3548, 5.0241, -2.9491, -6.5028, 5.2741, -2.9627, -6.6011, 4.9649, -2.9703, -6.3753, 5.0241, -2.9491, -6.5028, 5.2138, -2.9575, -6.5854, 5.2741, -2.9627, -6.6011, 5.0241, -2.9491, -6.5028, 5.0767, -2.9499, -6.5323, 5.2138, -2.9575, -6.5854, 5.0241, -2.9491, -6.5028, 5.028, -2.9491, -6.5051, 5.0767, -2.9499, -6.5323, 5.1506, -3.2336, -6.4092, 5.333, -3.2153, -6.4479, 5.2375, -3.2378, -6.4283, 5.0985, -3.2069, -6.3965, 5.333, -3.2153, -6.4479, 5.1506, -3.2336, -6.4092, 5.0985, -3.2069, -6.3965, 5.4055, -3.0165, -6.4538, 5.333, -3.2153, -6.4479, 5.0374, -3.1325, -6.3796, 5.4055, -3.0165, -6.4538, 5.0985, -3.2069, -6.3965, 5.0099, -3.0875, -6.3714, 5.4055, -3.0165, -6.4538, 5.0374, -3.1325, -6.3796, 4.9591, -2.9742, -6.3548, 5.4055, -3.0165, -6.4538, 5.0099, -3.0875, -6.3714, 5.333, -3.2153, -6.4479, 5.3069, -3.1307, -6.5585, 5.2375, -3.2378, -6.4283, 5.3493, -3.2042, -6.4607, 5.3069, -3.1307, -6.5585, 5.333, -3.2153, -6.4479, 5.0374, -3.1325, -6.3796, 5.0279, -3.058, -6.4532, 5.0099, -3.0875, -6.3714, 5.1506, -3.2336, -6.4092, 5.1149, -3.1961, -6.4385, 5.0985, -3.2069, -6.3965, 5.4156, -3.1473, -6.5091, 5.3069, -3.1307, -6.5585, 5.3493, -3.2042, -6.4607, 5.4196, -3.121, -6.5389, 5.3069, -3.1307, -6.5585, 5.4156, -3.1473, -6.5091, 5.2741, -2.9627, -6.6011, 5.2652, -2.9966, -6.6168, 5.3908, -2.9936, -6.5423, 5.4394, -3.1174, -6.5232, 5.4502, -3.0101, -6.509, 5.4196, -3.121, -6.5389, 5.4563, -3.0121, -6.5043, 5.4502, -3.0101, -6.509, 5.4394, -3.1174, -6.5232, 4.9649, -2.9703, -6.3753, 5.0279, -3.058, -6.4532, 5.0241, -2.9491, -6.5028, 5.2138, -2.9575, -6.5854, 5.2652, -2.9966, -6.6168, 5.2741, -2.9627, -6.6011, 5.4394, -3.1174, -6.5232, 5.4196, -3.121, -6.5389, 5.4156, -3.1473, -6.5091, 5.028, -2.9491, -6.5051, 5.0279, -3.058, -6.4532, 5.1149, -3.1961, -6.4385, 5.028, -2.9491, -6.5051, 5.0241, -2.9491, -6.5028, 5.0279, -3.058, -6.4532, 5.4502, -3.0101, -6.509, 5.2652, -2.9966, -6.6168, 5.4196, -3.121, -6.5389, 5.3908, -2.9936, -6.5423, 5.2652, -2.9966, -6.6168, 5.4502, -3.0101, -6.509, 5.3069, -3.1307, -6.5585, 5.1506, -3.2336, -6.4092, 5.2375, -3.2378, -6.4283, 5.3069, -3.1307, -6.5585, 5.1149, -3.1961, -6.4385, 5.1506, -3.2336, -6.4092, 5.4055, -3.0165, -6.4538, 5.3493, -3.2042, -6.4607, 5.333, -3.2153, -6.4479, 5.4055, -3.0165, -6.4538, 5.4156, -3.1473, -6.5091, 5.3493, -3.2042, -6.4607, 5.4055, -3.0165, -6.4538, 5.4394, -3.1174, -6.5232, 5.4156, -3.1473, -6.5091, 5.4055, -3.0165, -6.4538, 5.4563, -3.0121, -6.5043, 5.4394, -3.1174, -6.5232, 6.9812, 0.8494, 8.7093, 6.9997, 0.7506, 8.6735, 7.0075, 0.7488, 8.6828, 6.9812, 0.8494, 8.7093, 6.9832, 0.7544, 8.6537, 6.9997, 0.7506, 8.6735, 6.9812, 0.8494, 8.7093, 6.9809, 0.7597, 8.654, 6.9832, 0.7544, 8.6537, 6.9812, 0.8494, 8.7093, 6.9458, 0.8435, 8.6584, 6.9809, 0.7597, 8.654, 6.8293, 0.9944, 9.1362, 6.9203, 0.8623, 8.6742, 6.9812, 0.8494, 8.7093, 6.8293, 0.9944, 9.1362, 6.8563, 0.8935, 8.7183, 6.9203, 0.8623, 8.6742, 6.8293, 0.9944, 9.1362, 6.8533, 0.8965, 8.7272, 6.8563, 0.8935, 8.7183, 6.8293, 0.9944, 9.1362, 6.8362, 0.913, 8.7764, 6.8533, 0.8965, 8.7272, 6.9577, 0.889, 9.1313, 6.8657, 0.9692, 9.1683, 7.0815, 0.8237, 8.8914, 6.6356, 0.9562, 9.3328, 6.8657, 0.9692, 9.1683, 6.7438, 0.9198, 9.3008, 7.0815, 0.8237, 8.8914, 7.0075, 0.7488, 8.6828, 7.0751, 0.7264, 8.8017, 7.0815, 0.8237, 8.8914, 6.9812, 0.8494, 8.7093, 7.0075, 0.7488, 8.6828, 6.8293, 0.9944, 9.1362, 6.9812, 0.8494, 8.7093, 7.0815, 0.8237, 8.8914, 6.7241, 0.9963, 9.1669, 6.8293, 0.9944, 9.1362, 6.8657, 0.9692, 9.1683, 6.8657, 0.9692, 9.1683, 6.9577, 0.889, 9.1313, 6.7438, 0.9198, 9.3008, 6.7438, 0.9198, 9.3008, 6.8743, 0.6365, 9.2766, 6.8683, 0.6355, 9.282, 6.7438, 0.9198, 9.3008, 6.9577, 0.889, 9.1313, 6.8743, 0.6365, 9.2766, 6.8657, 0.9692, 9.1683, 6.8293, 0.9944, 9.1362, 7.0815, 0.8237, 8.8914, 6.7241, 0.9963, 9.1669, 6.8657, 0.9692, 9.1683, 6.6356, 0.9562, 9.3328, 6.6354, 0.8649, 9.3689, 6.7438, 0.9198, 9.3008, 6.6465, 0.8359, 9.3756, 6.6356, 0.9562, 9.3328, 6.7438, 0.9198, 9.3008, 6.6354, 0.8649, 9.3689, 7.108, 0.7358, 8.8854, 7.0751, 0.7264, 8.8017, 7.0804, 0.7243, 8.8124, 7.108, 0.7358, 8.8854, 7.0815, 0.8237, 8.8914, 7.0751, 0.7264, 8.8017, 6.8293, 0.9944, 9.1362, 6.7038, 0.9951, 9.1434, 6.73, 0.9914, 9.0749, 6.7241, 0.9963, 9.1669, 6.7038, 0.9951, 9.1434, 6.8293, 0.9944, 9.1362, 6.7366, 0.6594, 9.1553, 6.6585, 0.8067, 9.3742, 6.7263, 0.643, 9.355, 6.7382, 0.6969, 8.957, 6.6585, 0.8067, 9.3742, 6.7366, 0.6594, 9.1553, 6.6183, 0.9138, 9.3362, 6.6585, 0.8067, 9.3742, 6.7382, 0.6969, 8.957, 6.6183, 0.9138, 9.3362, 6.6465, 0.8359, 9.3756, 6.6585, 0.8067, 9.3742, 6.6183, 0.9138, 9.3362, 6.6354, 0.8649, 9.3689, 6.6465, 0.8359, 9.3756, 6.8196, 0.727, 8.7984, 6.799, 0.7343, 8.8135, 6.7401, 0.6977, 8.9529, 6.9997, 0.7506, 8.6735, 6.8196, 0.727, 8.7984, 6.7401, 0.6977, 8.9529, 6.9997, 0.7506, 8.6735, 6.9832, 0.7544, 8.6537, 6.8196, 0.727, 8.7984, 6.8533, 0.8965, 8.7272, 6.6183, 0.9138, 9.3362, 6.7382, 0.6969, 8.957, 6.8362, 0.913, 8.7764, 6.6183, 0.9138, 9.3362, 6.8533, 0.8965, 8.7272, 6.73, 0.9914, 9.0749, 6.6183, 0.9138, 9.3362, 6.8362, 0.913, 8.7764, 6.73, 0.9914, 9.0749, 6.6254, 0.9464, 9.3287, 6.6183, 0.9138, 9.3362, 6.73, 0.9914, 9.0749, 6.6292, 0.9581, 9.3228, 6.6254, 0.9464, 9.3287, 6.73, 0.9914, 9.0749, 6.6955, 0.9957, 9.165, 6.6292, 0.9581, 9.3228, 6.7038, 0.9951, 9.1434, 6.6955, 0.9957, 9.165, 6.73, 0.9914, 9.0749, 6.799, 0.7343, 8.8135, 6.7382, 0.6969, 8.957, 6.7401, 0.6977, 8.9529, 6.7401, 0.6977, 8.9529, 6.7382, 0.6969, 8.957, 6.7366, 0.6594, 9.1553, 6.9577, 0.889, 9.1313, 7.108, 0.7358, 8.8854, 7.0873, 0.7259, 8.9382, 6.9577, 0.889, 9.1313, 7.0815, 0.8237, 8.8914, 7.108, 0.7358, 8.8854, 6.9832, 0.7544, 8.6537, 6.799, 0.7343, 8.8135, 6.8196, 0.727, 8.7984, 6.9832, 0.7544, 8.6537, 6.9809, 0.7597, 8.654, 6.799, 0.7343, 8.8135, 6.8634, 0.6349, 9.285, 6.7366, 0.6594, 9.1553, 6.8068, 0.6293, 9.3148, 6.8683, 0.6355, 9.282, 6.7366, 0.6594, 9.1553, 6.8634, 0.6349, 9.285, 6.8743, 0.6365, 9.2766, 6.7366, 0.6594, 9.1553, 6.8683, 0.6355, 9.282, 6.9373, 0.6553, 9.177, 6.7366, 0.6594, 9.1553, 6.8743, 0.6365, 9.2766, 7.0804, 0.7243, 8.8124, 6.7366, 0.6594, 9.1553, 6.9373, 0.6553, 9.177, 7.0804, 0.7243, 8.8124, 6.7401, 0.6977, 8.9529, 6.7366, 0.6594, 9.1553, 7.0804, 0.7243, 8.8124, 6.9997, 0.7506, 8.6735, 6.7401, 0.6977, 8.9529, 7.0751, 0.7264, 8.8017, 6.9997, 0.7506, 8.6735, 7.0804, 0.7243, 8.8124, 7.0075, 0.7488, 8.6828, 6.9997, 0.7506, 8.6735, 7.0751, 0.7264, 8.8017, 6.7263, 0.643, 9.355, 6.8634, 0.6349, 9.285, 6.8068, 0.6293, 9.3148, 6.7263, 0.643, 9.355, 6.6585, 0.8067, 9.3742, 6.8634, 0.6349, 9.285, 6.9809, 0.7597, 8.654, 6.8563, 0.8935, 8.7183, 6.799, 0.7343, 8.8135, 6.9458, 0.8435, 8.6584, 6.8563, 0.8935, 8.7183, 6.9809, 0.7597, 8.654, 6.9203, 0.8623, 8.6742, 6.8563, 0.8935, 8.7183, 6.9458, 0.8435, 8.6584, 6.6292, 0.9581, 9.3228, 6.7241, 0.9963, 9.1669, 6.6356, 0.9562, 9.3328, 6.6955, 0.9957, 9.165, 6.7241, 0.9963, 9.1669, 6.6292, 0.9581, 9.3228, 6.8068, 0.6293, 9.3148, 6.7366, 0.6594, 9.1553, 6.7263, 0.643, 9.355, 6.6585, 0.8067, 9.3742, 6.8683, 0.6355, 9.282, 6.8634, 0.6349, 9.285, 6.6585, 0.8067, 9.3742, 6.7438, 0.9198, 9.3008, 6.8683, 0.6355, 9.282, 6.6465, 0.8359, 9.3756, 6.7438, 0.9198, 9.3008, 6.6585, 0.8067, 9.3742, 6.9577, 0.889, 9.1313, 6.9373, 0.6553, 9.177, 6.8743, 0.6365, 9.2766, 6.9577, 0.889, 9.1313, 7.0873, 0.7259, 8.9382, 6.9373, 0.6553, 9.177, 6.6292, 0.9581, 9.3228, 6.6356, 0.9562, 9.3328, 6.6254, 0.9464, 9.3287, 6.6183, 0.9138, 9.3362, 6.6356, 0.9562, 9.3328, 6.6354, 0.8649, 9.3689, 6.6254, 0.9464, 9.3287, 6.6356, 0.9562, 9.3328, 6.6183, 0.9138, 9.3362, 6.9458, 0.8435, 8.6584, 6.9812, 0.8494, 8.7093, 6.9203, 0.8623, 8.6742, 6.799, 0.7343, 8.8135, 6.8533, 0.8965, 8.7272, 6.7382, 0.6969, 8.957, 6.8563, 0.8935, 8.7183, 6.8533, 0.8965, 8.7272, 6.799, 0.7343, 8.8135, 6.8362, 0.913, 8.7764, 6.8293, 0.9944, 9.1362, 6.73, 0.9914, 9.0749, 6.7038, 0.9951, 9.1434, 6.7241, 0.9963, 9.1669, 6.6955, 0.9957, 9.165, 7.0873, 0.7259, 8.9382, 7.0804, 0.7243, 8.8124, 6.9373, 0.6553, 9.177, 7.0873, 0.7259, 8.9382, 7.108, 0.7358, 8.8854, 7.0804, 0.7243, 8.8124 )

[node name="ast_shards_2" instance=ExtResource( 1 )]
script = ExtResource( 2 )

[node name="StaticBody3D" type="StaticBody3D" parent="ast_shards_2" index="0"]

[node name="CollisionShape3D" type="CollisionShape3D" parent="ast_shards_2/StaticBody3D" index="0"]
shape = SubResource( 1 )

[connection signal="input_event" from="ast_shards_2/StaticBody3D" to="." method="_on_StaticBody_input_event"]
