<?xml version="1.0" encoding="UTF-8" standalone="no"?>
<svg
   xmlns:dc="http://purl.org/dc/elements/1.1/"
   xmlns:cc="http://creativecommons.org/ns#"
   xmlns:rdf="http://www.w3.org/1999/02/22-rdf-syntax-ns#"
   xmlns:svg="http://www.w3.org/2000/svg"
   xmlns="http://www.w3.org/2000/svg"
   xmlns:sodipodi="http://sodipodi.sourceforge.net/DTD/sodipodi-0.dtd"
   xmlns:inkscape="http://www.inkscape.org/namespaces/inkscape"
   sodipodi:docname="parolanto_v2.svg"
   inkscape:version="1.0 (6e3e5246a0, 2020-05-07)"
   width="27"
   height="27"
   viewBox="0 0 27 27"
   version="1.1"
   id="svg1765">
  <defs
     id="defs1759">
    <inkscape:path-effect
       lpeversion="1"
       is_visible="true"
       id="path-effect3134"
       effect="spiro" />
    <inkscape:path-effect
       effect="spiro"
       id="path-effect2134"
       is_visible="true"
       lpeversion="1" />
    <inkscape:path-effect
       effect="spiro"
       id="path-effect2143"
       is_visible="true"
       lpeversion="1" />
  </defs>
  <sodipodi:namedview
     id="base"
     pagecolor="#ffffff"
     bordercolor="#666666"
     borderopacity="1.0"
     inkscape:pageopacity="0.0"
     inkscape:pageshadow="2"
     inkscape:zoom="11.2"
     inkscape:cx="16.159361"
     inkscape:cy="24.802753"
     inkscape:document-units="px"
     inkscape:current-layer="layer1"
     inkscape:document-rotation="0"
     showgrid="false"
     inkscape:window-width="1528"
     inkscape:window-height="836"
     inkscape:window-x="72"
     inkscape:window-y="27"
     inkscape:window-maximized="1" />
  <metadata
     id="metadata1762">
    <rdf:RDF>
      <cc:Work
         rdf:about="">
        <dc:format>image/svg+xml</dc:format>
        <dc:type
           rdf:resource="http://purl.org/dc/dcmitype/StillImage" />
        <dc:title />
      </cc:Work>
    </rdf:RDF>
  </metadata>
  <g
     inkscape:label="Слой 1"
     inkscape:groupmode="layer"
     id="layer1">
    <path
       style="fill:none;stroke:#ffffff;stroke-width:1.06914;stroke-linecap:butt;stroke-linejoin:miter;stroke-miterlimit:4;stroke-dasharray:none;stroke-opacity:1"
       d="m 16.757983,3.7592818 c 1.764193,0.5385735 3.375782,1.567918 4.606269,2.9420869 1.230486,1.3741688 2.076322,3.0892006 2.417579,4.9019283 0.341258,1.812727 0.176953,3.717924 -0.469618,5.445461 -0.64657,1.727537 -1.773543,3.272433 -3.221129,4.415644 -1.010089,0.797704 -2.173082,1.401077 -3.406904,1.767538"
       id="path3132"
       inkscape:path-effect="#path-effect3134"
       inkscape:original-d="m 16.757983,3.7592818 c 0.02057,5.3247951 7.445898,16.2891602 3.333101,17.7051202 -6.199165,2.134221 -3.406904,1.767538 -3.406904,1.767538"
       sodipodi:nodetypes="csc" />
    <path
       sodipodi:nodetypes="csc"
       inkscape:original-d="m 16.816843,6.213914 c 0.01286,4.019551 4.406086,12.296298 1.972354,13.365184 -3.668321,1.611089 -2.016035,1.334274 -2.016035,1.334274"
       inkscape:path-effect="#path-effect2134"
       id="path3132-6"
       d="m 16.816843,6.213914 c 2.405343,1.1356292 4.175908,3.5231135 4.564242,6.154563 0.388333,2.631449 -0.617115,5.4286 -2.591888,7.210621 -0.600512,0.541898 -1.282551,0.993292 -2.016035,1.334274"
       style="fill:none;stroke:#ffffff;stroke-width:1.06914;stroke-linecap:butt;stroke-linejoin:miter;stroke-miterlimit:4;stroke-dasharray:none;stroke-opacity:1" />
    <path
       sodipodi:nodetypes="csc"
       inkscape:original-d="m 16.81216,9.7237667 c 0.0052,2.0808193 2.151118,6.3654753 0.962936,6.9188213 -1.790969,0.833996 -0.984262,0.690724 -0.984262,0.690724"
       inkscape:path-effect="#path-effect2143"
       id="path3132-0"
       d="m 16.81216,9.7237667 c 1.210816,0.6248743 2.086045,1.8604073 2.27387,3.2099513 0.187824,1.349543 -0.316764,2.777113 -1.310934,3.70887 -0.293423,0.275002 -0.62587,0.508302 -0.984262,0.690724"
       style="fill:none;stroke:#ffffff;stroke-width:1.06914;stroke-linecap:butt;stroke-linejoin:miter;stroke-miterlimit:4;stroke-dasharray:none;stroke-opacity:1" />
    <path
       style="fill:none;fill-opacity:1;stroke:#ffffff;stroke-width:1;stroke-miterlimit:4;stroke-dasharray:none;stroke-opacity:1"
       d="M 3.3959715,9.194155 H 7.9092858 V 17.59207 H 3.3959715 Z"
       id="rect2151" />
    <path
       style="fill:none;stroke:#ffffff;stroke-width:1;stroke-linecap:butt;stroke-linejoin:miter;stroke-miterlimit:4;stroke-dasharray:none;stroke-opacity:1"
       d="M 14.504721,24.275977 V 2.7287487 l -6.5954352,6.5056849 0.027201,8.3350634 z"
       id="path2155"
       sodipodi:nodetypes="ccccc" />
    <circle
       style="fill:none;stroke:#ffffff;stroke-width:1.3;stroke-miterlimit:4;stroke-dasharray:none"
       id="path1042-6"
       cx="13.500002"
       cy="13.500002"
       r="12.918574" />
  </g>
  <sodipodi:guide
     id="guide2366"
     inkscape:label="baseline"
     orientation="0,1"
     position="0,250" />
  <sodipodi:guide
     id="guide2368"
     inkscape:label="ascender"
     orientation="0,1"
     position="0,1000" />
  <sodipodi:guide
     id="guide2370"
     inkscape:label="caps"
     orientation="0,1"
     position="0,1000" />
  <sodipodi:guide
     id="guide2372"
     inkscape:label="xheight"
     orientation="0,1"
     position="0,750" />
  <sodipodi:guide
     id="guide2374"
     inkscape:label="descender"
     orientation="0,1"
     position="0,0" />
  <sodipodi:guide
     position="0,250"
     orientation="0,1"
     inkscape:label="baseline"
     id="guide1263" />
  <sodipodi:guide
     position="0,1000"
     orientation="0,1"
     inkscape:label="ascender"
     id="guide1265" />
  <sodipodi:guide
     position="0,1000"
     orientation="0,1"
     inkscape:label="caps"
     id="guide1267" />
  <sodipodi:guide
     position="0,750"
     orientation="0,1"
     inkscape:label="xheight"
     id="guide1269" />
  <sodipodi:guide
     position="0,0"
     orientation="0,1"
     inkscape:label="descender"
     id="guide1271" />
</svg>
