[gd_scene load_steps=3 format=2]

[ext_resource path="res://kerno/fenestroj/tipo_a2.tscn" type="PackedScene" id=1]
[ext_resource path="res://blokoj/sciigoj/ad_1.gd" type="Script" id=2]

[node name="ad_1" instance=ExtResource( 1 )]
mouse_filter = 2
script = ExtResource( 2 )

[node name="CanvasLayer" parent="." index="0"]
layer = 2

[node name="Margin" parent="CanvasLayer" index="0"]
visible = false
