[gd_scene load_steps=3 format=2]

[ext_resource path="res://blokoj/kosmosxipoj/skriptoj/ui_armilo.gd" type="Script" id=1]

[sub_resource type="CompressedTexture2D" id=1]
flags = 7
load_path = "res://.import/violet_frame.png-87830372cca8a5ac122306709e6d8376.s3tc.stex"

[node name="ui_armilo" type="Control"]
anchor_right = 1.0
anchor_bottom = 1.0
mouse_filter = 2
script = ExtResource( 1 )
__meta__ = {
"_edit_use_anchors_": false
}

[node name="kanonadi" type="CheckButton" parent="."]
anchor_left = 0.5
anchor_top = 1.0
anchor_right = 0.5
anchor_bottom = 1.0
offset_left = -41.3673
offset_top = -81.531
offset_right = 34.6327
offset_bottom = -41.531
__meta__ = {
"_edit_use_anchors_": false
}

[node name="livero" type="ProgressBar" parent="kanonadi"]
anchor_left = 0.5
anchor_top = 1.0
anchor_right = 0.5
anchor_bottom = 1.0
offset_left = -39.0847
offset_top = 12.7241
offset_right = 33.9153
offset_bottom = 29.7241
__meta__ = {
"_edit_use_anchors_": false
}

[node name="celilo" type="TextureRect" parent="."]
visible = false
offset_left = 796.335
offset_top = 58.9282
offset_right = 846.335
offset_bottom = 108.928
texture = SubResource( 1 )
expand = true
__meta__ = {
"_edit_use_anchors_": false
}

[node name="label" type="Label" parent="celilo"]
anchor_top = 1.0
anchor_bottom = 1.0
offset_left = -7.0
offset_top = 13.0
offset_right = 70.0
offset_bottom = 47.0

[connection signal="pressed" from="kanonadi" to="." method="_on_kanonadi_pressed"]
