[gd_scene load_steps=3 format=2]

[ext_resource path="res://blokoj/kosmosxipoj/scenoj/baseSpaceship/engineParticles.tscn" type="PackedScene" id=1]
[ext_resource path="res://blokoj/kosmosxipoj/scenoj/baseSpaceship/engine_ins.glb" type="PackedScene" id=2]



[node name="engine_ins" instance=ExtResource( 2 )]

[node name="engine_ins" parent="." index="0"]
transform = Transform3D( 1, 0, 0, 0, 0.248179, 0.968714, 0, -0.968714, 0.248179, 0, 0, 0 )

[node name="Particles" parent="engine_ins" index="0" instance=ExtResource( 1 )]
transform = Transform3D( -1.62921e-07, 1, 0, -0.248179, -4.04335e-08, -0.968714, -0.968714, -1.57824e-07, 0.248179, 0.0538006, -0.0423753, 0.000622034 )
visibility_aabb = AABB( -0.290247, -0.16919, -0.2261, 0.580493, 0.338381, 0.452201 )
